View "blockA" {
SP(0,0,0){0.00455624999999999};
SP(0,0,0){0.00455624999999999};
SP(0,0,0){0.00455624999999999};
SP(0,0,0){0.00455624999999999};
SP(0,0,0){0.00455624999999999};
SP(0,0,0){0.00455624999999999};
};
