View "fLa" {
VP(0,0,0){0,0,0};
VP(0,0,0){0,0,-1.152197862478611e-07};
VP(0,0,0){0,0,-2.039303035429254e-07};
VP(0,0,0){0,0,-2.422597326910182e-07};
VP(0,0,0){0,0,-2.418053821681015e-07};
VP(0,0,0){0,0,-2.194399614848387e-07};
};
