$ResFormat /* GetDP 3.0.5-git-997fd378, ascii */
1.1 0
$EndResFormat
$Solution  /* DofData #0 */
0 0 0 0
0 0
0 0
0 0
0 0
0 0
0 0
0 0
0 0
0 0
0 0
0 0
0 0
0 0
0 0
0 0
0 0
0 0
0 0
0 0
0 0
0 0
0 0
0 0
0 0
0 0
0 0
0 0
0 0
0 0
0 0
0 0
0 0
0 0
0 0
0 0
0 0
0 0
0 0
0 0
0 0
0 0
0 0
0 0
0 0
0 0
0 0
0 0
0 0
0 0
0 0
0 0
0 0
0 0
0 0
0 0
0 0
0 0
0 0
0 0
0 0
0 0
0 0
0 0
0 0
0 0
0 0
0 0
0 0
0 0
0 0
0 0
0 0
0 0
0 0
0 0
0 0
0 0
0 0
0 0
0 0
0 0
0 0
0 0
0 0
0 0
0 0
0 0
0 0
0 0
0 0
0 0
0 0
0 0
0 0
0 0
0 0
0 0
0 0
0 0
0 0
0 0
0 0
0 0
0 0
0 0
0 0
0 0
0 0
0 0
0 0
0 0
0 0
0 0
0 0
0 0
0 0
0 0
0 0
0 0
0 0
0 0
0 0
0 0
0 0
0 0
0 0
0 0
0 0
0 0
0 0
0 0
0 0
0 0
0 0
0 0
0 0
0 0
0 0
0 0
0 0
0 0
0 0
0 0
0 0
0 0
0 0
0 0
0 0
0 0
0 0
0 0
0 0
0 0
0 0
0 0
0 0
0 0
0 0
0 0
0 0
0 0
0 0
0 0
0 0
0 0
0 0
0 0
0 0
0 0
0 0
0 0
0 0
0 0
0 0
0 0
0 0
0 0
0 0
0 0
0 0
0 0
0 0
0 0
0 0
0 0
0 0
0 0
0 0
0 0
0 0
0 0
0 0
0 0
0 0
0 0
0 0
0 0
0 0
0 0
0 0
0 0
0 0
0 0
0 0
0 0
0 0
0 0
0 0
0 0
0 0
0 0
0 0
0 0
0 0
0 0
0 0
0 0
0 0
0 0
0 0
0 0
0 0
0 0
0 0
0 0
0 0
0 0
0 0
0 0
0 0
0 0
0 0
0 0
0 0
0 0
0 0
0 0
0 0
0 0
0 0
0 0
0 0
0 0
0 0
0 0
0 0
0 0
0 0
0 0
0 0
0 0
0 0
0 0
0 0
0 0
0 0
0 0
0 0
0 0
0 0
0 0
0 0
0 0
0 0
0 0
0 0
0 0
0 0
0 0
0 0
0 0
0 0
0 0
0 0
0 0
0 0
0 0
0 0
0 0
0 0
0 0
0 0
0 0
0 0
0 0
0 0
0 0
0 0
0 0
0 0
0 0
0 0
0 0
0 0
0 0
0 0
0 0
0 0
0 0
0 0
0 0
0 0
0 0
0 0
0 0
0 0
0 0
0 0
0 0
0 0
0 0
0 0
0 0
0 0
0 0
0 0
0 0
0 0
0 0
0 0
0 0
0 0
0 0
0 0
0 0
0 0
0 0
0 0
0 0
0 0
0 0
0 0
0 0
0 0
0 0
0 0
0 0
0 0
0 0
0 0
0 0
0 0
0 0
0 0
0 0
0 0
0 0
0 0
0 0
0 0
0 0
0 0
0 0
0 0
0 0
0 0
0 0
0 0
0 0
0 0
0 0
0 0
0 0
0 0
0 0
0 0
0 0
0 0
0 0
0 0
0 0
0 0
0 0
0 0
0 0
0 0
0 0
0 0
0 0
0 0
0 0
0 0
0 0
0 0
0 0
0 0
0 0
0 0
0 0
0 0
0 0
0 0
0 0
0 0
0 0
0 0
0 0
0 0
0 0
0 0
0 0
0 0
0 0
0 0
0 0
0 0
0 0
0 0
0 0
0 0
0 0
0 0
0 0
0 0
0 0
0 0
0 0
0 0
0 0
0 0
0 0
0 0
0 0
0 0
0 0
0 0
0 0
0 0
0 0
0 0
0 0
0 0
0 0
0 0
0 0
0 0
0 0
0 0
0 0
0 0
0 0
0 0
0 0
0 0
0 0
0 0
0 0
0 0
0 0
0 0
0 0
0 0
0 0
0 0
0 0
0 0
0 0
0 0
0 0
0 0
0 0
0 0
0 0
0 0
0 0
0 0
0 0
0 0
0 0
0 0
0 0
0 0
0 0
0 0
0 0
0 0
0 0
0 0
0 0
0 0
0 0
0 0
0 0
0 0
0 0
0 0
0 0
0 0
0 0
0 0
0 0
0 0
0 0
0 0
0 0
0 0
0 0
0 0
0 0
0 0
0 0
0 0
0 0
0 0
0 0
0 0
0 0
0 0
0 0
0 0
0 0
0 0
0 0
0 0
0 0
0 0
0 0
0 0
0 0
0 0
0 0
0 0
0 0
0 0
0 0
0 0
0 0
0 0
0 0
0 0
0 0
0 0
0 0
0 0
0 0
0 0
0 0
0 0
0 0
0 0
0 0
0 0
0 0
0 0
0 0
0 0
0 0
0 0
0 0
0 0
0 0
0 0
$EndSolution
$Solution  /* DofData #0 */
0 0.2 0 1
-0.02214176472686579 0
0.02218595692241148 0
0.02215469985740716 0
-0.02217918644068403 0
-0.01496027598909248 0
-0.007587289809664885 0
-9.333116301520503e-06 0
0.007595899264708599 0
0.0149235471465411 0
0.01994901536226747 0
0.01494664209292706 0
0.007583405192105407 0
7.459942271895214e-06 0
-0.007598692263840286 0
-0.01493071202802122 0
-0.01996607700847392 0
0.006899271224269124 0
-0.006899632609671163 0
-0.06958473459136823 0
0.06958479099376304 0
0.08028268301615996 0
-0.08028277125745019 0
0.1169006795711815 0
-0.1169005170712763 0
0.123206793790825 0
-0.1232065870198495 0
-0.0389085739639906 0
0.03890846448494906 0
0.0194441486961236 0
-0.01944491815385957 0
0.03248026807280545 0
-0.03248080970837155 0
0.05480260208586759 0
-0.05480274378805818 0
0.1263012176756099 0
-0.1263011938827633 0
0.07932848637615768 0
-0.07932839974748895 0
-0.07115383252240641 0
0.07115455173511148 0
0.009799165460719584 0
-0.009799294401576062 0
0.1147731140444772 0
-0.1147730167490499 0
0.1531654171923289 0
-0.1531653015525947 0
0.07107519278230297 0
-0.07107490866334513 0
-0.08153846511294367 0
0.08153845764717151 0
0.09592494348706554 0
-0.09592500538897962 0
0.1536214840458209 0
-0.1536214241523028 0
-0.03536241236075987 0
0.03536218971166939 0
0.00535791091850225 0
-0.0053594505894164 0
0.1301702500771682 0
-0.1301702644557929 0
0.04068583221580528 0
-0.04068613239621368 0
-0.1048308315144682 0
0.1048311687098118 0
-0.0409647150210143 0
0.04096511749944436 0
-0.01799292250930417 0
0.01799283741075342 0
0.09371640256611087 0
-0.09371614907599869 0
0.1459570612281661 0
-0.1459569802720496 0
0.04696348230581614 0
-0.04696332633172938 0
0.003149488602373221 0
-0.003150263629136003 0
-0.01042412292909769 0
0.01042394147563832 0
0.04494933910332379 0
-0.04494941715510221 0
0.1535363911694359 0
-0.1535362900063104 0
0.1119976439073628 0
-0.1119975604631303 0
-0.04419035773329196 0
0.0441902506032795 0
0.09471568619081049 0
-0.0947156775618781 0
-0.0628184298587993 0
0.06281839467145435 0
0.02743016025585342 0
-0.02743038050161079 0
0.08003085966222843 0
-0.08003091619157568 0
-0.05753435905839957 0
0.05753429279279869 0
0.1098469222153493 0
-0.1098468969674238 0
-0.01836113191531183 0
0.01835936155781353 0
0.1712545970725267 0
-0.1712545430416417 0
0.05859539969538516 0
-0.05859547200960658 0
0.1601230424762155 0
-0.1601230205654346 0
0.0668217518073904 0
-0.06682190537734142 0
0.06003409292892882 0
-0.0600342453039264 0
0.02364082744781212 0
-0.02364202607680213 0
0.1488152165887536 0
-0.1488152129864374 0
-0.05505458929916935 0
0.05505648832156411 0
0.08951142284796797 0
-0.08951128648209798 0
0.09034076263424291 0
-0.09034070950546234 0
-0.01184876437859254 0
0.0118483356860923 0
-0.06654834198120348 0
0.06654862707234414 0
0.1402887018050883 0
-0.1402885752530305 0
0.1218741573845964 0
-0.121874181468742 0
0.09861791981446644 0
-0.09861752258678133 0
0.1020976160712763 0
-0.1020976690428694 0
0.003468279905426871 0
-0.003468337683384227 0
-0.04091366561012184 0
0.040913620481284 0
0.02372161018604898 0
-0.02372213058523751 0
-0.1304886511184097 0
0.1304888567860187 0
0.1396565564774422 0
-0.139656503654517 0
0.08138567831479308 0
-0.08138500247980662 0
0.1160720846654677 0
-0.1160720920313533 0
0.118008491180522 0
-0.1180083247583924 0
0.1291978483623838 0
-0.1291977576793225 0
-0.1732623125033881 0
0.1732623694263223 0
-0.02590557643830145 0
0.02590536330723797 0
0.04907363642779153 0
-0.04907370418122126 0
0.0985401541229943 0
-0.09853986604586328 0
0.05546423813370877 0
-0.05546446797483053 0
0.03015126266105066 0
-0.03015132199826997 0
0.0755198480947591 0
-0.07551986090555299 0
-0.08424580056611816 0
0.08424578989305768 0
0.1025814785058583 0
-0.1025815113794232 0
-0.1275350992249481 0
0.1275352848272515 0
-0.002959003922064522 0
0.002956627011745588 0
0.1734692858263421 0
-0.1734692638881321 0
0.06330423310898664 0
-0.0633042855496208 0
0.0748270287921812 0
-0.07482713573873455 0
0.01562331569534666 0
-0.0156242257864853 0
0.1423804953886739 0
-0.142380454814504 0
-0.05861449008615572 0
0.05861443088939206 0
-0.02909462837412773 0
0.029094255743984 0
0.03924490435492975 0
-0.03924504418221023 0
-0.1484707951467358 0
0.1484707911324176 0
-0.05121584000708894 0
0.05121576115945343 0
0.1348224339132892 0
-0.1348224090625452 0
0.1641689176810437 0
-0.1641688655394885 0
-0.02574860172379085 0
0.02574791662009029 0
0.008593959142737466 0
-0.00859420149473912 0
-0.0972092418479043 0
0.09720937002278184 0
0.01125273465599715 0
-0.01125483392784753 0
-0.005755770393235457 0
0.005754409162408706 0
0.1774346008626702 0
-0.1774345675463211 0
0.1061407599435409 0
-0.1061407536775275 0
-0.1779974392879098 0
0.1779974851020868 0
0.1392966711885158 0
-0.1392965312877767 0
0.02467788219040113 0
-0.02467820519346025 0
-0.0100371581500581 0
0.0100368461327176 0
-0.02266593156683736 0
0.02266580630281264 0
-0.006968516752659247 0
0.006968385010313013 0
0.04307661981583683 0
-0.04307683637189248 0
0.03590289467438369 0
-0.03590330551735819 0
-0.05732892682278794 0
0.05732948565391391 0
0.04371263343200107 0
-0.04371166794046701 0
-0.03384673640698298 0
0.03384640707389028 0
0.0850654732542923 0
-0.08506556669317805 0
0.07345770536376868 0
-0.07345769612358946 0
-0.1661679679794061 0
0.1661679764043331 0
0.09814339852808089 0
-0.09814343542135147 0
-0.01447625601289661 0
0.01447621407025403 0
0.1106946322939342 0
-0.1106945924895153 0
0.09552309875146411 0
-0.09552304249375014 0
-0.01298662292747219 0
0.01298601524215801 0
0.04064668975029468 0
-0.04064382435135307 0
0.05757246707866859 0
-0.05757256035359352 0
0.04494005038344732 0
-0.04494027560899115 0
0.06078758513024662 0
-0.06078735104235292 0
-0.1464524689865681 0
0.1464526081825554 0
-0.0414913203313519 0
0.04149117660710491 0
0.02994862004979733 0
-0.02994787956119206 0
0.1140265876439024 0
-0.1140262890317289 0
0.07962436648408651 0
-0.07962395562281653 0
-0.04673472699476065 0
0.04673466260580877 0
-0.1552598965652429 0
0.155259929883492 0
0.138372483263166 0
-0.1383724937016752 0
0.07971617717731656 0
-0.07971598597301131 0
0.01211262665981538 0
-0.01211312080640138 0
0.001771946970757876 0
-0.001773053127577907 0
0.1059305056790993 0
-0.1059303757680668 0
0.1293095343994103 0
-0.1293094348768827 0
0.1063468205453733 0
-0.106346546153943 0
0.1326320122590373 0
-0.1326320078698037 0
0.04080182246547422 0
-0.04080336656057198 0
0.07320546702418561 0
-0.07320538820518313 0
-0.05888492999284439 0
0.05888490686431372 0
0.1463600128549834 0
-0.1463599955866704 0
0.05980639880261235 0
-0.05980639616704842 0
-0.120950277630845 0
0.1209502598374322 0
0.158670564403754 0
-0.1586704949697124 0
-0.173824335654861 0
0.173824382359987 0
0.0492209027708009 0
-0.04922093648425453 0
0.1051300948957048 0
-0.105130037921384 0
0.09524802172271661 0
-0.09524800353122581 0
0.09382627321831792 0
-0.09382629616753327 0
0.0262003285761028 0
-0.02620044046706792 0
0.09281996348533411 0
-0.0928198662657586 0
-0.05941485902074803 0
0.05941492991191141 0
-0.05613769403482402 0
0.05613898262357301 0
0.07532921159010883 0
-0.07532912871821136 0
0.107706305689616 0
-0.1077063503456765 0
0.01919576858418504 0
-0.01919689872153156 0
-0.07559170750879167 0
0.07559169438907196 0
-0.0324074649886554 0
0.03240743748641136 0
0.1271541006404117 0
-0.1271540425557351 0
-0.02750079987243801 0
0.02750008497441076 0
0.1762094519787564 0
-0.1762094412159746 0
0.1577481282929392 0
-0.1577480350203535 0
-0.01192110253581047 0
0.01191730372258206 0
-0.02142463056753901 0
0.02142432092703996 0
0.07380104311997439 0
-0.07380113016682609 0
0.0191640062601493 0
-0.01916417710019371 0
0.1222057735733955 0
-0.1222057592828794 0
-0.1348589240465252 0
0.134859100082314 0
0.1872084119958426 0
-0.1872083902146814 0
-0.0728959652134861 0
0.07289593891413886 0
-0.03267160177450326 0
0.03267152041306388 0
0.07361746720440179 0
-0.07361759764163826 0
0.03202023609155469 0
-0.03202080192154704 0
0.05247111931130735 0
-0.0524713344487852 0
0.06925203605374589 0
-0.06925213099054664 0
0.01654606817952153 0
-0.01654610307746393 0
0.08654312405126206 0
-0.08654319177436705 0
0.1295251905908275 0
-0.1295250655754567 0
-0.04942760959988414 0
0.04942775691308246 0
-0.1630604522893384 0
0.1630604541552702 0
0.01760387932640796 0
-0.01760680700207353 0
0.08266550415346351 0
-0.08266541813800046 0
0.08703603237370891 0
-0.08703557026163203 0
0.07955874115013262 0
-0.07955876659625585 0
0.06893630612127608 0
-0.06893546409950102 0
-0.04039632638395295 0
0.04040000943756793 0
-0.07122166399585685 0
0.07122163888776052 0
0.1145697586983924 0
-0.1145697853293978 0
0.1386771300619821 0
-0.1386769678505343 0
0.06923827589605305 0
-0.06923726040357354 0
-0.1567090727715451 0
0.1567091143955558 0
-0.1328472040219846 0
0.1328473387673848 0
0.003144413459508706 0
-0.003144596583879054 0
0.04579822987515582 0
-0.04579854344164651 0
0.05838751526816464 0
-0.05838768174459487 0
-0.04790552614765164 0
0.04790542647832375 0
0.06041789051502783 0
-0.0604179278875342 0
0.1369875612939519 0
-0.1369875657772748 0
0.08514316952528191 0
-0.08514321124123557 0
0.1018863154839132 0
-0.1018861234173978 0
-0.08425515431067081 0
0.08425573738508416 0
-0.09620281187832837 0
0.09620326850611478 0
-0.001018533142958408 0
0.00101798551675532 0
0.01415867020160993 0
-0.01415875161541125 0
-0.002588622486426298 0
0.002586323347550738 0
-0.1270720823708722 0
0.1270721419360308 0
-0.0248044009425588 0
0.02480423318540407 0
-0.01819717597141363 0
0.01819605419148189 0
-4.469638486288337e-07 0
4.211663033774226e-07 0
0.109810425955689 0
-0.109810462614611 0
0.08653644482132734 0
-0.08653621031477367 0
0.08777650010756631 0
-0.08777658199614012 0
-0.1135794767179896 0
0.1135797053037962 0
0.1476238488960075 0
-0.1476238278640013 0
0.0586469908378749 0
-0.05864717294103085 0
0.1430696336000669 0
-0.1430695458520569 0
0.02777605366520576 0
-0.0277764569035513 0
-0.04018516350289746 0
0.04018496787315486 0
-0.004345256782527966 0
0.004345169691740099 0
0.02264512247668616 0
-0.02264549949505329 0
-0.1641589981675362 0
0.164159030417156 0
-0.1343825139007536 0
0.1343825038598356 0
-0.008789603063003611 0
0.008788656288658457 0
0.1210006479873429 0
-0.1210004032407226 0
0.02445797199580857 0
-0.02445858703277447 0
0.1674894344740357 0
-0.1674893607940191 0
0.1847387075975331 0
-0.1847386777426529 0
0.04920252596514119 0
-0.04920263434174321 0
0.098063999993274 0
-0.09806400177684403 0
0.1091608554649655 0
-0.1091608485594482 0
0.07047783472753429 0
-0.0704777609041688 0
0.06864373903159793 0
-0.06864387655424581 0
0.1040700299554191 0
-0.1040698482026903 0
0.08276197618471866 0
-0.08276196409570644 0
0.09003823364423984 0
-0.09003823656690065 0
-0.04808341421211979 0
0.04808339517380562 0
0.01511933187235784 0
-0.0151200080164531 0
0.04113145639693869 0
-0.04113163601849103 0
0.1846508206490409 0
-0.1846507950917236 0
0.033838616588254 0
-0.0338386407082707 0
0.03561308613775031 0
-0.03561321796572877 0
0.01688669622247109 0
-0.01688698228675574 0
0.1202099857741557 0
-0.1202100129138441 0
-0.1871363942241669 0
0.1871364188258219 0
-0.003084243959544786 0
0.003083832492455415 0
0.09254144783502946 0
-0.09254106999486057 0
0.08372554360857112 0
-0.0837255002996698 0
-0.002807325680553686 0
0.002807069186984427 0
0.06868309235660947 0
-0.06868260162797733 0
-0.1255744679186105 0
0.1255746322598925 0
-0.004347532671746434 0
0.00434465229099756 0
-0.02820972700056459 0
0.02820967086410775 0
0.1679666053940704 0
-0.1679665661247273 0
-0.161128596891891 0
0.1611286864425072 0
0.1186878029551281 0
-0.1186876844665525 0
0.0668178300566553 0
-0.06681785051846342 0
0.1186381585365547 0
-0.1186381171596981 0
0.1471560088760386 0
-0.1471559067318002 0
-0.1846014750949962 0
0.1846014907257431 0
-0.03158960040330081 0
0.03158921466199121 0
0.1260902104009971 0
-0.1260902204274854 0
-0.007376693918479761 0
0.007374724566032768 0
0.003279802862380207 0
-0.003281837602864667 0
0.1420177202875919 0
-0.1420176569147008 0
-0.01479426981328162 0
0.01479404386279714 0
-0.03580113981288829 0
0.03580099310306679 0
0.003832132675398196 0
-0.01149316220787538 0
0.01172704920868448 0
-0.003798790737040332 0
-0.01638709431046755 0
0.01660161565617213 0
0.01716304026959016 0
-0.01696612839993509 0
$EndSolution
$Solution  /* DofData #0 */
0 0.4 0 2
-0.0554798679723733 0
0.0555734481264477 0
0.05550474686042735 0
-0.05556015151449448 0
-0.03749623400218956 0
-0.01898788412060225 0
-1.92724911696383e-05 0
0.01900866520725139 0
0.03742254719714734 0
0.05065715408257475 0
0.03746879752034844 0
0.01898093817338958 0
1.66204403321066e-05 0
-0.01901326400776655 0
-0.03743607699605345 0
-0.05069127259318565 0
0.01397520671107064 0
-0.0139758541305527 0
-0.1407025212139697 0
0.1407026159793335 0
0.1623934866995151 0
-0.1623936261738714 0
0.2363562977672949 0
-0.2363560218925217 0
0.2480266860084145 0
-0.2480263160101168 0
-0.07821729998048957 0
0.07821709950715049 0
0.04038407817420992 0
-0.04038551410946245 0
0.06723013557641258 0
-0.06723105979468254 0
0.1101690992906537 0
-0.1101693462973127 0
0.2540962079790632 0
-0.2540961638287774 0
0.1623177177505711 0
-0.1623175580293756 0
-0.1459000701031629 0
0.1459013854880222 0
0.01967290087699808 0
-0.01967313133385335 0
0.230527761953535 0
-0.2305275884655026 0
0.3075067930940776 0
-0.3075065896088531 0
0.1473578548235939 0
-0.14735743007067 0
-0.1636478326184485 0
0.1636478163615245 0
0.1925023958380813 0
-0.1925025004853199 0
0.3083949564831654 0
-0.3083948529860692 0
-0.07170041865510481 0
0.07170000541354543 0
0.01147827566744053 0
-0.01148101110682849 0
0.2610554954247214 0
-0.2610555175767469 0
0.08243045241663381 0
-0.08243097481815045 0
-0.2126349161393843 0
0.2126355091483547 0
-0.08596531566546431 0
0.08596601323497413 0
-0.036082203748608 0
0.03608205003238089 0
0.1894131071413507 0
-0.1894126511276406 0
0.2926115907725504 0
-0.2926114462439476 0
0.09849741739619079 0
-0.09849703191434223 0
0.006487661922767932 0
-0.00648905597191878 0
-0.02098008676926104 0
0.02097975916341218 0
0.0901004117702988 0
-0.09010054928012674 0
0.3079523558077893 0
-0.3079521759242018 0
0.2264407861908016 0
-0.2264406442575156 0
-0.09041125551137122 0
0.09041103925482766 0
0.1917642657789501 0
-0.1917642398134647 0
-0.1259092036720296 0
0.1259091385743258 0
0.05526279128090134 0
-0.05526318110660446 0
0.160385642137978 0
-0.1603857398830428 0
-0.1159153758565407 0
0.1159152504432228 0
0.2201730597466764 0
-0.2201730157941593 0
-0.03991602117374046 0
0.03991261473386482 0
0.3432378600175137 0
-0.3432377658824412 0
0.1231665603300883 0
-0.1231667898464728 0
0.3209650334460991 0
-0.320964994869132 0
0.1347434371992305 0
-0.1347436989816455 0
0.1225835537262114 0
-0.1225837889458739 0
0.05119972803565473 0
-0.05120180874871601 0
0.2982748370078925 0
-0.2982748291345316 0
-0.1160315106239653 0
0.1160350337086835 0
0.1828496666820234 0
-0.1828494582619509 0
0.181684250382877 0
-0.1816841579899962 0
-0.02411464828217974 0
0.02411386787909321 0
-0.1356364918074226 0
0.135637002899189 0
0.2822552750256192 0
-0.2822550557480908 0
0.2441911696386264 0
-0.2441912094995356 0
0.1998771937165217 0
-0.1998764785226197 0
0.2052875057606435 0
-0.2052875919184272 0
0.006946697798924103 0
-0.006946801307830569 0
-0.08196268231699903 0
0.08196260012961143 0
0.04850499500316339 0
-0.04850591065281711 0
-0.2627806616253278 0
0.2627810259467807 0
0.2798186733915349 0
-0.2798185791843193 0
0.1667450490051132 0
-0.1667438317170428 0
0.2335389493287122 0
-0.2335389567209246 0
0.2373841689425998 0
-0.2373838707838337 0
0.2603282839999759 0
-0.260328129038542 0
-0.3470853661091017 0
0.3470854665848055 0
-0.05229068898221913 0
0.05229029964749062 0
0.1054198427475478 0
-0.1054202171410345 0
0.2005092312779899 0
-0.2005087399145929 0
0.1125265959462566 0
-0.1125269845953855 0
0.06039649652334041 0
-0.0603966018024993 0
0.1538641244881908 0
-0.1538641210274687 0
-0.1687394233769222 0
0.1687394028625054 0
0.2054603136994576 0
-0.2054603697373807 0
-0.2571843105368531 0
0.2571846334520544 0
-0.006646735462593701 0
0.006642488796542018 0
0.3474465180686892 0
-0.3474464798962217 0
0.126804001112856 0
-0.1268040928323289 0
0.1503741892189858 0
-0.1503743727205249 0
0.03253372010188436 0
-0.03253532801935423 0
0.286026135981598 0
-0.2860260650409132 0
-0.1177382566256278 0
0.1177381465286499 0
-0.05953182425869332 0
0.05953112760544287 0
0.07883984631740647 0
-0.07884009265496217 0
-0.2973442864620711 0
0.2973442808343649 0
-0.1038838921752787 0
0.1038837375786567 0
0.2699378031951235 0
-0.2699377591109031 0
0.3287886934545859 0
-0.3287886005822178 0
-0.0570679873567148 0
0.05706645243139583 0
0.01733088994699709 0
-0.01733132336786429 0
-0.1957762328646772 0
0.1957764612459293 0
0.02498384827448568 0
-0.02498754362319612 0
-0.01220229271918884 0
0.01219980769516543 0
0.3554057405927709 0
-0.3554056827242566 0
0.2125436606594547 0
-0.2125436503877862 0
-0.3565222661986547 0
0.356522346495985 0
0.2797520292767966 0
-0.2797517797100298 0
0.04995646743707096 0
-0.0499570383240413 0
-0.02031371382610347 0
0.02031314854572752 0
-0.04553671647634362 0
0.04553648933491971 0
-0.01399474171049097 0
0.01399450455372517 0
0.0868701680557897 0
-0.08687054664737602 0
0.07332121800355015 0
-0.07332192842877369 0
-0.1181299711484184 0
0.1181309858371995 0
0.09408809219835033 0
-0.09408619191501494 0
-0.07024991249538198 0
0.07024926327450921 0
0.1711606874936016 0
-0.1711608443470079 0
0.1479815181326455 0
-0.1479815067432592 0
-0.3327494702049554 0
0.3327494854405917 0
0.1979478545015519 0
-0.1979479091517376 0
-0.02898780062837216 0
0.02898772503163741 0
0.2235063308291428 0
-0.2235062581554808 0
0.1938383060490003 0
-0.1938382034041143 0
-0.02664822884704795 0
0.02664711587997872 0
0.08773554337696035 0
-0.08773015544821587 0
0.1154955605901893 0
-0.1154957236081708 0
0.09313336522050629 0
-0.09313370031149124 0
0.1262920752651513 0
-0.1262916097901262 0
-0.2941687315311098 0
0.2941689780264838 0
-0.08373548824735047 0
0.08373522216176008 0
0.06625379411388578 0
-0.06625217984612995 0
0.2303146327290252 0
-0.2303140994031649 0
0.1619448598942891 0
-0.1619441156398278 0
-0.09374621919919088 0
0.09374610125819832 0
-0.3108225559515639 0
0.3108226153882319 0
0.2770928974547005 0
-0.2770929141835809 0
0.161354284562086 0
-0.1613539430930281 0
0.02469691333453961 0
-0.02469779425644322 0
0.003698748592272307 0
-0.003700739093003557 0
0.2147976152505191 0
-0.2147974005289167 0
0.259510297569252 0
-0.2595101197549442 0
0.2146890860219543 0
-0.2146885926371356 0
0.2663304878434534 0
-0.2663304772561528 0
0.08983371505012938 0
-0.08983693439287745 0
0.1514010559102245 0
-0.1514009967921267 0
-0.1179017104788879 0
0.1179016679849277 0
0.2936454496210389 0
-0.2936454181722742 0
0.1231466687524657 0
-0.1231466102366247 0
-0.2421418390456153 0
0.2421418091668888 0
0.3184137962237964 0
-0.3184136759011251 0
-0.3480749554112113 0
0.3480750382319623 0
0.0985285389042683 0
-0.09852859831678022 0
0.2110718165464663 0
-0.2110717161127928 0
0.1911051035573064 0
-0.1911050731310231 0
0.1878032896172919 0
-0.1878033291674424 0
0.05257005031910982 0
-0.05257024892759098 0
0.188987285755337 0
-0.1889871264563558 0
-0.1208108857743704 0
0.1208110028977308 0
-0.1169422793474141 0
0.1169446662216949 0
0.155111127179059 0
-0.1551110131010163 0
0.2161481258527486 0
-0.2161481998699936 0
0.04073372309296066 0
-0.04073569933163167 0
-0.1513220839790668 0
0.1513220595478035 0
-0.06486984889000093 0
0.06486979903379923 0
0.2561014088589206 0
-0.2561013080947755 0
-0.05845103074904857 0
0.05844960684608274 0
0.3527464934832482 0
-0.3527464745707523 0
0.3166009793912004 0
-0.3166008164059021 0
-0.02721381257652634 0
0.02720655184005055 0
-0.04344614136691329 0
0.04344557462617099 0
0.1498579835752503 0
-0.149858114536941 0
0.03853216138008295 0
-0.03853246534504414 0
0.2446572681410452 0
-0.2446572431419002 0
-0.2711899266463577 0
0.2711902399539604 0
0.3747249846218456 0
-0.3747249466788209 0
-0.1462131601533672 0
0.1462131103760418 0
-0.06554026190888709 0
0.06554011397290975 0
0.1487040022908435 0
-0.1487042189502077 0
0.06732521444297146 0
-0.06732615145510669 0
0.105960721091351 0
-0.1059610928542964 0
0.138991837232229 0
-0.1389920017604063 0
0.03312026334309887 0
-0.03312032559503957 0
0.1735912595488472 0
-0.1735913756011257 0
0.2610820694981513 0
-0.2610818553965866 0
-0.101638230708844 0
0.101638478236417 0
-0.3264163868943604 0
0.3264163908452312 0
0.04016798538764884 0
-0.04017330713459669 0
0.1666981830472709 0
-0.1666980323400128 0
0.1780430203218311 0
-0.1780422132277376 0
0.1592421543402273 0
-0.1592421985606675 0
0.1429554168462474 0
-0.1429539148114086 0
-0.08885694420933901 0
0.0888638506670074 0
-0.1431409274357327 0
0.1431408782671642 0
0.2302378834828016 0
-0.2302379247110673 0
0.2790173519375105 0
-0.2790170671859933 0
0.1429298032443059 0
-0.1429279427631801 0
-0.3143896067586086 0
0.3143896789810283 0
-0.2668106381953457 0
0.2668108790764847 0
0.006326767372978061 0
-0.006327095723179185 0
0.09381003332676237 0
-0.09381055570509579 0
0.1176048647799185 0
-0.1176051526531516 0
-0.09641710843458585 0
0.09641692403623535 0
0.1220184923797894 0
-0.1220185675856712 0
0.2747465212666633 0
-0.2747465265136751 0
0.1724610331451121 0
-0.1724610899692831 0
0.2070264373942275 0
-0.2070261188837485 0
-0.1718083775183147 0
0.1718094353952945 0
-0.1955098901782338 0
0.1955107083352333 0
-0.0020752413653633 0
0.002074253013973586 0
0.02838125873872285 0
-0.0283814040042103 0
-0.005981005858843902 0
0.005977130138466298 0
-0.2547681518441886 0
0.2547682578867026 0
-0.04994265479106617 0
0.04994234951655485 0
-0.0384755954786777 0
0.03847347887961816 0
-6.317164930514813e-07 0
5.854522259368573e-07 0
0.2200933369196155 0
-0.2200933985082061 0
0.1772169295156075 0
-0.1772165568911851 0
0.1769462518875913 0
-0.1769463853224109 0
-0.2298654764934384 0
0.2298658706730088 0
0.2954602790243874 0
-0.2954602415676961 0
0.1235873198913474 0
-0.1235878266961216 0
0.287668502367088 0
-0.2876683512911061 0
0.05647098358192207 0
-0.05647169246218162 0
-0.08183108984338205 0
0.0818307189076074 0
-0.00871400447409594 0
0.008713847964772469 0
0.04612159753464307 0
-0.04612229166233526 0
-0.3285997280171351 0
0.3285997855279246 0
-0.2689692679970991 0
0.2689692514285991 0
-0.01827199224783913 0
0.01827026055113179 0
0.2442641268026544 0
-0.244263695804615 0
0.05035262932746443 0
-0.05035370557536761 0
0.3357522992647811 0
-0.3357521696864287 0
0.3697929473320766 0
-0.3697928948017805 0
0.0994478653211285 0
-0.09944806964637784 0
0.1962748016534429 0
-0.1962748055444934 0
0.2201332874981882 0
-0.2201332690575492 0
0.1445765805896106 0
-0.1445764173728935 0
0.1392188709818174 0
-0.1392190931864464 0
0.2096892390397953 0
-0.2096889131893528 0
0.1663303199890834 0
-0.1663303017633793 0
0.180458663945667 0
-0.1804586709848549 0
-0.09623381425581022 0
0.09623377953370563 0
0.03109359389383628 0
-0.0310947935126646 0
0.08277469837866122 0
-0.08277501382497714 0
0.3695506054160356 0
-0.3695505602631142 0
0.06771674879087648 0
-0.06771679157051033 0
0.07564302832401802 0
-0.07564313427045384 0
0.03411071827066962 0
-0.03411122728687105 0
0.2411158306258596 0
-0.241115874638426 0
-0.3745831006912522 0
0.3745831436856901 0
-0.006268099644442434 0
0.00626735660897497 0
0.1875914611799146 0
-0.1875907788535449 0
0.1704928588011793 0
-0.1704927675619324 0
-0.00566590217180765 0
0.005665440296264377 0
0.1404343566139312 0
-0.1404334654045728 0
-0.2533618789412884 0
0.253362161920205 0
-0.01030041081859702 0
0.0102953640511776 0
-0.05652160480311124 0
0.05652150308591111 0
0.3366768538647885 0
-0.3366767858011489 0
-0.3230933122493205 0
0.32309347072056 0
0.2397664187658395 0
-0.2397662185330367 0
0.1337108442484462 0
-0.1337108800561189 0
0.2378245250137045 0
-0.237824451883586 0
0.2951750471809868 0
-0.2951748650004195 0
-0.3695037653043398 0
0.3695037924501532 0
-0.06506224682419004 0
0.06506151265589125 0
0.2531877908045537 0
-0.2531878044589063 0
-0.01603436741876699 0
0.01603075397721457 0
0.007205830985216644 0
-0.007209413583862754 0
0.2854780929912892 0
-0.2854779836736001 0
-0.02983641700206502 0
0.02983600751688308 0
-0.0721177118903252 0
0.07211744283833439 0
0.009607955483845024 0
-0.02886655232017404 0
0.02945716365597652 0
-0.009522626764892773 0
-0.04125087640382676 0
0.04179426402068832 0
0.04320580632448496 0
-0.04270976134672606 0
$EndSolution
$Solution  /* DofData #0 */
0 0.6000000000000001 0 3
-0.09449219268458181 0
0.09462778395103419 0
0.09452483455714757 0
-0.09460997389876807 0
-0.06385596167418139 0
-0.03229202265013281 0
-2.707208512715455e-05 0
0.03232538630007943 0
0.06375576117167098 0
0.08727873370438818 0
0.06381831082668495 0
0.03228359834187395 0
2.485838949988203e-05 0
-0.03233038256597721 0
-0.06377313577385273 0
-0.08732523311789575 0
0.02114175896368495 0
-0.02114254472715353 0
-0.2126056349780265 0
0.2126057399991949 0
0.2454424896270158 0
-0.245442631263699 0
0.3571305535936458 0
-0.3571302403989978 0
0.3736766035338244 0
-0.3736761554615529 0
-0.1177306891400254 0
0.1177304392432757 0
0.06208545941025229 0
-0.06208728690808438 0
0.1031381259493936 0
-0.1031391792305225 0
0.1658245725652882 0
-0.1658248621915987 0
0.3826603551952444 0
-0.3826602989794151 0
0.24719222660548 0
-0.2471920251055062 0
-0.2224910040495665 0
0.2224926378323237 0
0.02958494979447817 0
-0.0295852287251432 0
0.3467864178002388 0
-0.3467862088172822 0
0.462454367781057 0
-0.4624541261496444 0
0.226337109107309 0
-0.2263367141454911 0
-0.2460497243399717 0
0.2460497001075349 0
0.2894147109336856 0
-0.2894148286407021 0
0.4637624399072627 0
-0.4637623195812624 0
-0.1085369152950668 0
0.1085363921863492 0
0.01798614501062213 0
-0.01798943147259038 0
0.3923083532353557 0
-0.3923083746642702 0
0.1247169334165158 0
-0.1247175446569764 0
-0.3219727861049548 0
0.3219734897843441 0
-0.1330257544950907 0
0.1330265638831357 0
-0.0542207018142761 0
0.05422051332639893 0
0.2861267138295085 0
-0.2861261584517072 0
0.4396248274261002 0
-0.4396246529262867 0
0.1523694136072475 0
-0.1523687907694584 0
0.009922566259604209 0
-0.009924266340943809 0
-0.03160329254716745 0
0.03160289111078523 0
0.1353548919204436 0
-0.135355055379538 0
0.4628212253683465 0
-0.4628210091250312 0
0.3421448786281103 0
-0.342144716674888 0
-0.1376696684442415 0
0.1376693692249948 0
0.2900127588278448 0
-0.2900127113625094 0
-0.1891394089329447 0
0.1891393267646338 0
0.08330158370107811 0
-0.08330204980186637 0
0.240906543152996 0
-0.240906656546777 0
-0.174729749147596 0
0.1747295866811419 0
0.3307450160567447 0
-0.3307449647965253 0
-0.06308985982476199 0
0.06308538195457944 0
0.5155968669395479 0
-0.5155967564661164 0
0.1908303585978272 0
-0.1908307793673022 0
0.4821774528410918 0
-0.4821774068243787 0
0.203228958803164 0
-0.2032292567399128 0
0.1864216222041694 0
-0.1864218519266233 0
0.08074896109314747 0
-0.08075138383687425 0
0.448066117985862 0
-0.4480661061864691 0
-0.1800549776928322 0
0.1800594261963498 0
0.2781649072498092 0
-0.2781647051633848 0
0.2735418992609553 0
-0.2735417916772727 0
-0.03659312871556106 0
0.03659216314031476 0
-0.2060260962560445 0
0.2060267156056072 0
0.4250873377795986 0
-0.425087082228921 0
0.3667356587457141 0
-0.3667357022085908 0
0.3024956503069696 0
-0.3024947777805149 0
0.3090383587235308 0
-0.3090384502405563 0
0.01043037578742014 0
-0.01043050143460494 0
-0.1230809369654498 0
0.1230808351742327 0
0.07383082027578022 0
-0.07383190683361984 0
-0.3960020626995069 0
0.3960024987661911 0
0.4202405553165071 0
-0.4202404417687119 0
0.2541521750760208 0
-0.2541506888550692 0
0.3517232097530712 0
-0.3517232098803965 0
0.3574625709560263 0
-0.3574622095061959 0
0.3924554478284799 0
-0.3924552701935054 0
-0.5211974057264518 0
0.5211975254783968 0
-0.0789207983193589 0
0.07892031450999566 0
0.1655517535550581 0
-0.1655525701901076 0
0.3042490428815757 0
-0.3042484818945868 0
0.1704073557341729 0
-0.1704077932098558 0
0.09068991732738978 0
-0.09069004359483969 0
0.2336588978918232 0
-0.2336588544945182 0
-0.2533600096670571 0
0.2533599826047033 0
0.3084917418985163 0
-0.3084918056619015 0
-0.387924152382184 0
0.3879245305641615 0
-0.01070109562891361 0
0.01069595446612607 0
0.5216855731832989 0
-0.5216855283829571 0
0.190404012638111 0
-0.190404120652987 0
0.2262906203111805 0
-0.226290831008283 0
0.05009989803453153 0
-0.0501018158086465 0
0.4303237293571384 0
-0.4303236454774058 0
-0.1771227191857054 0
0.1771225793689816 0
-0.09065402294070225 0
0.09065313415383811 0
0.1186141596775404 0
-0.1186144524888315 0
-0.4464249082302657 0
0.4464249037902693 0
-0.157294752060872 0
0.1572945441093502 0
0.4052035712111422 0
-0.4052035184582282 0
0.4936405137436671 0
-0.4936404018913492 0
-0.09121529770667161 0
0.09121298496361531 0
0.02614119370654859 0
-0.02614171865677211 0
-0.2950400479104773 0
0.2950403226798319 0
0.03996972805875518 0
-0.03997411374389804 0
-0.01899879302789834 0
0.01899570856615896 0
0.5336535391465201 0
-0.5336534714637928 0
0.3190809711915022 0
-0.3190809602426226 0
-0.5353190074097047 0
0.5353191023142272 0
0.4208037468003635 0
-0.4208034456705091 0
0.07554247051720807 0
-0.0755431518635096 0
-0.03071230844546741 0
0.03071161296802526 0
-0.06851218288458742 0
0.0685119030692956 0
-0.02105034417290031 0
0.02105005459500988 0
0.131030893324757 0
-0.1310313389269374 0
0.1115141999134571 0
-0.1115150241966709 0
-0.1807090022596257 0
0.1807102511632293 0
0.1478787766420545 0
-0.1478762236427379 0
-0.1079564079467388 0
0.1079555320761275 0
0.2577842374070629 0
-0.2577844121066935 0
0.2230515009719017 0
-0.2230514952490521 0
-0.4995439487187228 0
0.4995439675252039 0
0.2986058393995709 0
-0.2986058885872983 0
-0.04351735784073123 0
0.04351726538859325 0
0.3374083068706685 0
-0.3374082160854657 0
0.2935915114328295 0
-0.2935913833378403 0
-0.04065354894595487 0
0.0406521622259025 0
0.1381156584802355 0
-0.1381087567384723 0
0.1735983826641668 0
-0.1735985744607095 0
0.1429893060712083 0
-0.142989612028299 0
0.1942209154765812 0
-0.1942202826781106 0
-0.442536206934591 0
0.4425365018508197 0
-0.1263646432476754 0
0.1263643072944487 0
0.1057898321716277 0
-0.1057874546977645 0
0.3477674200888708 0
-0.3477667755022084 0
0.2456491823475892 0
-0.245648268424773 0
-0.1408993246636903 0
0.1408991775751577 0
-0.4665408734063322 0
0.4665409450876572 0
0.4159921536516906 0
-0.4159921709839731 0
0.243977972062266 0
-0.2439775601649975 0
0.03752241228727188 0
-0.03752347495776715 0
0.005704974558291599 0
-0.005707403344296224 0
0.3251803748542974 0
-0.3251801396255985 0
0.3901690808505399 0
-0.390168866029373 0
0.324057342987947 0
-0.3240567421541158 0
0.4005777903053289 0
-0.40057777319406 0
0.1431603566548726 0
-0.1431649126237057 0
0.2321796322810602 0
-0.2321796775800636 0
-0.1769859830870775 0
0.176985929889979 0
0.4414074591586395 0
-0.441407419997016 0
0.1882985067284192 0
-0.1882983565807284 0
-0.3634572864243416 0
0.363457253143149 0
0.4787102142821471 0
-0.4787100739832408 0
-0.5225451572533184 0
0.5225452564959727 0
0.1478806389749121 0
-0.1478807096248367 0
0.3174299587800377 0
-0.3174298396332456 0
0.287274451278784 0
-0.2872744178039742 0
0.2818576319885155 0
-0.2818576776665628 0
0.07902661946892355 0
-0.07902685779826565 0
0.2868813242432879 0
-0.2868811514715635 0
-0.1832210233825591 0
0.1832211499640289 0
-0.1801394092725986 0
0.1801424167362477 0
0.2371921129692884 0
-0.2371920228290345 0
0.3249676483634644 0
-0.3249677292636678 0
0.06346276629326175 0
-0.06346509191527262 0
-0.2271234763718459 0
0.2271234452904454 0
-0.09736031380858404 0
0.09736025240460361 0
0.3859729427827853 0
-0.3859728248047747 0
-0.09115541680200358 0
0.09115347820902193 0
0.5294523306859225 0
-0.5294523081890028 0
0.4760234861838289 0
-0.4760232942537383 0
-0.04420708118578009 0
0.04419760537658957 0
-0.0657723401456355 0
0.06577163435961668 0
0.2270724001406261 0
-0.2270725220537949 0
0.05800497673676731 0
-0.05800534257022417 0
0.367234832091538 0
-0.3672348027377743 0
-0.4082790756737854 0
0.4082794527456809 0
0.5624004558849884 0
-0.5624004113590154 0
-0.2197460982581605 0
0.2197460337315434 0
-0.09850969037311498 0
0.09850950751566749 0
0.2245439165606663 0
-0.2245441542707172 0
0.1043039870386019 0
-0.1043050105242096 0
0.1599719854199731 0
-0.1599724163792071 0
0.2089817175396152 0
-0.2089819089865068 0
0.0497089012390611 0
-0.04970897640537228 0
0.2608984492534238 0
-0.2608985822667172 0
0.3936871256464592 0
-0.3936868797307331 0
-0.155271671557927 0
0.1552719462689125 0
-0.4899244068950889 0
0.4899244126558607 0
0.0652437394726828 0
-0.06525029280707957 0
0.2514317780620499 0
-0.2514316007805901 0
0.2711001869076713 0
-0.2710992372868711 0
0.2389894994523119 0
-0.238989551093876 0
0.2195984752611045 0
-0.2195966618564596 0
-0.141468339266268 0
0.1414771635678965 0
-0.2154174939788024 0
0.2154174278180906 0
0.3464705646072996 0
-0.3464706048919824 0
0.4202150903331474 0
-0.4202147531786103 0
0.2189121203691965 0
-0.2189098041685468 0
-0.4725709325330014 0
0.4725710169987045 0
-0.4013482152263987 0
0.4013485065431269 0
0.009528733610385417 0
-0.009529132586319693 0
0.142953828077981 0
-0.1429544038663478 0
0.1772474481101914 0
-0.1772477821195584 0
-0.1452387675474515 0
0.1452385348648565 0
0.1842245423553583 0
-0.1842246463381098 0
0.4129023052987957 0
-0.4129023073960648 0
0.2608959217387855 0
-0.2608959640136738 0
0.3138469359575566 0
-0.3138465857604614 0
-0.261058112467883 0
0.2610594146397561 0
-0.2964164024495521 0
0.2964173951346423 0
-0.003150978215552575 0
0.003149767930243878 0
0.04263666460838056 0
-0.04263684006363595 0
-0.009777073436031769 0
0.009772717571126559 0
-0.3827846907778618 0
0.3827848182691052 0
-0.07525151243627466 0
0.0752511347842065 0
-0.05981128367233798 0
0.05980855767515206 0
-7.062053039103472e-07 0
6.499735415615408e-07 0
0.3306188195200163 0
-0.3306188881766784 0
0.270039988572335 0
-0.2700396041300107 0
0.266831136285174 0
-0.266831278492644 0
-0.3475483758727153 0
0.3475488323606183 0
0.4434059171869293 0
-0.4434058721245313 0
0.1917953385245773 0
-0.1917962118161284 0
0.4330560933210356 0
-0.4330559185600595 0
0.08563578697196003 0
-0.08563662725455676 0
-0.1242233536694237 0
0.1242228727208877 0
-0.0130946709425951 0
0.01309448023217277 0
0.07002236895373877 0
-0.07002323923182278 0
-0.4931853901815368 0
0.4931854595309623 0
-0.40366094763954 0
0.4036609296580803 0
-0.02810639825437523 0
0.02810424410288336 0
0.3686943860722482 0
-0.3686938738150518 0
0.07698056897882047 0
-0.0769818371381423 0
0.5044138535706207 0
-0.504413699801332 0
0.5550098269169168 0
-0.5550097645427753 0
0.1502266762104102 0
-0.1502269396453273 0
0.2945608397831349 0
-0.294560845595362 0
0.332037797772912 0
-0.332037766045115 0
0.2205359831958338 0
-0.2205357391862584 0
0.2107842496362095 0
-0.2107844835312749 0
0.3161041097274941 0
-0.3161037145021888 0
0.2503119210909504 0
-0.2503119043890981 0
0.271074964035361 0
-0.2710749754045773 0
-0.1444184885651434 0
0.1444184454839879 0
0.04750428238654924 0
-0.04750572085712771 0
0.1246801266564481 0
-0.1246805001047512 0
0.5545786760267368 0
-0.5545786221535624 0
0.1016151446078565 0
-0.1016151958930401 0
0.1179238553301733 0
-0.1179237928326789 0
0.05150751479836502 0
-0.05150812745164014 0
0.3623792310232575 0
-0.3623792775274628 0
-0.5621898136660807 0
0.5621898643096849 0
-0.009502450765190244 0
0.009501540210100924 0
0.2839307990102418 0
-0.2839299638919798 0
0.2588249376845028 0
-0.2588248062452843 0
-0.008550416824967759 0
0.008549852691962071 0
0.213758909523013 0
-0.2137578120415616 0
-0.3822911629355887 0
0.3822914901037003 0
-0.01705749375435647 0
0.01705152419663342 0
-0.08488570449347922 0
0.08488557928980253 0
0.5057705217821934 0
-0.5057704423499882 0
-0.4854888495575334 0
0.4854890389997629 0
0.3620785627771998 0
-0.3620783366759814 0
0.200642404536202 0
-0.2006424467355909 0
0.3572922490101075 0
-0.3572921619380152 0
0.4436381915158404 0
-0.443637971759161 0
-0.5545611468238467 0
0.5545611785851504 0
-0.09949524618399905 0
0.0994942910934109 0
0.3808034657214278 0
-0.3808034757358988 0
-0.0253399231093589 0
0.0253354112896924 0
0.01145962399419115 0
-0.01146388221372765 0
0.429682270605985 0
-0.4296821437184457 0
-0.04500508695675819 0
0.04500458291932605 0
-0.1086978311337139 0
0.1086974951875484 0
0.01636692775168543 0
-0.04925451155304553 0
0.05026639430697327 0
-0.01621974895541883 0
-0.07053039234824768 0
0.07146431091143256 0
0.07387610176269811 0
-0.07302757679842332 0
$EndSolution
$Solution  /* DofData #0 */
0 0.8 0 4
-0.1363897350871688 0
0.1365576684628864 0
0.1364263548256332 0
-0.1365372866139846 0
-0.0921337622814969 0
-0.0465353636406837 0
-3.233946692416443e-05 0
0.0465801034201557 0
0.09201820570435908 0
0.1272238975163224 0
0.09208966300101901 0
0.04652665578811745 0
3.124544296786918e-05 0
-0.04658456029576188 0
-0.0920372349789267 0
-0.127277970394071 0
0.02835500818998479 0
-0.02835581959007582 0
-0.2849133129902104 0
0.2849134083014517 0
0.3289760333758187 0
-0.3289761455141568 0
0.4785913042153092 0
-0.4785910062713182 0
0.4997568578312162 0
-0.4997563968009812 0
-0.1573492840082188 0
0.1573490176743228 0
0.08417532467746602 0
-0.0841773155042566 0
0.1396390781730051 0
-0.1396400815421299 0
0.2216289501949165 0
-0.221629236751611 0
0.5116236256899793 0
-0.5116235639384771 0
0.3330453189484136 0
-0.3330451002509155 0
-0.300035632118807 0
0.3000373619666437 0
0.0395167937292752 0
-0.039517080844486 0
0.463305618563385 0
-0.4633054051555751 0
0.617717021858173 0
-0.6177167787721175 0
0.3067265554645572 0
-0.3067262908880889 0
-0.3286023657534639 0
0.328602334910173 0
0.3864999524005921 0
-0.3865000624449809 0
0.619438777393904 0
-0.6194386592273518 0
-0.1456292633964967 0
0.145628696362342 0
0.02469082321728872 0
-0.02469417620618292 0
0.5237515652025097 0
-0.5237515804725589 0
0.1672820647062069 0
-0.167282667825369 0
-0.4321086145539956 0
0.4321093218462416 0
-0.1811417027707254 0
0.181142489774012 0
-0.07238446037432328 0
0.07238426330436863 0
0.3833660471790219 0
-0.3833654723983461 0
0.5868239089553484 0
-0.586823730092999 0
0.2074437314574138 0
-0.2074429000465591 0
0.01340721884427978 0
-0.01340898424495291 0
-0.04226094648140287 0
0.04226052715406429 0
0.1806626704367639 0
-0.1806628350040579 0
0.6179251348046731 0
-0.6179249141689419 0
0.4585045600798996 0
-0.4585044044375545 0
-0.1854605470265463 0
0.1854601919950596 0
0.3888829500324391 0
-0.3888828808900482 0
-0.2524413867926393 0
0.2524412979243327 0
0.1114465153984767 0
-0.1114469880650479 0
0.321513137137974 0
-0.3215132477687437 0
-0.2337671055427351 0
0.2337669247621356 0
0.4414438581947934 0
-0.4414438080584229 0
-0.08708396697852402 0
0.08707892592484247 0
0.6881512549123502 0
-0.6881511452841764 0
0.2601102376544716 0
-0.2601108398870976 0
0.6435822629363052 0
-0.6435822161629523 0
0.2720051626390342 0
-0.2720054459147078 0
0.2509235094194175 0
-0.2509236782183351 0
0.1113097196991266 0
-0.1113120909560514 0
0.5980293904852764 0
-0.5980293753646253 0
-0.2456577385872479 0
0.2456625363150624 0
0.37451074557642 0
-0.3745105967128567 0
0.3656648002350064 0
-0.3656646952589632 0
-0.04918035984052312 0
0.04917934007475965 0
-0.2770864752059913 0
0.277087111784998 0
0.5683696416168396 0
-0.5683693902261844 0
0.4893977761926094 0
-0.4893978149625143 0
0.4058188604484897 0
-0.4058179548828521 0
0.4130792197525479 0
-0.413079298060796 0
0.01391680167940044 0
-0.01391693147392816 0
-0.1642347932565732 0
0.1642346855636966 0
0.09943481259048965 0
-0.09943590404333026 0
-0.5297063436425775 0
0.5297067864238081 0
0.5607968421593785 0
-0.5607967260783524 0
0.3426232724393364 0
-0.3426217280041591 0
0.4702791542745225 0
-0.470279143209027 0
0.4779047515433975 0
-0.4779043793688803 0
0.525101006295897 0
-0.5251008348975155 0
-0.6954595907765154 0
0.695459711768172 0
-0.1056766513276552 0
0.1056761376779838 0
0.2276770572704283 0
-0.2276783313188769 0
0.4089114575068152 0
-0.4089109202524118 0
0.2287094301703499 0
-0.2287098398240159 0
0.1210081835101103 0
-0.1210083120496947 0
0.3142035838863828 0
-0.3142034907083062 0
-0.3380460128391252 0
0.3380459821102369 0
0.4116019632931531 0
-0.4116020238826433 0
-0.5192314221053167 0
0.519231796282618 0
-0.01493903861886823 0
0.01493374084119986 0
0.6960606931996789 0
-0.6960606486422041 0
0.254055706496629 0
-0.254055813965379 0
0.302397517748369 0
-0.3023977204974957 0
0.06800086346682022 0
-0.06800280190037288 0
0.574960005807722 0
-0.5749599214678619 0
-0.2366413455317702 0
0.236641193293191 0
-0.1221270181663691 0
0.1221260469585858 0
0.158480881779461 0
-0.158481176558927 0
-0.5956128488748546 0
0.5956128473238889 0
-0.2110874381796099 0
0.2110871977781077 0
0.5405470712945279 0
-0.5405470178754189 0
0.6586126775257801 0
-0.6586125631748955 0
-0.1267995011955815 0
0.1267965668007774 0
0.03498934492579021 0
-0.0349898856977354 0
-0.3946637989341118 0
0.3946640789965251 0
0.05558909314104332 0
-0.05559349736139461 0
-0.02597263639239459 0
0.02596936753174384 0
0.7120451852978203 0
-0.712045118375643 0
0.4256876173002677 0
-0.4256876079890077 0
-0.7142571078194494 0
0.7142572027795819 0
0.5621647620570491 0
-0.5621644535156668 0
0.1012865261041857 0
-0.101287215473604 0
-0.04117336704123912 0
0.04117263722541717 0
-0.0915414020804723 0
0.09154110793869837 0
-0.02812096623823414 0
0.02812066500318629 0
0.1753806423095109 0
-0.1753810853464546 0
0.1501048634410637 0
-0.1501056679041924 0
-0.2442035791079285 0
0.244204886890465 0
0.2034315919481739 0
-0.2034286590512656 0
-0.1463295095186839 0
0.1463284967282237 0
0.3446805380075135 0
-0.3446806990508761 0
0.29840287935221 0
-0.2984028839543308 0
-0.6664489732243651 0
0.6664489931615131 0
0.399705431766676 0
-0.3997054612224404 0
-0.05805615354269355 0
0.05805605718159801 0
0.4518761756167334 0
-0.4518760779894687 0
0.3940911556589362 0
-0.3940910180974533 0
-0.05483440918553249 0
0.05483293312997522 0
0.1901861770019327 0
-0.1901786219722439 0
0.231793848626015 0
-0.2317940392193752 0
0.1936987503591095 0
-0.193698943051908 0
0.2634048368743523 0
-0.2634041003086571 0
-0.5912419549190581 0
0.5912422542202405 0
-0.1691916335852076 0
0.1691912703534903 0
0.1469723838607587 0
-0.1469694235536357 0
0.4658248820617255 0
-0.4658242201376615 0
0.3300684755922348 0
-0.3300675206331446 0
-0.1881252684073111 0
0.1881251115333317 0
-0.6223397942489594 0
0.6223398676061485 0
0.55498398205678 0
-0.5549839962340284 0
0.3271101933632966 0
-0.3271097723133674 0
0.05047175153580889 0
-0.05047284081969389 0
0.00775199848767266 0
-0.007754522284930108 0
0.4363522081625214 0
-0.4363519948871186 0
0.5210649170211922 0
-0.5210646967545742 0
0.4339569860873708 0
-0.4339563639977202 0
0.5351096596188258 0
-0.5351096364212342 0
0.1987557412045657 0
-0.1987612165860979 0
0.3143082340143172 0
-0.3143084192945905 0
-0.2361049900345682 0
0.236104933040911 0
0.5894168126894047 0
-0.5894167707387333 0
0.2543845803226895 0
-0.2543843285247495 0
-0.4848367585938158 0
0.4848367279251303 0
0.6392943174443804 0
-0.6392941792727754 0
-0.697129366634844 0
0.6971294675240868 0
0.1972556603401917 0
-0.1972557315017626 0
0.4240031137979278 0
-0.4240029945433922 0
0.3836048651248747 0
-0.3836048351085127 0
0.375951878760677 0
-0.3759519230601267 0
0.1055279555117955 0
-0.1055281982855372 0
0.3856736538030375 0
-0.3856734988977347 0
-0.2461530089260581 0
0.2461531193491512 0
-0.2445707892854609 0
0.2445740240729322 0
0.3204707085503895 0
-0.3204706716707975 0
0.4339824049115499 0
-0.4339824773689701 0
0.0867981129365844 0
-0.0868004234390823 0
-0.3029614401764991 0
0.3029614062549134 0
-0.1298652102241861 0
0.1298651456855932 0
0.5163247143358884 0
-0.5163245971285451 0
-0.1247534352266977 0
0.1247511766437455 0
0.7062458429877766 0
-0.7062458202086646 0
0.6357422034029215 0
-0.6357420122021019 0
-0.06205408374923516 0
0.06204349590391108 0
-0.08825471888049724 0
0.08825396784367276 0
0.3048844260413763 0
-0.3048845063081879 0
0.07753172922042673 0
-0.0775321032152065 0
0.489877487947913 0
-0.4898774589677486 0
-0.5457617637074204 0
0.5457621489848524 0
0.7501585463332082 0
-0.7501585021446379 0
-0.2933901520813741 0
0.2933900801855245 0
-0.1315309087735524 0
0.13153071577786 0
0.3007724912170326 0
-0.3007727055647574 0
0.1421380128741311 0
-0.1421389296766632 0
0.2142518558538883 0
-0.2142522759446871 0
0.2791005528910561 0
-0.2791007404256865 0
0.06630499717167984 0
-0.06630507432279201 0
0.3483393278180447 0
-0.3483394554929196 0
0.5268375828469857 0
-0.5268373452402004 0
-0.2096359831761988 0
0.209636233485521 0
-0.6535112999383494 0
0.6535113071563758 0
0.09158734047410753 0
-0.09159420166466289 0
0.3365268829907592 0
-0.3365267075952115 0
0.3652252554213987 0
-0.3652243106958232 0
0.3187698202924673 0
-0.3187698711175534 0
0.2976081948419573 0
-0.2976063342635681 0
-0.1962336942364931 0
0.1962433321327761 0
-0.2878780901674403 0
0.2878780135275171 0
0.4629954589589519 0
-0.462995488360794 0
0.5618586799072217 0
-0.5618583418879238 0
0.2960818534331812 0
-0.2960793937396315 0
-0.6310125407047759 0
0.6310126243528104 0
-0.5361832877898135 0
0.5361835869902262 0
0.01274089942779269 0
-0.01274131203788597 0
0.1926791817165458 0
-0.1926797048068701 0
0.2371091359204449 0
-0.2371094618809241 0
-0.1942198852989477 0
0.1942196338256707 0
0.2467421808172853 0
-0.2467423044045802 0
0.5512637271662223 0
-0.5512637238930347 0
0.3499084391628404 0
-0.3499084497508667 0
0.4215429953615759 0
-0.4215426766702642 0
-0.3511870469091201 0
0.3511884121825205 0
-0.3981536630540164 0
0.3981546871467356 0
-0.004236205049638956 0
0.004234942130955749 0
0.05690901385113824 0
-0.05690919400442997 0
-0.01377443901125456 0
0.01377035462840884 0
-0.510966929798495 0
0.5109670596865026 0
-0.1006479662055812 0
0.1006475672936734 0
-0.08168464422545081 0
0.08168163768742435 0
-7.399263803638955e-07 0
6.817476561555392e-07 0
0.4412696411942181 0
-0.4412697045420544 0
0.3639811705754683 0
-0.3639808539610719 0
0.3570854308983448 0
-0.3570855533397428 0
-0.4659585140948445 0
0.465958959439074 0
0.5914080461295346 0
-0.5914080001726175 0
0.2617182911565852 0
-0.2617194993953744 0
0.5788539144964483 0
-0.5788537440372413 0
0.1150418958338934 0
-0.115042738783064 0
-0.1669986154646224 0
0.1669980804878883 0
-0.01748140802192268 0
0.01748121011459433 0
0.09414050429556449 0
-0.09414143733224652 0
-0.6578461648025664 0
0.6578462357857976 0
-0.5384068975418987 0
0.5384068816227746 0
-0.03811999558773904 0
0.03811770701237196 0
0.4937313199614097 0
-0.4937308040857443 0
0.1039840137510499 0
-0.1039852762891217 0
0.6732826249773419 0
-0.6732824703972324 0
0.7403112296401999 0
-0.7403111668926076 0
0.2012797569531129 0
-0.2012800484483051 0
0.3928856629573326 0
-0.3928856703715343 0
0.444425449195081 0
-0.4444254044797657 0
0.2974582419986363 0
-0.2974579333885748 0
0.2828603329190445 0
-0.2828605303998602 0
0.4229304284309356 0
-0.4229300213801783 0
0.334506553503584 0
-0.3345065433301712 0
0.3617922310123738 0
-0.3617922464169497 0
-0.1926207920559405 0
0.1926207463794967 0
0.06413844957679389 0
-0.0641399132773698 0
0.1667205800813662 0
-0.1667209541358499 0
0.7396733865687994 0
-0.7396733320709106 0
0.1355239890614625 0
-0.1355240412409639 0
0.1613555063811346 0
-0.161355208944374 0
0.06899322938357509 0
-0.06899385571468347 0
0.4838276149513494 0
-0.4838276543546229 0
-0.7498797181343787 0
0.7498797686100849 0
-0.01276247730566064 0
0.01276152627517627 0
0.3809375618503617 0
-0.380936692192931 0
0.3479679542194105 0
-0.3479677923823514 0
-0.01144810121684685 0
0.01144751423601355 0
0.2878952361544997 0
-0.2878940858977033 0
-0.5118147157749577 0
0.5118150343826612 0
-0.02421398955896643 0
0.02420800223547214 0
-0.1132766357932008 0
0.1132765042921741 0
0.6750635241131637 0
-0.6750634457381967 0
-0.6481081648983427 0
0.6481083569662516 0
0.4850325996079553 0
-0.4850323858322937 0
0.267593839366685 0
-0.2675938813907612 0
0.4769053135698576 0
-0.4769052259863935 0
0.5923316078898505 0
-0.5923313828223922 0
-0.7396991503904086 0
0.739699181831646 0
-0.1344197075996619 0
0.1344186423904802 0
0.5086875351951168 0
-0.5086875372444668 0
-0.03497259828102074 0
0.03496778437217012 0
0.01587918916444779 0
-0.01588347912908895 0
0.5742731245354163 0
-0.5742730000771702 0
-0.06023862557938275 0
0.06023809631155862 0
-0.1454133651550965 0
0.1454130064622958 0
0.0236205450536729 0
-0.07119053399821186 0
0.07265758220385826 0
-0.02340667144594181 0
-0.1021302314533546 0
0.1034884141565693 0
0.1069797378629206 0
-0.1057506942133322 0
$EndSolution
$Solution  /* DofData #0 */
0 1 0 5
-0.1797615494700247 0
0.1799533258757532 0
0.1797995749278139 0
-0.17993176738752 0
-0.1213631081274658 0
-0.06123299593027547 0
-3.54766645531829e-05 0
0.0612872845855271 0
0.1212409264815484 0
0.1690850937574681 0
0.1213154570397101 0
0.06122466240767597 0
3.569248707982832e-05 0
-0.06129078535431442 0
-0.1212601858395736 0
-0.1691431025862716 0
0.03559245527766165 0
-0.03559322937976099 0
-0.3574309628765387 0
0.3574310385014282 0
0.4127619140203473 0
-0.4127619834560085 0
0.6004135671441247 0
-0.6004133096014209 0
0.6260624788240305 0
-0.626062041298349 0
-0.1970223219606587 0
0.1970220585939629 0
0.106463901738258 0
-0.1064659141342893 0
0.1764448945362883 0
-0.1764457593248772 0
0.2775106041969631 0
-0.2775108638355649 0
0.6407961349923453 0
-0.6407960715113917 0
0.4194116761405672 0
-0.4194114544898377 0
-0.3780777887681465 0
0.3780794825578306 0
0.04945893490526807 0
-0.04945920785286638 0
0.5799607129906647 0
-0.5799605125092248 0
0.7731452403120678 0
-0.7731450153114277 0
0.3878630568638002 0
-0.3878629562006243 0
-0.4112332889190004 0
0.4112332528096878 0
0.4836752308907565 0
-0.4836753231966305 0
0.7752774775610868 0
-0.7752773710477352 0
-0.1828537021605358 0
0.1828531314008418 0
0.0314952407327251 0
-0.03149839557296285 0
0.655294273563374 0
-0.655294280450929 0
0.2099913814458696 0
-0.209991926047557 0
-0.5426642686501667 0
0.5426649226137525 0
-0.2298013402894999 0
0.2298020344564638 0
-0.09056126984067152 0
0.09056107909467713 0
0.4808796271233082 0
-0.4808790785306505 0
0.7341202214240513 0
-0.7341200524714677 0
0.2631406095307142 0
-0.2631396124143268 0
0.01691753851807361 0
-0.01691923339234783 0
-0.05293635759428934 0
0.05293595219615398 0
0.2259981159261974 0
-0.2259982682964775 0
0.7731522936938426 0
-0.7731520862399431 0
0.5752088496727357 0
-0.5752087127170821 0
-0.2335262719334129 0
0.2335258818550347 0
0.4880783829519691 0
-0.488078294350612 0
-0.3157805767143739 0
0.3157804873845213 0
0.1396464452737952 0
-0.1396468867398669 0
0.4021642768314071 0
-0.402164375269581 0
-0.2929200009141093 0
0.2929198137514693 0
0.5522087416203356 0
-0.5522086971048998 0
-0.1114930427293191 0
0.1114877822524658 0
0.8608083661552995 0
-0.8608082662358647 0
0.3302454069645442 0
-0.3302461575891897 0
0.8050880574087977 0
-0.805088013337081 0
0.3409323482203089 0
-0.3409325916929239 0
0.3157698551087487 0
-0.3157699413065139 0
0.1423844456327933 0
-0.1423865604757277 0
0.7480827476605502 0
-0.7480827298220115 0
-0.3120876547669176 0
0.3120924467206652 0
0.4714002504590006 0
-0.4714001710465766 0
0.4579256527106614 0
-0.4579255598250759 0
-0.06182349045784219 0
0.06182249266379397 0
-0.3484952458260426 0
0.3484958479357766 0
0.7118888062428882 0
-0.7118885795562859 0
0.6121212566272467 0
-0.6121212868433643 0
0.5095112116682859 0
-0.5095103437890575 0
0.5172713224308226 0
-0.5172713792261744 0
0.01740467375366729 0
-0.01740479765895826 0
-0.205407082333123 0
0.2054069766882058 0
0.1251821162340064 0
-0.1251831239202376 0
-0.66366422476974 0
0.6636646389425808 0
0.7014233184118626 0
-0.701423209168398 0
0.4316532485206148 0
-0.4316517656846239 0
0.5890295303195214 0
-0.5890295071344542 0
0.5985370409515762 0
-0.5985366876570157 0
0.6580191869015486 0
-0.6580190357003497 0
-0.8698006273665042 0
0.8698007399022347 0
-0.1324974349320984 0
0.1324969292970177 0
0.2908677468514465 0
-0.2908694189456046 0
0.5140602560434024 0
-0.5140597880100292 0
0.28722988637833 0
-0.2872302310512738 0
0.1513393502520596 0
-0.1513394708656359 0
0.3951394236555507 0
-0.3951392815383149 0
-0.422765977164005 0
0.4227659446661738 0
0.5147532035356993 0
-0.5147532555485178 0
-0.6508372394746164 0
0.6508375791154933 0
-0.0192681636463069 0
0.01926311661636596 0
0.8705072916514351 0
-0.8705072508203932 0
0.3177342425478605 0
-0.3177343406068766 0
0.3786034105540624 0
-0.3786035876862483 0
0.08607309621680956 0
-0.08607489920978666 0
0.719774109554552 0
-0.71977403109405 0
-0.2962295083984882 0
0.2962293542839964 0
-0.1537805179785071 0
0.1537795326607074 0
0.1983955403348955 0
-0.1983958132462272 0
-0.744856931719092 0
0.7448569336690066 0
-0.2650776749912599 0
0.265077416793957 0
0.6759311024312742 0
-0.6759310527658217 0
0.823647890503168 0
-0.8236477827662547 0
-0.1631143178270273 0
0.16311092739107 0
0.0438571405049907 0
-0.04385765502002362 0
-0.4944750688992952 0
0.4944753313019883 0
0.07152655652386143 0
-0.07153061952023086 0
-0.03303630689874852 0
0.03303309696153121 0
0.8905124518950662 0
-0.8905123911220966 0
0.5323303189331702 0
-0.5323303123745308 0
-0.8932695042919692 0
0.8932695916554626 0
0.7036878315926839 0
-0.7036875401485349 0
0.1271123172489324 0
-0.1271129593340951 0
-0.05166657348748801 0
0.05166586437128286 0
-0.1145984031932153 0
0.114598116761113 0
-0.03519931535029804 0
0.03519902547341214 0
0.2198283517594928 0
-0.2198287556606674 0
0.1889007904989974 0
-0.1889015067506851 0
-0.3081731005459501 0
0.3081743645764473 0
0.2599016943504853 0
-0.259898577992534 0
-0.1850449499812951 0
0.1850438648177143 0
0.4317187881150011 0
-0.4317189204441182 0
0.3739003309464768 0
-0.3739003474478246 0
-0.8334119723020232 0
0.8334119920307066 0
0.5010355896613752 0
-0.5010355940847805 0
-0.07259971912982646 0
0.07259962618840479 0
0.5666408130866902 0
-0.5666407149200173 0
0.4949823061873047 0
-0.4949821680904535 0
-0.06910525703232337 0
0.06910380062183379 0
0.2431311434488763 0
-0.2431234855762063 0
0.2900374174051176 0
-0.2900375910450116 0
0.2448488696381184 0
-0.2448489190705307 0
0.3332447822258267 0
-0.3332439886296963 0
-0.7401253032191233 0
0.7401255830031792 0
-0.2121209441380293 0
0.2121205793822125 0
0.188996867243073 0
-0.1889934988137425 0
0.5841995863160029 0
-0.5841989592857837 0
0.4148604227315272 0
-0.4148595013894495 0
-0.2353889368411909 0
0.2353887815701555 0
-0.7781808525639109 0
0.7781809217109785 0
0.6940241715343345 0
-0.6940241809080974 0
0.4105069596565347 0
-0.4105065639160248 0
0.06348497250920138 0
-0.06348600281645628 0
0.00981998742558199 0
-0.009822412334582106 0
0.5479395746304225 0
-0.5479394019311524 0
0.6520845983346983 0
-0.6520843902850076 0
0.5441345237278086 0
-0.5441339293333946 0
0.6697905474513707 0
-0.6697905189447518 0
0.2555686536858278 0
-0.2555746931202927 0
0.3971514767438015 0
-0.3971517994714394 0
-0.2952420009880081 0
0.2952419442859412 0
0.7375558678159642 0
-0.7375558258195847 0
0.3209562653424152 0
-0.3209559196161308 0
-0.6062496042863613 0
0.6062495791157531 0
0.8000296981715973 0
-0.800029573327836 0
-0.8717733935014879 0
0.87177348798159 0
0.2466425827512434 0
-0.2466426486756381 0
0.530688227510366 0
-0.5306881183125373 0
0.4800190233912565 0
-0.4800190000694387 0
0.4700668808939055 0
-0.4700669199994134 0
0.1320525265507797 0
-0.1320527545260285 0
0.4849385567913222 0
-0.4849384328194983 0
-0.3093554119876796 0
0.3093554938777758 0
-0.3096442279059387 0
0.3096474482927453 0
0.4043804599733773 0
-0.4043804828858227 0
0.5430989528958171 0
-0.5430990097675963 0
0.1104422563242859 0
-0.1104443596129888 0
-0.3788183765997745 0
0.3788183421632932 0
-0.162377574155962 0
0.1623775113108774 0
0.6469287177532763 0
-0.6469286102468693 0
-0.1588075814341184 0
0.158805147585782 0
0.8830853804361053 0
-0.8830853590797898 0
0.7956166563807121 0
-0.7956164813753703 0
-0.08032617237399781 0
0.08031520582595887 0
-0.1108175930998852 0
0.1108168520669923 0
0.383007549301593 0
-0.3830075757637789 0
0.09708646292315047 0
-0.09708681560881398 0
0.612554035820816 0
-0.6125540097584377 0
-0.683450869784431 0
0.6834512326551714 0
0.9379600703343877 0
-0.9379600300483009 0
-0.3670918593457993 0
0.367091784764825 0
-0.1645789249211724 0
0.1645787361162628 0
0.3772031437584266 0
-0.3772033140623071 0
0.1804104759448877 0
-0.180411196963757 0
0.2686709823428925 0
-0.268671355764147 0
0.349286384956688 0
-0.3492865527063634 0
0.08290497157707626 0
-0.08290504467915677 0
0.4358497450391625 0
-0.4358498561926759 0
0.6602750454264944 0
-0.6602748357794382 0
-0.2643780707169214 0
0.2643782710898465 0
-0.8171395082321977 0
0.8171395165993813 0
0.1185671325411033 0
-0.1185737589355079 0
0.4218099376638494 0
-0.421809779541658 0
0.4599131183250523 0
-0.4599122553934957 0
0.3985672795295183 0
-0.3985673252685552 0
0.3763381382167721 0
-0.3763363766202944 0
-0.2521291354970893 0
0.2521388869568645 0
-0.3604341740848037 0
0.3604340914794205 0
0.5796730026602286 0
-0.5796730171154102 0
0.7037366543822691 0
-0.7037363427530865 0
0.3738733608828361 0
-0.373870943757864 0
-0.7895909002505874 0
0.7895909765141153 0
-0.6711740222471458 0
0.6711743055376662 0
0.01595840516159369 0
-0.01595879953222679 0
0.2427050907007664 0
-0.2427055115186395 0
0.2970845292268154 0
-0.2970848193992118 0
-0.2432835632932574 0
0.2432833108111246 0
0.3094213057471285 0
-0.3094214420467807 0
0.6897327500777088 0
-0.6897327407875883 0
0.4392223207857736 0
-0.4392222943628404 0
0.5297006532387635 0
-0.5297003943264414 0
-0.441776151630029 0
0.4417774747471368 0
-0.5003270473037128 0
0.5003280225523612 0
-0.005326180696034729 0
0.005324961488929862 0
0.07119017183652904 0
-0.07119034260506679 0
-0.01787092784011666 0
0.0178674691801956 0
-0.6392356147756341 0
0.6392357364637586 0
-0.1260896822372548 0
0.1260892917064571 0
-0.1038316798820746 0
0.1038286033857825 0
-7.623651390288629e-07 0
7.067249252473643e-07 0
0.551985777318035 0
-0.5519858294165092 0
0.4585130494948566 0
-0.4585128323117705 0
0.4475321549124603 0
-0.4475322448263536 0
-0.5847516132855813 0
0.5847520105941304 0
0.7394396652802564 0
-0.7394396221604113 0
0.3325539152552336 0
-0.3325553920086035 0
0.7248674899556573 0
-0.7248673376847901 0
0.1445726005787697 0
-0.1445733775980434 0
-0.2099715512808047 0
0.2099709983347071 0
-0.02187125590249278 0
0.0218710659786239 0
0.1183705393984703 0
-0.1183714673501286 0
-0.822546251804656 0
0.8225463187534279 0
-0.6731811691299789 0
0.6731811568825561 0
-0.0482250030044894 0
0.04822274970553539 0
0.6190872072723933 0
-0.6190867292294475 0
0.131180523045784 0
-0.1311816758753761 0
0.8422602772851 0
-0.8422601343224753 0
0.9256570386240288 0
-0.9256569805441641 0
0.2524747755369589 0
-0.2524750754620312 0
0.4912306358916227 0
-0.4912306445904905 0
0.5570660067509 0
-0.5570659504821098 0
0.3748834141045609 0
-0.3748830573462973 0
0.3552018453570979 0
-0.3552019854395572 0
0.5299714491496587 0
-0.5299710628044779 0
0.4188118560122327 0
-0.4188118544992324 0
0.4525619484795578 0
-0.4525619673953966 0
-0.2408322268981376 0
0.2408321819808774 0
0.08088746922393067 0
-0.08088884167007866 0
0.2088310442930487 0
-0.2088313884493871 0
0.9248030872097409 0
-0.924803036451199 0
0.1694382593803153 0
-0.1694383083105837 0
0.2053779673319091 0
-0.2053774305445848 0
0.08652498145751798 0
-0.08652557208253733 0
0.6053725674961596 0
-0.6053725955119662 0
-0.9376133531657536 0
0.9376133994016828 0
-0.01603562105555499 0
0.01603470192923745 0
0.4782931199388029 0
-0.4782922836877002 0
0.4375353774326859 0
-0.4375351936780174 0
-0.0143525086032936 0
0.01435194367123105 0
0.3624538936914487 0
-0.3624527804206544 0
-0.6416510639103064 0
0.6416513476252732 0
-0.0315659766307496 0
0.03156044350770944 0
-0.1416814467442238 0
0.141681318800722 0
0.8444612987775689 0
-0.8444612277285357 0
-0.8108449592389317 0
0.8108451385768198 0
0.6083244486241509 0
-0.6083242650820849 0
0.3345555974247368 0
-0.3345556358126862 0
0.5965941059269387 0
-0.5965940252013071 0
0.7411456298524444 0
-0.7411454173846269 0
-0.9248795231377051 0
0.9248795517560043 0
-0.1695967751533794 0
0.1695956721942865 0
0.6367119803748251 0
-0.6367119729894828 0
-0.04476987845510032 0
0.04476511661230734 0
0.02038212864086237 0
-0.02038610759455694 0
0.7190672055267825 0
-0.7190670933944346 0
-0.07550562362797061 0
0.07550510894184542 0
-0.1821989296431774 0
0.182198574285172 0
0.03112066901140337 0
-0.09392229040469709 0
0.09586226066754741 0
-0.03083799299805838 0
-0.1349622997680773 0
0.1367635208318219 0
0.1413771017406763 0
-0.1397526595408786 0
$EndSolution
