0  301.8706077426673
1e-10  301.870920944899
1e-05  332.2994526646355
2e-05  362.7335232809148
3e-05  393.1226981200617
4e-05  423.4285305090225
5e-05  453.6215424788263
6e-05  483.6791852060275
7.000000000000001e-05  513.5842983291545
8.000000000000001e-05  543.3239363344716
9.000000000000001e-05  572.8884674462275
0.0001  602.2708765856853
0.00011  631.4662224354171
0.00012  660.4712118126084
0.00013  689.2838640212993
0.00014  717.9040177978304
0.00015  746.3307053872282
0.00016  774.5645046014799
0.00017  802.6065191791374
0.00018  830.4582691443728
0.00019  858.1216020848392
0.0002  885.5986211628107
0.00021  912.8916265721342
0.00022  940.0030678447986
0.00023  966.9355049463048
0.00024  993.6915765160138
0.00025  1020.273973935266
0.00026  1046.685420163193
0.0002700000000000001  1072.928652483625
0.0002800000000000001  1099.006408468235
0.0002900000000000001  1124.921414590236
0.0003000000000000001  1150.676377026557
0.0003100000000000002  1176.273974269833
0.0003200000000000002  1201.716851238997
0.0003300000000000002  1227.007614631975
0.0003400000000000002  1252.148829308546
0.0003500000000000003  1277.143015527818
0.0003600000000000003  1301.992646894609
0.0003700000000000003  1326.700148893539
0.0003800000000000003  1351.267897909835
0.0003900000000000004  1375.698220652573
0.0004000000000000004  1399.993393909908
0.0004100000000000004  1424.155644577343
0.0004200000000000005  1448.187149909662
0.0004300000000000005  1472.09003795512
0.0004400000000000005  1495.866388137173
0.0004500000000000005  1519.518231954606
0.0004600000000000006  1543.047553775606
0.0004700000000000006  1566.456291705275
0.0004800000000000006  1589.74633850936
0.0004900000000000006  1612.919542579817
0.0005000000000000007  1635.977708930124
0.0005100000000000007  1658.922600210301
0.0005200000000000007  1681.755937733204
0.0005300000000000007  1704.479402505168
0.0005400000000000008  1727.094636255192
0.0005500000000000008  1749.603242457925
0.0005600000000000008  1772.00678734656
0.0005700000000000008  1794.306800912462
0.0005800000000000009  1816.504777888984
0.0005900000000000009  1838.602178717444
0.0006000000000000009  1860.600430493676
0.0006100000000000009  1882.500927893929
0.000620000000000001  1904.305034079224
0.000630000000000001  1926.014081577524
0.000640000000000001  1947.629373143302
0.0006500000000000011  1969.152182594277
0.0006600000000000011  1990.583755625244
0.0006700000000000011  2011.925310599041
0.0006800000000000011  2033.178039314836
0.0006900000000000012  2054.343107753943
0.0007000000000000012  2075.421656803534
0.0007100000000000012  2096.414802958576
0.0007200000000000012  2117.323639002448
0.0007300000000000013  2138.149234666685
0.0007400000000000013  2158.892637270319
0.0007500000000000013  2179.554872339361
0.0007600000000000013  2200.13694420689
0.0007700000000000014  2220.639836594338
0.0007800000000000014  2241.06451317444
0.0007900000000000014  2261.411918116451
0.0008000000000000014  2281.6829766141
0.0008100000000000015  2301.878595396861
0.0008200000000000015  2321.99966322503
0.0008300000000000015  2342.047051369138
0.0008400000000000016  2362.021614074192
0.0008500000000000016  2381.924189009274
0.0008600000000000016  2401.755597702924
0.0008700000000000016  2421.516645964837
0.0008800000000000017  2441.208124294288
0.0008900000000000017  2460.830808275779
0.0009000000000000017  2480.385458962277
0.0009100000000000017  2499.872823246546
0.0009200000000000018  2519.293634220897
0.0009300000000000018  2538.648611525837
0.0009400000000000018  2557.938461687909
0.0009500000000000018  2577.163878447175
0.0009600000000000019  2596.325543074654
0.0009700000000000019  2615.424124680063
0.0009800000000000019  2634.46028051022
0.0009900000000000019  2653.434656238399
0.001000000000000002  2672.34788624497
0.001010000000000002  2691.200593889622
0.001020000000000002  2709.993391775442
0.001030000000000002  2728.726882005152
0.001040000000000002  2747.401656429752
0.001050000000000002  2766.018296889838
0.001060000000000002  2784.57737544985
0.001070000000000002  2803.079454625475
0.001080000000000002  2821.525087604448
0.001090000000000002  2839.914818460973
0.001100000000000002  2858.249182363973
0.001110000000000002  2876.528705779394
0.001120000000000002  2894.753906666722
0.001130000000000002  2912.925294669958
0.001140000000000002  2931.043371303197
0.001150000000000002  2949.108630131004
0.001160000000000002  2967.121556943762
0.001170000000000002  2985.082629928128
0.001180000000000002  3002.992319832832
0.001190000000000002  3020.851090129854
0.001200000000000002  3038.659397171259
0.001210000000000003  3056.417690341709
0.001220000000000003  3074.126412206902
0.001230000000000003  3091.785998657966
0.001240000000000003  3109.396879052027
0.001250000000000003  3126.959476349008
0.001260000000000003  3144.474207244808
0.001270000000000003  3161.941482300979
0.001280000000000003  3179.361706070982
0.001290000000000003  3196.735277223176
0.001300000000000003  3214.062131056971
0.001310000000000003  3231.343121438776
0.001320000000000003  3248.578629865345
0.001330000000000003  3265.769032416112
0.001340000000000003  3282.914699860911
0.001350000000000003  3300.015997764961
0.001360000000000003  3317.073286591225
0.001370000000000003  3334.08692180021
0.001380000000000003  3351.057253947267
0.001390000000000003  3367.984628777505
0.001400000000000003  3384.869387318362
0.001410000000000003  3401.711865969889
0.001420000000000003  3418.512396592869
0.001430000000000003  3435.271306594763
0.001440000000000003  3451.988919013603
0.001450000000000003  3468.665552599869
0.001460000000000003  3485.301521896394
0.001470000000000003  3501.89713731639
0.001480000000000003  3518.452705219617
0.001490000000000003  3534.968527986757
0.001500000000000003  3551.444904092057
0.001510000000000003  3567.882128174259
0.001520000000000003  3584.280491105906
0.001530000000000003  3600.64028006104
0.001540000000000003  3616.961778581336
0.001550000000000003  3633.245266640741
0.001560000000000003  3649.491020708626
0.001570000000000003  3665.69931381152
0.001580000000000003  3681.870415593452
0.001590000000000004  3698.004592374929
0.001600000000000004  3714.102107210615
0.001610000000000004  3730.163219945717
0.001620000000000004  3746.188187271121
0.001630000000000004  3762.177262777336
0.001640000000000004  3778.130697007229
0.001650000000000004  3794.048737507633
0.001660000000000004  3809.93162887982
0.001670000000000004  3825.779612828898
0.001680000000000004  3841.59292821214
0.001690000000000004  3857.371811086274
0.001700000000000004  3873.116494753772
0.001710000000000004  3888.827209808164
0.001720000000000004  3904.504184178379
0.001730000000000004  3920.147643172176
0.001740000000000004  3935.757809518649
0.001750000000000004  3951.334903409854
0.001760000000000004  3966.879142541587
0.001770000000000004  3982.390742153289
0.001780000000000004  3997.869915067168
0.001790000000000004  4013.316871726497
0.001800000000000004  4028.731820233146
0.001810000000000004  4044.11496638434
0.001820000000000004  4059.466513708693
0.001830000000000004  4074.786663501506
0.001840000000000004  4090.075614859361
0.001850000000000004  4105.333564714034
0.001860000000000004  4120.560707865729
0.001870000000000004  4135.757237015652
0.001880000000000004  4150.923342797962
0.001890000000000004  4166.059213811077
0.001900000000000004  4181.165036648384
0.001910000000000004  4196.240995928348
0.001920000000000004  4211.287274324046
0.001930000000000004  4226.304052592113
0.001940000000000004  4241.29150960117
0.001950000000000004  4256.249822359672
0.001960000000000004  4271.179166043251
0.001970000000000004  4286.079714021536
0.001980000000000004  4300.951637884466
0.001990000000000004  4315.795107468105
0.002000000000000004  4330.610290879999
0.002010000000000004  4345.397354524023
0.002020000000000004  4360.156463124803
0.002030000000000004  4374.887779751664
0.002040000000000004  4389.591465842154
0.002050000000000005  4404.267681225131
0.002060000000000005  4418.916584143426
0.002070000000000005  4433.538331276108
0.002080000000000005  4448.133077760319
0.002090000000000005  4462.700977212753
0.002100000000000005  4477.242181750727
0.002110000000000005  4491.756842012869
0.002120000000000005  4506.245107179468
0.002130000000000005  4520.707124992433
0.002140000000000005  4535.143041774913
0.002150000000000005  4549.553002450572
0.002160000000000005  4563.937150562535
0.002170000000000005  4578.295628291976
0.002180000000000005  4592.628576476417
0.002190000000000005  4606.936134627692
0.002200000000000005  4621.2184409496
0.002210000000000005  4635.475632355265
0.002220000000000005  4649.707844484191
0.002230000000000005  4663.915211719034
0.002240000000000005  4678.097867202069
0.002250000000000005  4692.25594285142
0.002260000000000005  4706.389569376968
0.002270000000000005  4720.498876296026
0.002280000000000005  4734.583991948736
0.002290000000000005  4748.645043513218
0.002300000000000005  4762.682157020466
0.002310000000000005  4776.695457368994
0.002320000000000005  4790.685068339237
0.002330000000000005  4804.651112607728
0.002340000000000005  4818.593711761047
0.002350000000000005  4832.512986309498
0.002360000000000005  4846.409055700646
0.002370000000000005  4860.282038332551
0.002380000000000005  4874.132051566842
0.002390000000000005  4887.959211741557
0.002400000000000005  4901.7636341838
0.002410000000000005  4915.545433222161
0.002420000000000005  4929.304722198973
0.002430000000000006  4943.041613482364
0.002440000000000006  4956.756218478107
0.002450000000000006  4970.4486476413
0.002460000000000006  4984.119010487851
0.002470000000000006  4997.767415605801
0.002480000000000006  5011.393970666439
0.002490000000000006  5024.998782435292
0.002500000000000006  5038.581956782897
0.002510000000000006  5052.143598695438
0.002520000000000006  5065.683812285213
0.002530000000000006  5079.202700800934
0.002540000000000006  5092.700366637869
0.002550000000000006  5106.176911347859
0.002560000000000006  5119.63243564914
0.002570000000000006  5133.067039436039
0.002580000000000006  5146.480821788538
0.002590000000000006  5159.87388098167
0.002600000000000006  5173.246314494781
0.002610000000000006  5186.598219020669
0.002620000000000006  5199.929690474568
0.002630000000000006  5213.240824003014
0.002640000000000006  5226.531713992582
0.002650000000000006  5239.802454078464
0.002660000000000006  5253.053137152971
0.002670000000000006  5266.283855373869
0.002680000000000006  5279.494700172629
0.002690000000000006  5292.68576226251
0.002700000000000006  5305.857131646582
0.002710000000000006  5319.008897625599
0.002720000000000006  5332.14114880575
0.002730000000000006  5345.253973106342
0.002740000000000006  5358.347457767324
0.002750000000000006  5371.421689356743
0.002760000000000006  5384.47675377807
0.002770000000000006  5397.512736277433
0.002780000000000006  5410.529721450754
0.002790000000000006  5423.527793250767
0.002800000000000006  5436.507034993957
0.002810000000000007  5449.467529367397
0.002820000000000007  5462.409358435485
0.002830000000000007  5475.332603646588
0.002840000000000007  5488.23734583961
0.002850000000000007  5501.123665250432
0.002860000000000007  5513.99164151832
0.002870000000000007  5526.841353692192
0.002880000000000007  5539.672880236828
0.002890000000000007  5552.486299039
0.002900000000000007  5565.281687413489
0.002910000000000007  5578.059122109046
0.002920000000000007  5590.818679314289
0.002930000000000007  5603.560434663471
0.002940000000000007  5616.284463242208
0.002950000000000007  5628.990839593122
0.002960000000000007  5641.679637721424
0.002970000000000007  5654.350931100373
0.002980000000000007  5667.004792676731
0.002990000000000007  5679.641294876092
0.003000000000000007  5692.260509608173
0.003010000000000007  5704.862508272015
0.003020000000000007  5717.447361761134
0.003030000000000007  5730.015140468595
0.003040000000000007  5742.565914292009
0.003050000000000007  5755.099752638497
0.003060000000000007  5767.616724429559
0.003070000000000007  5780.116898105888
0.003080000000000007  5792.60034163214
0.003090000000000007  5805.067122501624
0.003100000000000007  5817.517307740927
0.003110000000000007  5829.950963914499
0.003120000000000007  5842.368157129183
0.003130000000000007  5854.768953038651
0.003140000000000007  5867.153416847836
0.003150000000000007  5879.521613317263
0.003160000000000007  5891.873606767344
0.003170000000000007  5904.209461082643
0.003180000000000007  5916.529239716027
0.003190000000000007  5928.833005692844
0.003200000000000008  5941.12082161497
0.003210000000000008  5953.392749664878
0.003220000000000008  5965.648851609591
0.003230000000000008  5977.889188804646
0.003240000000000008  5990.113822197967
0.003250000000000008  6002.322812333713
0.003260000000000008  6014.516219356058
0.003270000000000008  6026.694103012956
0.003280000000000008  6038.856522659838
0.003290000000000008  6051.003537263258
0.003300000000000008  6063.135205404523
0.003310000000000008  6075.25158528325
0.003320000000000008  6087.352734720905
0.003330000000000008  6099.438711164279
0.003340000000000008  6111.509571688928
0.003350000000000008  6123.565373002592
0.003360000000000008  6135.606171448538
0.003370000000000008  6147.632023008898
0.003380000000000008  6159.642983307942
0.003390000000000008  6171.63910761533
0.003400000000000008  6183.620450849305
0.003410000000000008  6195.587067579888
0.003420000000000008  6207.539012031977
0.003430000000000008  6219.476338088474
0.003440000000000008  6231.399099293321
0.003450000000000008  6243.307348854541
0.003460000000000008  6255.201139647212
0.003470000000000008  6267.080524216443
0.003480000000000008  6278.945554780275
0.003490000000000008  6290.796283232567
0.003500000000000008  6302.632761145875
0.003510000000000008  6314.455039774255
0.003520000000000008  6326.263170056055
0.003530000000000008  6338.057202616674
0.003540000000000008  6349.837187771293
0.003550000000000008  6361.603175527574
0.003560000000000008  6373.355215588307
0.003570000000000008  6385.093357354077
0.003580000000000009  6396.817649925847
0.003590000000000009  6408.528142107545
0.003600000000000009  6420.224882408609
0.003610000000000009  6431.907919046515
0.003620000000000009  6443.577299949252
0.003630000000000009  6455.233072757822
0.003640000000000009  6466.875284828638
0.003650000000000009  6478.503983235955
0.003660000000000009  6490.119214774265
0.003670000000000009  6501.721025960632
0.003680000000000009  6513.309463037041
0.003690000000000009  6524.884571972701
0.003700000000000009  6536.446398466334
0.003710000000000009  6547.994987948418
0.003720000000000009  6559.530385583436
0.003730000000000009  6571.052636272076
0.003740000000000009  6582.561784653422
0.003750000000000009  6594.057875107112
0.003760000000000009  6605.540951755479
0.003770000000000009  6617.011058465672
0.003780000000000009  6628.468238851739
0.003790000000000009  6639.912536276702
0.003800000000000009  6651.34399385462
0.003810000000000009  6662.762654452598
0.003820000000000009  6674.168560692806
0.003830000000000009  6685.561754954454
0.003840000000000009  6696.942279375772
0.003850000000000009  6708.310175855934
0.003860000000000009  6719.665486057008
0.003870000000000009  6731.008251405819
0.003880000000000009  6742.338513095891
0.003890000000000009  6753.656312089249
0.003900000000000009  6764.961689118313
0.003910000000000009  6776.254684687696
0.003920000000000009  6787.535339076022
0.003930000000000008  6798.803692337722
0.003940000000000008  6810.059784304774
0.003950000000000007  6821.303654588498
0.003960000000000007  6832.535342581263
0.003970000000000007  6843.754887458202
0.003980000000000006  6854.962328178925
0.003990000000000006  6866.157703489199
0.004000000000000005  6877.341051922612
0.004010000000000005  6888.512411802207
0.004020000000000004  6899.67182124214
0.004030000000000004  6910.819318149265
0.004040000000000004  6921.954940224774
0.004050000000000003  6933.078724965725
0.004060000000000003  6944.190709666672
0.004070000000000002  6955.290931421162
0.004080000000000002  6966.379427123308
0.004090000000000002  6977.456233469298
0.004100000000000001  6988.521386958888
0.004110000000000001  6999.574923896917
0.00412  7010.616880394778
0.00413  7021.647292371861
0.00414  7032.666195557033
0.004149999999999999  7043.673625490036
0.004159999999999999  7054.669617522938
0.004169999999999998  7065.654206821524
0.004179999999999998  7076.62742836669
0.004189999999999998  7087.589316955821
0.004199999999999997  7098.539907204169
0.004209999999999997  7109.479233546182
0.004219999999999996  7120.407330236865
0.004229999999999996  7131.324231353093
0.004239999999999996  7142.229970794936
0.004249999999999995  7153.124582286955
0.004259999999999995  7164.008099379491
0.004269999999999994  7174.880555449935
0.004279999999999994  7185.741983704011
0.004289999999999993  7196.592417177006
0.004299999999999993  7207.431888735033
0.004309999999999993  7218.260431076239
0.004319999999999992  7229.078076732045
0.004329999999999992  7239.884858068328
0.004339999999999991  7250.680807286635
0.004349999999999991  7261.465956425367
0.004359999999999991  7272.24033736092
0.00436999999999999  7283.0039818089
0.00437999999999999  7293.756921325229
0.004389999999999989  7304.499187307304
0.004399999999999989  7315.230810995132
0.004409999999999989  7325.95182347243
0.004419999999999988  7336.662255667757
0.004429999999999988  7347.36213835559
0.004439999999999987  7358.051502157437
0.004449999999999987  7368.730377542898
0.004459999999999987  7379.398794830733
0.004469999999999986  7390.056784189939
0.004479999999999986  7400.704375640775
0.004489999999999985  7411.34159905583
0.004499999999999985  7421.968484161035
0.004509999999999985  7432.585060536673
0.004519999999999984  7443.191357618432
0.004529999999999984  7453.787404698357
0.004539999999999983  7464.373230925886
0.004549999999999983  7474.948865308818
0.004559999999999982  7485.514336714282
0.004569999999999982  7496.069673869713
0.004579999999999982  7506.614905363825
0.004589999999999981  7517.150059647523
0.004599999999999981  7527.675165034887
0.00460999999999998  7538.190249704085
0.00461999999999998  7548.695341698298
0.00462999999999998  7559.190468926636
0.004639999999999979  7569.675659165064
0.004649999999999979  7580.150940057278
0.004659999999999978  7590.616339115617
0.004669999999999978  7601.071883721943
0.004679999999999978  7611.517601128522
0.004689999999999977  7621.953518458881
0.004699999999999977  7632.379662708687
0.004709999999999976  7642.796060746594
0.004719999999999976  7653.202739315093
0.004729999999999976  7663.599725031344
0.004739999999999975  7673.98704438803
0.004749999999999975  7684.364723754159
0.004759999999999974  7694.732789375891
0.004769999999999974  7705.091267377366
0.004779999999999974  7715.440183761476
0.004789999999999973  7725.7795644107
0.004799999999999973  7736.109435087865
0.004809999999999972  7746.429821436941
0.004819999999999972  7756.74074898384
0.004829999999999971  7767.042243137142
0.004839999999999971  7777.334329188896
0.004849999999999971  7787.617032315377
0.00485999999999997  7797.890377577811
0.00486999999999997  7808.154389923148
0.004879999999999969  7818.409094184798
0.004889999999999969  7828.65451508334
0.004899999999999969  7838.890677227282
0.004909999999999968  7849.117605113755
0.004919999999999968  7859.335323129247
0.004929999999999967  7869.543855550297
0.004939999999999967  7879.743226544215
0.004949999999999967  7889.933460169759
0.004959999999999966  7900.114580377841
0.004969999999999966  7910.286611012205
0.004979999999999965  7920.449575810117
0.004989999999999965  7930.603498403032
0.004999999999999965  7940.748402317264
0.01  11542.21480109533
0.015  14588.10249984269
0.02  17244.98537684129
0.025  19615.14251430735
0.03  21764.53496303457
0.035  23737.92390943057
0.04  25567.07782419727
0.045  27276.05676267569
0.05  28882.51147372512
0.05499999999999999  30399.96951913588
0.05999999999999999  31839.28431527487
0.06499999999999999  33209.39259954893
0.06999999999999999  34517.67610862195
0.075  35770.33746222356
0.08  36972.64491812753
0.08500000000000001  38129.11578004997
0.09000000000000001  39243.65621514063
0.09500000000000001  40319.66947674939
0.1  41360.14081838468
0.105  42367.70493722045
0.11  43344.7001350772
0.115  44293.21224978285
0.12  45215.11061519668
0.125  46112.07774279438
0.13  46985.63400943725
0.135  47837.17949736026
0.14  48667.94476377406
0.145  49479.07600283642
0.15  50271.62270093506
0.1550000000000001  51046.54847680836
0.1600000000000001  51804.74042164975
0.1650000000000001  52547.01718416845
0.1700000000000001  53274.13599976256
0.1750000000000001  53986.79882676304
0.1800000000000001  54685.6577238747
0.1850000000000001  55371.31957982398
0.1900000000000001  56044.35028759586
0.1950000000000001  56705.27844049991
0.2000000000000001  57354.59861498101
0.2050000000000001  57992.77429494396
0.2100000000000001  58620.24048402739
0.2150000000000001  59237.40604533703
0.2200000000000001  59844.65580238598
0.2250000000000001  60442.35243019144
0.2300000000000001  61030.83816141893
0.2350000000000001  61610.43632907639
0.2400000000000001  62181.45276436761
0.2450000000000001  62744.17706588323
0.2500000000000001  63298.88375421191
0.2550000000000001  63845.83332428058
0.2600000000000001  64385.27320621313
0.2650000000000001  64917.43864416751
0.2700000000000001  65442.55350149571
0.2750000000000001  65960.830999584
0.2800000000000001  66472.47439688168
0.2850000000000001  66977.67761389163
0.2900000000000001  67476.62580924659
0.2950000000000002  67969.49591143947
0.3000000000000002  68456.4571102787
0.3050000000000002  68937.67131170588
0.3100000000000002  69413.29355923661
0.3150000000000002  69883.47242495025
0.3200000000000002  70348.35037265009
0.3250000000000002  70808.06409556318
0.3300000000000002  71262.74483070972
0.3350000000000002  71712.51865186718
0.3400000000000002  72157.50674287201
0.3450000000000002  72597.82565283393
0.3500000000000002  73033.5875346922
0.3550000000000002  73464.90036841856
0.3600000000000002  73891.86817004248
0.3650000000000002  74314.5911875773
0.3700000000000002  74733.16608483228
0.3750000000000002  75147.68611400072
0.3800000000000002  75558.24127784638
0.3850000000000002  76050.84771775268
0.3900000000000002  76538.45423402068
0.3950000000000002  77021.165197699
0.4000000000000002  77499.09158410814
0.4050000000000002  77972.34050351371
0.4100000000000003  78441.01538155864
0.4150000000000003  78905.21612918671
0.4200000000000003  79365.03930278301
0.4250000000000003  79820.57825520512
0.4300000000000003  80271.92327832703
0.4350000000000003  80719.16173765916
0.4400000000000003  81162.37819957908
0.4450000000000003  81601.65455165153
0.4500000000000003  82037.07011648713
0.4550000000000003  82468.70175955728
0.4600000000000003  82896.62399134701
0.4650000000000003  83320.90906420044
0.4700000000000003  83741.62706418916
0.4750000000000003  84158.84599831089
0.4800000000000003  84572.63187730142
0.4850000000000003  84983.04879432062
0.4900000000000003  85390.15899976298
0.4950000000000003  85794.02297242159
0.5000000000000003  86194.69948720981
0.5050000000000003  86592.24567965203
0.5100000000000003  86986.71710731713
0.5150000000000003  87378.16780837689
0.5200000000000004  87766.65035744045
0.5250000000000004  88152.21591882837
0.5300000000000004  88534.91429741718
0.5350000000000004  88914.79398719028
0.5400000000000004  89291.90221762132
0.5450000000000004  89666.27361019768
0.5500000000000004  90038.14469074331
0.5550000000000004  90407.5522373053
0.5600000000000004  90774.53223426771
0.5650000000000004  91139.11990299463
0.5700000000000004  91501.34972193514
0.5750000000000004  91861.25544614601
0.5800000000000004  92218.87012624153
0.5850000000000004  92574.22612678791
0.5900000000000004  92927.35514416131
0.5950000000000004  93278.28822387992
0.6000000000000004  93627.05577742802
0.6050000000000004  93973.68759858493
0.6100000000000004  94318.21287927713
0.6150000000000004  94660.66022496138
0.6200000000000004  95001.05766955775
0.6250000000000004  95339.43268994642
0.6300000000000004  95675.81222003988
0.6350000000000005  96010.22266443999
0.6400000000000005  96342.68991170225
0.6450000000000005  96673.23934720653
0.6500000000000005  97001.89586565997
0.6550000000000005  97328.68388323158
0.6600000000000005  97653.62734934052
0.6650000000000005  97976.7497580966
0.6700000000000005  98298.0741594193
0.6750000000000005  98617.62316982933
0.6800000000000005  98935.4189829379
0.6850000000000005  99251.48337962883
0.6900000000000005  99565.83773795515
0.6950000000000005  99878.50304275595
0.7000000000000005  100189.4998949928
0.7050000000000005  100498.848520832
0.7100000000000005  100806.5687804641
0.7150000000000005  101112.6801766792
0.7200000000000005  101417.2018632027
0.7250000000000005  101720.1526527966
0.7300000000000005  102021.5510251364
0.7350000000000005  102321.4151344724
0.7400000000000005  102619.7628170768
0.7450000000000006  102916.611598487
0.7500000000000006  103211.978700552
0.7550000000000006  103505.8810482854
0.7600000000000006  103798.3352765318
0.7650000000000006  104089.357736453
0.7700000000000006  104378.9645018424
0.7750000000000006  104667.1642289563
0.7800000000000006  104953.9797637978
0.7850000000000006  105239.426380038
0.7900000000000006  105523.51909771
0.7950000000000006  105806.2726887169
0.8000000000000006  106087.7016821994
0.8050000000000006  106367.8203697591
0.8100000000000006  106646.6428105466
0.8150000000000006  106924.1828362172
0.8200000000000006  107200.4540557584
0.8250000000000006  107475.4698601928
0.8300000000000006  107749.2434271608
0.8350000000000006  108021.7877253843
0.8400000000000006  108293.1155190191
0.8450000000000006  108563.2393718951
0.8500000000000006  108832.1716516493
0.8550000000000006  109099.924533757
0.8600000000000007  109366.5100054585
0.8650000000000007  109631.9398695914
0.8700000000000007  109896.2257483249
0.8750000000000007  110159.3790868029
0.8800000000000007  110421.4111566971
0.8850000000000007  110682.3330596743
0.8900000000000007  110942.1557307745
0.8950000000000007  111200.8899417131
0.9000000000000007  111458.5463040977
0.9050000000000007  111715.1352725693
0.9100000000000007  111970.6671478699
0.9150000000000007  112225.1520798322
0.9200000000000007  112478.6000703031
0.9250000000000007  112731.0209759916
0.9300000000000007  112982.4245112576
0.9350000000000007  113232.8202508265
0.9400000000000007  113482.2176324456
0.9450000000000007  113730.6259594764
0.9500000000000007  113978.0544034287
0.9550000000000007  114224.5120064316
0.9600000000000007  114470.0076836519
0.9650000000000007  114714.5502256548
0.9700000000000008  114958.1483007115
0.9750000000000008  115200.8104570534
0.9800000000000008  115442.5451250746
0.9850000000000008  115683.3606194876
0.9900000000000008  115923.2651414258
0.9950000000000008  116162.2667805033
1.000000000000001  116400.3735168258
