0  599.3109443153519
1e-10  599.311086993534
1e-05  612.7794515781337
2e-05  625.541210091502
3e-05  637.6736469995274
4e-05  649.2420853408945
5e-05  660.3021254258132
6e-05  670.9014696003867
7.000000000000001e-05  681.0813421892141
8.000000000000001e-05  690.8776067434464
9.000000000000001e-05  700.321654165896
0.0001  709.4411154192186
0.00011  718.2604385078731
0.00012  726.8013594060765
0.00013  735.0832893538608
0.00014  743.1238504332662
0.00015  750.9384638863137
0.00016  758.5412943569387
0.00017  765.9451825111728
0.00018  773.1618059140503
0.00019  780.2018161997607
0.0002  787.0749565974304
0.00021  793.7901630878079
0.00022  800.3556518480433
0.00023  806.7789951530391
0.00024  813.0671875129758
0.00025  819.2267035151881
0.00026  825.2635485878023
0.0002700000000000001  831.1833036994044
0.0002800000000000001  836.9911648436564
0.0002900000000000001  842.6919780224583
0.0003000000000000001  848.2902703299966
0.0003100000000000002  853.7902776481105
0.0003200000000000002  859.1959693871884
0.0003300000000000002  864.5110706432703
0.0003400000000000002  869.7390820889156
0.0003500000000000003  874.883297870792
0.0003600000000000003  879.9468217493288
0.0003700000000000003  884.932581684
0.0003800000000000003  889.8433430408102
0.0003900000000000004  894.6817205755765
0.0004000000000000004  899.4501893270004
0.0004100000000000004  904.1510945366804
0.0004200000000000005  908.7866606988031
0.0004300000000000005  913.3589998297948
0.0004400000000000005  917.8701190374627
0.0004500000000000005  922.3219274598475
0.0004600000000000006  926.7162426359229
0.0004700000000000006  931.0547963632388
0.0004800000000000006  935.3392400914565
0.0004900000000000006  939.5711498953631
0.0005000000000000007  943.7520310662339
0.0005100000000000007  947.8833223562884
0.0005200000000000007  951.9663999073271
0.0005300000000000007  956.0025808914527
0.0005400000000000008  959.993126888908
0.0005500000000000008  963.9392470255931
0.0005600000000000008  967.8421008905573
0.0005700000000000008  971.7028012518027
0.0005800000000000009  975.5224165869839
0.0005900000000000009  979.3019734439855
0.0006000000000000009  983.0424586449906
0.0006100000000000009  986.7448213463827
0.000620000000000001  990.4099749656954
0.000630000000000001  994.0387989858259
0.000640000000000001  997.6321406458222
0.0006500000000000011  1001.190816526729
0.0006600000000000011  1004.715614040253
0.0006700000000000011  1008.207292827338
0.0006800000000000011  1011.666586073154
0.0006900000000000012  1015.094201744448
0.0007000000000000012  1018.490823754714
0.0007100000000000012  1021.857113062217
0.0007200000000000012  1025.19370870548
0.0007300000000000013  1028.501228780469
0.0007400000000000013  1031.780271363416
0.0007500000000000013  1035.031415382866
0.0007600000000000013  1038.255221444297
0.0007700000000000014  1041.452232610386
0.0007800000000000014  1044.622975139765
0.0007900000000000014  1047.767959186916
0.0008000000000000014  1050.887679465628
0.0008100000000000015  1053.982615878308
0.0008200000000000015  1057.053234113209
0.0008300000000000015  1060.09998621157
0.0008400000000000016  1063.123311106445
0.0008500000000000016  1066.123635134934
0.0008600000000000016  1069.101372525367
0.0008700000000000016  1072.056925860925
0.0008800000000000017  1074.990686521033
0.0008900000000000017  1077.903035101836
0.0009000000000000017  1080.794341816909
0.0009100000000000017  1083.66496687933
0.0009200000000000018  1086.515260866153
0.0009300000000000018  1089.34556506625
0.0009400000000000018  1092.156211812415
0.0009500000000000018  1094.947524798612
0.0009600000000000019  1097.719819383139
0.0009700000000000019  1100.473402878452
0.0009800000000000019  1103.208574828385
0.0009900000000000019  1105.925627273381
0.001000000000000002  1108.624845004381
0.001010000000000002  1111.306505805948
0.001020000000000002  1113.970880689161
0.001030000000000002  1116.618234114817
0.001040000000000002  1119.248824207391
0.001050000000000002  1121.862902960251
0.001060000000000002  1124.460716432525
0.001070000000000002  1127.042504938046
0.001080000000000002  1129.60850322674
0.001090000000000002  1132.158940658847
0.001100000000000002  1134.694041372275
0.001110000000000002  1137.214024443454
0.001120000000000002  1139.719104041957
0.001130000000000002  1142.209489579202
0.001140000000000002  1144.68538585149
0.001150000000000002  1147.146993177654
0.001160000000000002  1149.594507531541
0.001170000000000002  1152.028120669589
0.001180000000000002  1154.448020253683
0.001190000000000002  1156.854389969528
0.001200000000000002  1159.24740964072
0.001210000000000003  1161.627255338708
0.001220000000000003  1163.994099488818
0.001230000000000003  1166.348110972524
0.001240000000000003  1168.689455226103
0.001250000000000003  1171.018294335847
0.001260000000000003  1173.334787129967
0.001270000000000003  1175.639089267324
0.001280000000000003  1177.931353323133
0.001290000000000003  1180.211728871741
0.001300000000000003  1182.480302727748
0.001310000000000003  1184.737280009532
0.001320000000000003  1186.982801715742
0.001330000000000003  1189.21700614995
0.001340000000000003  1191.440028990483
0.001350000000000003  1193.652003357993
0.001360000000000003  1195.85305988082
0.001370000000000003  1198.043326758273
0.001380000000000003  1200.222929821881
0.001390000000000003  1202.391992594702
0.001400000000000003  1204.55063634877
0.001410000000000003  1206.698980160728
0.001420000000000003  1208.837140965753
0.001430000000000003  1210.965233609798
0.001440000000000003  1213.083370900235
0.001450000000000003  1215.191663654957
0.001460000000000003  1217.290220749986
0.001470000000000003  1219.379149165656
0.001480000000000003  1221.4585540314
0.001490000000000003  1223.528538669221
0.001500000000000003  1225.589204635869
0.001510000000000003  1227.640651763774
0.001520000000000003  1229.682978200802
0.001530000000000003  1231.716280448834
0.001540000000000003  1233.740653401256
0.001550000000000003  1235.756190379352
0.001560000000000003  1237.76298316768
0.001570000000000003  1239.76112204843
0.001580000000000003  1241.750695834824
0.001590000000000004  1243.731791903577
0.001600000000000004  1245.704496226456
0.001610000000000004  1247.668893400969
0.001620000000000004  1249.6250666802
0.001630000000000004  1251.573098001836
0.001640000000000004  1253.513068016408
0.001650000000000004  1255.445056114757
0.001660000000000004  1257.36914045477
0.001670000000000004  1259.285397987403
0.001680000000000004  1261.193904481997
0.001690000000000004  1263.09473455095
0.001700000000000004  1264.987961673716
0.001710000000000004  1266.873658220187
0.001720000000000004  1268.751895473473
0.001730000000000004  1270.622743652076
0.001740000000000004  1272.486271931516
0.001750000000000004  1274.342548465379
0.001760000000000004  1276.19164040585
0.001770000000000004  1278.033613923714
0.001780000000000004  1279.86853422786
0.001790000000000004  1281.696465584289
0.001800000000000004  1283.517471334661
0.001810000000000004  1285.331613914364
0.001820000000000004  1287.138954870157
0.001830000000000004  1288.939554877365
0.001840000000000004  1290.733473756663
0.001850000000000004  1292.520770490451
0.001860000000000004  1294.301503238828
0.001870000000000004  1296.075729355189
0.001880000000000004  1297.843505401447
0.001890000000000004  1299.604887162893
0.001900000000000004  1301.359929662696
0.001910000000000004  1303.108687176077
0.001920000000000004  1304.85121324414
0.001930000000000004  1306.58756068738
0.001940000000000004  1308.317781618884
0.001950000000000004  1310.041927457219
0.001960000000000004  1311.760048939031
0.001970000000000004  1313.472196131351
0.001980000000000004  1315.178418443625
0.001990000000000004  1316.878764639465
0.002000000000000004  1318.573282848143
0.002010000000000004  1320.262020575817
0.002020000000000004  1321.945024716519
0.002030000000000004  1323.622341562888
0.002040000000000004  1325.294016816668
0.002050000000000005  1326.960095598977
0.002060000000000005  1328.620622460353
0.002070000000000005  1330.275641390573
0.002080000000000005  1331.925195828262
0.002090000000000005  1333.569328670304
0.002100000000000005  1335.20808228103
0.002110000000000005  1336.841498501229
0.002120000000000005  1338.469618656956
0.002130000000000005  1340.092483568154
0.002140000000000005  1341.710133557096
0.002150000000000005  1343.322608456652
0.002160000000000005  1344.929947618371
0.002170000000000005  1346.53218992041
0.002180000000000005  1348.129373775286
0.002190000000000005  1349.721537137476
0.002200000000000005  1351.308717510854
0.002210000000000005  1352.890951955979
0.002220000000000005  1354.468277097232
0.002230000000000005  1356.040729129814
0.002240000000000005  1357.608343826592
0.002250000000000005  1359.171156544818
0.002260000000000005  1360.729202232702
0.002270000000000005  1362.282515435866
0.002280000000000005  1363.831130303656
0.002290000000000005  1365.375080595344
0.002300000000000005  1366.914399686189
0.002310000000000005  1368.449120573401
0.002320000000000005  1369.979275881967
0.002330000000000005  1371.504897870379
0.002340000000000005  1373.026018436242
0.002350000000000005  1374.542669121775
0.002360000000000005  1376.054881119212
0.002370000000000005  1377.56268527609
0.002380000000000005  1379.066112100445
0.002390000000000005  1380.565191765902
0.002400000000000005  1382.059954116669
0.002410000000000005  1383.550428672448
0.002420000000000005  1385.036644633237
0.002430000000000006  1386.518630884051
0.002440000000000006  1387.996415999557
0.002450000000000006  1389.470028248617
0.002460000000000006  1390.939495598753
0.002470000000000006  1392.404845720523
0.002480000000000006  1393.866105991819
0.002490000000000006  1395.323303502095
0.002500000000000006  1396.776465056502
0.002510000000000006  1398.225617179959
0.002520000000000006  1399.670786121151
0.002530000000000006  1401.111997856447
0.002540000000000006  1402.549278093757
0.002550000000000006  1403.982652276311
0.002560000000000006  1405.412145586377
0.002570000000000006  1406.837782948915
0.002580000000000006  1408.259589035154
0.002590000000000006  1409.677588266125
0.002600000000000006  1411.091804816114
0.002610000000000006  1412.502262616062
0.002620000000000006  1413.908985356913
0.002630000000000006  1415.311996492891
0.002640000000000006  1416.71131924473
0.002650000000000006  1418.106976602837
0.002660000000000006  1419.49899133042
0.002670000000000006  1420.887385966543
0.002680000000000006  1422.272182829138
0.002690000000000006  1423.653404017964
0.002700000000000006  1425.031071417523
0.002710000000000006  1426.405206699909
0.002720000000000006  1427.775831327632
0.002730000000000006  1429.142966556375
0.002740000000000006  1430.506633437717
0.002750000000000006  1431.86685282181
0.002760000000000006  1433.223645360002
0.002770000000000006  1434.577031507427
0.002780000000000006  1435.92703152555
0.002790000000000006  1437.273665484666
0.002800000000000006  1438.616953266365
0.002810000000000007  1439.956914565951
0.002820000000000007  1441.293568894821
0.002830000000000007  1442.626935582816
0.002840000000000007  1443.957033780518
0.002850000000000007  1445.283882461526
0.002860000000000007  1446.607500424682
0.002870000000000007  1447.927906296273
0.002880000000000007  1449.24511853219
0.002890000000000007  1450.559155420056
0.002900000000000007  1451.870035081319
0.002910000000000007  1453.177775473315
0.002920000000000007  1454.482394391298
0.002930000000000007  1455.783909470428
0.002940000000000007  1457.082338187749
0.002950000000000007  1458.377697864117
0.002960000000000007  1459.670005666109
0.002970000000000007  1460.959278607893
0.002980000000000007  1462.245533553082
0.002990000000000007  1463.52878721655
0.003000000000000007  1464.809056166222
0.003010000000000007  1466.086356824838
0.003020000000000007  1467.36070547169
0.003030000000000007  1468.632118244337
0.003040000000000007  1469.900611140282
0.003050000000000007  1471.166200018637
0.003060000000000007  1472.428900601756
0.003070000000000007  1473.688728476844
0.003080000000000007  1474.945699097549
0.003090000000000007  1476.199827785516
0.003100000000000007  1477.45112973193
0.003110000000000007  1478.699619999038
0.003120000000000007  1479.945313521636
0.003130000000000007  1481.188225108545
0.003140000000000007  1482.428369444063
0.003150000000000007  1483.665761089395
0.003160000000000007  1484.900414484056
0.003170000000000007  1486.13234394727
0.003180000000000007  1487.361563679329
0.003190000000000007  1488.588087762949
0.003200000000000008  1489.811930164598
0.003210000000000008  1491.033104735803
0.003220000000000008  1492.251625214444
0.003230000000000008  1493.467505226031
0.003240000000000008  1494.680758284954
0.003250000000000008  1495.891397795725
0.003260000000000008  1497.099437054194
0.003270000000000008  1498.304889248757
0.003280000000000008  1499.50776746154
0.003290000000000008  1500.708084669565
0.003300000000000008  1501.90585374591
0.003310000000000008  1503.101087460845
0.003320000000000008  1504.293798482948
0.003330000000000008  1505.483999380219
0.003340000000000008  1506.671702621161
0.003350000000000008  1507.85692057587
0.003360000000000008  1509.039665517082
0.003370000000000008  1510.219949621229
0.003380000000000008  1511.397784969469
0.003390000000000008  1512.5731835487
0.003400000000000008  1513.746157252574
0.003410000000000008  1514.916717882479
0.003420000000000008  1516.084877148523
0.003430000000000008  1517.250646670493
0.003440000000000008  1518.414037978814
0.003450000000000008  1519.575062515482
0.003460000000000008  1520.733731634994
0.003470000000000008  1521.890056605261
0.003480000000000008  1523.044048608508
0.003490000000000008  1524.19571874217
0.003500000000000008  1525.345078019767
0.003510000000000008  1526.492137371769
0.003520000000000008  1527.636907646455
0.003530000000000008  1528.779399610759
0.003540000000000008  1529.919623951099
0.003550000000000008  1531.057591274202
0.003560000000000008  1532.193312107919
0.003570000000000008  1533.32679690202
0.003580000000000009  1534.458056028992
0.003590000000000009  1535.587099784817
0.003600000000000009  1536.713938389744
0.003610000000000009  1537.838581989049
0.003620000000000009  1538.961040653787
0.003630000000000009  1540.081324381538
0.003640000000000009  1541.199443097134
0.003650000000000009  1542.315406653384
0.003660000000000009  1543.429224831792
0.003670000000000009  1544.540907343259
0.003680000000000009  1545.65046382878
0.003690000000000009  1546.757903860133
0.003700000000000009  1547.863236940555
0.003710000000000009  1548.966472505419
0.003720000000000009  1550.067619922889
0.003730000000000009  1551.166688494582
0.003740000000000009  1552.263687456208
0.003750000000000009  1553.358625978212
0.003760000000000009  1554.451513166402
0.003770000000000009  1555.542358062576
0.003780000000000009  1556.631169645131
0.003790000000000009  1557.717956829675
0.003800000000000009  1558.802728469628
0.003810000000000009  1559.885493356812
0.003820000000000009  1560.966260222037
0.003830000000000009  1562.045037735684
0.003840000000000009  1563.121834508274
0.003850000000000009  1564.196659091029
0.003860000000000009  1565.269519976439
0.003870000000000009  1566.340425598807
0.003880000000000009  1567.409384334795
0.003890000000000009  1568.476404503965
0.003900000000000009  1569.54149436931
0.003910000000000009  1570.60466213778
0.003920000000000009  1571.665915960799
0.003930000000000008  1572.725263934785
0.003940000000000008  1573.782714101651
0.003950000000000007  1574.838274449309
0.003960000000000007  1575.89195291217
0.003970000000000007  1576.943757371627
0.003980000000000006  1577.993695656541
0.003990000000000006  1579.041775543729
0.004000000000000005  1580.088004758421
0.004010000000000005  1581.132390974744
0.004020000000000004  1582.174941816172
0.004030000000000004  1583.21566485599
0.004040000000000004  1584.254567617743
0.004050000000000003  1585.291657575687
0.004060000000000003  1586.326942155224
0.004070000000000002  1587.360428733344
0.004080000000000002  1588.392124639053
0.004090000000000002  1589.422037153805
0.004100000000000001  1590.450173511918
0.004110000000000001  1591.476540900994
0.00412  1592.501146462333
0.00413  1593.523997291339
0.00414  1594.545100437924
0.004149999999999999  1595.564462906907
0.004159999999999999  1596.582091658409
0.004169999999999998  1597.597993608241
0.004179999999999998  1598.612175628292
0.004189999999999998  1599.624644546912
0.004199999999999997  1600.635407149285
0.004209999999999997  1601.644470177805
0.004219999999999996  1602.651840332446
0.004229999999999996  1603.657524271125
0.004239999999999996  1604.661528610063
0.004249999999999995  1605.663859924143
0.004259999999999995  1606.664524747266
0.004269999999999994  1607.663529572696
0.004279999999999994  1608.660880853408
0.004289999999999993  1609.656585002429
0.004299999999999993  1610.650648393176
0.004309999999999993  1611.643077359796
0.004319999999999992  1612.633878197488
0.004329999999999992  1613.623057162838
0.004339999999999991  1614.610620474137
0.004349999999999991  1615.59657431171
0.004359999999999991  1616.580924818224
0.00436999999999999  1617.563678099006
0.00437999999999999  1618.544840222358
0.004389999999999989  1619.524417219855
0.004399999999999989  1620.502415086655
0.004409999999999989  1621.4788397818
0.004419999999999988  1622.453697228513
0.004429999999999988  1623.426993314488
0.004439999999999987  1624.398733892191
0.004449999999999987  1625.36892477914
0.004459999999999987  1626.337571758193
0.004469999999999986  1627.304680577834
0.004479999999999986  1628.270256952444
0.004489999999999985  1629.234306562591
0.004499999999999985  1630.196835055291
0.004509999999999985  1631.157848044287
0.004519999999999984  1632.117351110312
0.004529999999999984  1633.075349801361
0.004539999999999983  1634.031849632948
0.004549999999999983  1634.986856088366
0.004559999999999982  1635.940374618953
0.004569999999999982  1636.892410644336
0.004579999999999982  1637.84296955269
0.004589999999999981  1638.792056700986
0.004599999999999981  1639.739677415235
0.00460999999999998  1640.685836990743
0.00461999999999998  1641.630540692342
0.00462999999999998  1642.573793754631
0.004639999999999979  1643.515601382225
0.004649999999999979  1644.455968749978
0.004659999999999978  1645.394901003218
0.004669999999999978  1646.332403257983
0.004679999999999978  1647.268480601244
0.004689999999999977  1648.203138091133
0.004699999999999977  1649.136380757167
0.004709999999999976  1650.068213600467
0.004719999999999976  1650.998641593985
0.004729999999999976  1651.927669682709
0.004739999999999975  1652.855302783889
0.004749999999999975  1653.781545787243
0.004759999999999974  1654.706403555175
0.004769999999999974  1655.629880922976
0.004779999999999974  1656.551982699036
0.004789999999999973  1657.472713665048
0.004799999999999973  1658.392078576207
0.004809999999999972  1659.31008216142
0.004819999999999972  1660.226729123496
0.004829999999999971  1661.142024139346
0.004839999999999971  1662.055971860179
0.004849999999999971  1662.968576911697
0.00485999999999997  1663.879843894282
0.00486999999999997  1664.789777383188
0.004879999999999969  1665.698381928733
0.004889999999999969  1666.605662056476
0.004899999999999969  1667.51162226741
0.004909999999999968  1668.416267038139
0.004919999999999968  1669.319600821063
0.004929999999999967  1670.221628044554
0.004939999999999967  1671.122353113135
0.004949999999999967  1672.021780407654
0.004959999999999966  1672.919914285463
0.004969999999999966  1673.816759080583
0.004979999999999965  1674.712319103883
0.004989999999999965  1675.606598643244
0.004999999999999965  1676.499601963728
0.01  1968.310231663843
0.015  2185.673777065806
0.02  2359.255569120602
0.025  2503.703900455843
0.03  2627.213584832649
0.035  2734.853712230156
0.04  2829.992506264453
0.045  2915.023289638104
0.05  2991.662051549943
0.05499999999999999  3061.195461748022
0.05999999999999999  3124.627518135255
0.06499999999999999  3182.761930964734
0.06999999999999999  3236.249947696105
0.075  3285.62861439402
0.08  3331.346580161715
0.08500000000000001  3373.782897575787
0.09000000000000001  3413.261003378086
0.09500000000000001  3450.059303652672
0.1  3484.4193167855
0.105  3516.552027242959
0.11  3546.642906842998
0.115  3574.855928835111
0.12  3601.336810426943
0.125  3626.215657035526
0.13  3649.609137448289
0.135  3671.622824785008
0.14  3692.350975319343
0.145  3711.879660898705
0.15  3730.287161510631
0.1550000000000001  3747.644878967776
0.1600000000000001  3764.018118813585
0.1650000000000001  3779.466762874854
0.1700000000000001  3794.045850520039
0.1750000000000001  3807.806083266415
0.1800000000000001  3820.794264687013
0.1850000000000001  3833.053685430899
0.1900000000000001  3844.624461461702
0.1950000000000001  3855.543832244509
0.2000000000000001  3865.846424498543
0.2050000000000001  3875.56448622686
0.2100000000000001  3884.728094992753
0.2150000000000001  3893.365343802126
0.2200000000000001  3901.502507446511
0.2250000000000001  3909.164191742099
0.2300000000000001  3916.373467750287
0.2350000000000001  3923.151992772013
0.2400000000000001  3929.520119661539
0.2450000000000001  3935.496995796805
0.2500000000000001  3941.100652866985
0.2550000000000001  3946.348088487389
0.2600000000000001  3951.255340523711
0.2650000000000001  3955.837554897566
0.2700000000000001  3960.109047550959
0.2750000000000001  3964.083361165928
0.2800000000000001  3967.773317165242
0.2850000000000001  3971.1910634592
0.2900000000000001  3974.348118350574
0.2950000000000002  3977.255410963606
0.3000000000000002  3979.923318522745
0.3050000000000002  3982.361700771513
0.3100000000000002  3984.57993179097
0.3150000000000002  3986.586929450052
0.3200000000000002  3988.391182696048
0.3250000000000002  3990.000776872399
0.3300000000000002  3991.423417232149
0.3350000000000002  3992.666450798883
0.3400000000000002  3993.736886712186
0.3450000000000002  3994.641415181517
0.3500000000000002  3995.386425160742
0.3550000000000002  3995.978020845051
0.3600000000000002  3996.422037082732
0.3650000000000002  3996.724053785799
0.3700000000000002  3996.889409416038
0.3750000000000002  3996.923213616249
0.3800000000000002  3996.83035905038
0.3850000000000002  3996.554597313183
0.3900000000000002  3996.106871480629
0.3950000000000002  3995.494236791171
0.4000000000000002  3994.723430176601
0.4050000000000002  3993.800890741806
0.4100000000000003  3992.732775199277
0.4150000000000003  3991.524972364599
0.4200000000000003  3990.183116779389
0.4250000000000003  3988.712601522673
0.4300000000000003  3987.118590266835
0.4350000000000003  3985.406028629815
0.4400000000000003  3983.579654871186
0.4450000000000003  3981.644009976006
0.4500000000000003  3979.603447167017
0.4550000000000003  3977.46214088268
0.4600000000000003  3975.224095255679
0.4650000000000003  3972.893152124031
0.4700000000000003  3970.472998604494
0.4750000000000003  3967.967174255886
0.4800000000000003  3965.379077857882
0.4850000000000003  3962.711973829069
0.4900000000000003  3959.96899830634
0.4950000000000003  3957.153164906196
0.5000000000000003  3954.267370187062
0.5050000000000003  3951.314398830458
0.5100000000000003  3948.296928557627
0.5150000000000003  3945.2175347971
0.5200000000000004  3942.078695117688
0.5250000000000004  3938.882793440382
0.5300000000000004  3935.632124041808
0.5350000000000004  3932.328895361017
0.5400000000000004  3928.97523362069
0.5450000000000004  3925.573290847089
0.5500000000000004  3922.123248953756
0.5550000000000004  3918.626973308772
0.5600000000000004  3915.086265581061
0.5650000000000004  3911.502866015434
0.5700000000000004  3907.878455701223
0.5750000000000004  3904.214658749349
0.5800000000000004  3900.513044381778
0.5850000000000004  3896.775128937116
0.5900000000000004  3893.002377795972
0.5950000000000004  3889.196207229554
0.6000000000000004  3885.357986174754
0.6050000000000004  3881.489037938903
0.6100000000000004  3877.590641837185
0.6150000000000004  3873.664034765602
0.6200000000000004  3869.71041271221
0.6250000000000004  3865.730932209267
0.6300000000000004  3861.726711728781
0.6350000000000005  3857.698833023865
0.6400000000000005  3853.64834241818
0.6450000000000005  3849.57625204563
0.6500000000000005  3845.483541042424
0.6550000000000005  3841.37115669348
0.6600000000000005  3837.240015535066
0.6650000000000005  3833.091004415523
0.6700000000000005  3828.924981515779
0.6750000000000005  3824.742777331338
0.6800000000000005  3820.545195617318
0.6850000000000005  3816.333014298054
0.6900000000000005  3812.106986342727
0.6950000000000005  3807.867840608406
0.7000000000000005  3803.616282651803
0.7050000000000005  3799.352995511053
0.7100000000000005  3795.07864045868
0.7150000000000005  3790.793857726965
0.7200000000000005  3786.499267206774
0.7250000000000005  3782.19546912093
0.7300000000000005  3777.883044673153
0.7350000000000005  3773.56255667352
0.7400000000000005  3769.234550141392
0.7450000000000006  3764.899552886687
0.7500000000000006  3760.558076070337
0.7550000000000006  3756.2106147448
0.7600000000000006  3751.857648375325
0.7650000000000006  3747.499641342794
0.7700000000000006  3743.137043428805
0.7750000000000006  3738.770398870427
0.7800000000000006  3734.400019791526
0.7850000000000006  3730.026314912827
0.7900000000000006  3725.649680133507
0.7950000000000006  3721.270498937219
0.8000000000000006  3716.889142784106
0.8050000000000006  3712.505971489311
0.8100000000000006  3708.12133358852
0.8150000000000006  3703.735566690986
0.8200000000000006  3699.348997820546
0.8250000000000006  3694.96194374505
0.8300000000000006  3690.57471129465
0.8350000000000006  3686.187597669347
0.8400000000000006  3681.800890736209
0.8450000000000006  3677.414869316629
0.8500000000000006  3673.029803463995
0.8550000000000006  3668.645954732122
0.8600000000000007  3664.263576434776
0.8650000000000007  3659.88291389663
0.8700000000000007  3655.504204695937
0.8750000000000007  3651.127678899245
0.8800000000000007  3646.753559288429
0.8850000000000007  3642.38206158031
0.8900000000000007  3638.013394639133
0.8950000000000007  3633.647760682159
0.9000000000000007  3629.28535547861
0.9050000000000007  3624.926368542208
0.9100000000000007  3620.570983317532
0.9150000000000007  3616.219377360399
0.9200000000000007  3611.871722512512
0.9250000000000007  3607.528185070527
0.9300000000000007  3603.18892594976
0.9350000000000007  3598.854100842745
0.9400000000000007  3594.523860372763
0.9450000000000007  3590.198350242555
0.9500000000000007  3585.877711378388
0.9550000000000007  3581.562080069605
0.9600000000000007  3577.251588103831
0.9650000000000007  3572.946362897995
0.9700000000000008  3568.646527625273
0.9750000000000008  3564.352201338133
0.9800000000000008  3560.063499087571
0.9850000000000008  3555.780532038717
0.9900000000000008  3551.503407582864
0.9950000000000008  3547.232229446117
1.000000000000001  3542.967097794707
