$ResFormat /* GetDP 3.0.5-git-997fd378, ascii */
1.1 0
$EndResFormat
$Solution  /* DofData #0 */
0 0 0 0
0 0
0 0
0 0
0 0
0 0
0 0
0 0
0 0
0 0
0 0
0 0
0 0
0 0
0 0
0 0
0 0
0 0
0 0
0 0
0 0
0 0
0 0
0 0
0 0
0 0
0 0
0 0
0 0
0 0
0 0
0 0
0 0
0 0
0 0
0 0
0 0
0 0
0 0
0 0
0 0
0 0
0 0
0 0
0 0
0 0
0 0
0 0
0 0
0 0
0 0
0 0
0 0
0 0
0 0
0 0
0 0
0 0
0 0
0 0
0 0
0 0
0 0
0 0
0 0
0 0
0 0
0 0
0 0
0 0
0 0
0 0
0 0
0 0
0 0
0 0
0 0
0 0
0 0
0 0
0 0
0 0
0 0
0 0
0 0
0 0
0 0
0 0
0 0
0 0
0 0
0 0
0 0
0 0
0 0
0 0
0 0
0 0
0 0
0 0
0 0
0 0
0 0
0 0
0 0
0 0
0 0
0 0
0 0
0 0
0 0
0 0
0 0
0 0
0 0
0 0
0 0
0 0
0 0
0 0
0 0
0 0
0 0
0 0
0 0
0 0
0 0
0 0
0 0
0 0
0 0
0 0
0 0
0 0
0 0
0 0
0 0
0 0
0 0
0 0
0 0
0 0
0 0
0 0
0 0
0 0
0 0
0 0
0 0
0 0
0 0
0 0
0 0
0 0
0 0
0 0
0 0
0 0
0 0
0 0
0 0
0 0
0 0
0 0
0 0
0 0
0 0
0 0
0 0
0 0
0 0
0 0
0 0
0 0
0 0
0 0
0 0
0 0
0 0
0 0
0 0
0 0
0 0
0 0
0 0
0 0
0 0
0 0
0 0
0 0
0 0
0 0
0 0
0 0
0 0
0 0
0 0
0 0
0 0
0 0
0 0
0 0
0 0
0 0
0 0
0 0
0 0
0 0
0 0
0 0
0 0
0 0
0 0
0 0
0 0
0 0
0 0
0 0
0 0
0 0
0 0
0 0
0 0
0 0
0 0
0 0
0 0
0 0
0 0
0 0
0 0
0 0
0 0
0 0
0 0
0 0
0 0
0 0
0 0
0 0
0 0
0 0
0 0
0 0
0 0
0 0
0 0
0 0
0 0
0 0
0 0
0 0
0 0
0 0
0 0
0 0
0 0
0 0
0 0
0 0
0 0
0 0
0 0
0 0
0 0
0 0
0 0
0 0
0 0
0 0
0 0
0 0
0 0
0 0
0 0
0 0
0 0
0 0
0 0
0 0
0 0
0 0
0 0
0 0
0 0
0 0
0 0
0 0
0 0
0 0
0 0
0 0
0 0
0 0
0 0
0 0
0 0
0 0
0 0
0 0
0 0
0 0
0 0
0 0
0 0
0 0
0 0
0 0
0 0
0 0
0 0
0 0
0 0
0 0
0 0
0 0
0 0
0 0
0 0
0 0
0 0
0 0
0 0
0 0
0 0
0 0
0 0
0 0
0 0
0 0
0 0
0 0
0 0
0 0
0 0
0 0
0 0
0 0
0 0
0 0
0 0
0 0
0 0
0 0
0 0
0 0
0 0
0 0
0 0
0 0
0 0
0 0
0 0
0 0
0 0
0 0
0 0
0 0
0 0
0 0
0 0
0 0
0 0
0 0
0 0
0 0
0 0
0 0
0 0
0 0
0 0
0 0
0 0
0 0
0 0
0 0
0 0
0 0
0 0
0 0
0 0
0 0
0 0
0 0
0 0
0 0
0 0
0 0
0 0
0 0
0 0
0 0
0 0
0 0
0 0
0 0
0 0
0 0
0 0
0 0
0 0
0 0
0 0
0 0
0 0
0 0
0 0
0 0
0 0
0 0
0 0
0 0
0 0
0 0
0 0
0 0
0 0
0 0
0 0
0 0
0 0
0 0
0 0
0 0
0 0
0 0
0 0
0 0
0 0
0 0
0 0
0 0
0 0
0 0
0 0
0 0
0 0
0 0
0 0
0 0
0 0
0 0
0 0
0 0
0 0
0 0
0 0
0 0
0 0
0 0
0 0
0 0
0 0
0 0
0 0
0 0
0 0
0 0
0 0
0 0
0 0
0 0
0 0
0 0
0 0
0 0
0 0
0 0
0 0
0 0
0 0
0 0
0 0
0 0
0 0
0 0
0 0
0 0
0 0
0 0
0 0
0 0
0 0
0 0
0 0
0 0
0 0
0 0
0 0
0 0
0 0
0 0
0 0
0 0
0 0
0 0
0 0
0 0
0 0
0 0
0 0
0 0
0 0
0 0
0 0
0 0
0 0
0 0
0 0
0 0
0 0
0 0
0 0
0 0
0 0
0 0
0 0
0 0
0 0
0 0
0 0
0 0
0 0
0 0
0 0
0 0
0 0
0 0
0 0
0 0
0 0
0 0
0 0
0 0
0 0
0 0
0 0
0 0
0 0
0 0
0 0
0 0
0 0
0 0
0 0
0 0
0 0
0 0
0 0
0 0
0 0
0 0
0 0
$EndSolution
$Solution  /* DofData #0 */
0 0.2 0 1
-0.003993011981607156 0
0.004005463031011063 0
0.003997535068446311 0
-0.004003213392028438 0
-0.002688919098768635 0
-0.001369834442340227 0
-2.732051683687727e-06 0
0.001371274163558039 0
0.002677567664256741 0
0.003445376925397434 0
0.002684644809764684 0
0.001368250197015477 0
1.677320973947703e-06 0
-0.001372571875828606 0
-0.002680156583615093 0
-0.003450793458283761 0
0.006615417399032107 0
-0.006615563676282027 0
-0.06711811088316504 0
0.067118135916108 0
0.07734461986032441 0
-0.07734466296648719 0
0.1128085339845052 0
-0.1128084617330243 0
0.1206182664351188 0
-0.1206181827069142 0
-0.03826412130669495 0
0.03826407865354614 0
0.01702916490261133 0
-0.01702945336933303 0
0.02882084572500886 0
-0.02882108323041936 0
0.05389563265648536 0
-0.05389569273575199 0
0.1239052781438629 0
-0.1239052689716637 0
0.07345730124448503 0
-0.07345726762792169 0
-0.06538183642085038 0
0.06538211576684488 0
0.009679461069091374 0
-0.009679513487882055 0
0.1131960844976894 0
-0.1131960449430171 0
0.1512805050538 0
-0.151280456723242 0
0.06275206212320988 0
-0.06275191171851985 0
-0.08062003495969129 0
0.08062003298535009 0
0.09487627705076576 0
-0.09487630457877856 0
0.1517753447678628 0
-0.1517753188656055 0
-0.03379035327991094 0
0.03379026874704364 0
0.004126768505791099 0
-0.004127400935133548 0
0.1290224132276286 0
-0.1290224204399439 0
0.03898156000389212 0
-0.03898168761106976 0
-0.1000672867182321 0
0.10006742779043 0
-0.0344568467963829 0
0.03445701796368675 0
-0.01783758410552813 0
0.01783755013868417 0
0.09053467807299538 0
-0.09053457658090698 0
0.1448375068446973 0
-0.1448374739420437 0
0.03960302078924043 0
-0.03960300086827152 0
0.002846382362509837 0
-0.002846693778932845 0
-0.01021137919644187 0
0.01021130672457408 0
0.04462493201156849 0
-0.04462496452853322 0
0.1521255622111868 0
-0.1521255207544235 0
0.1080784886274198 0
-0.1080784514783639 0
-0.04091842809163167 0
0.04091839409496182 0
0.09097131721312682 0
-0.09097131776018524 0
-0.06238007959222362 0
0.06238006612194776 0
0.02678271692587041 0
-0.02678280796220493 0
0.07951007088531384 0
-0.07951009516571002 0
-0.05617144970318024 0
0.05617142540283417 0
0.1090764980189803 0
-0.1090764873701993 0
-0.01319318053438349 0
0.01319255909739993 0
0.1700868813766663 0
-0.1700868583755399 0
0.04904065500765642 0
-0.04904064206224185 0
0.1589703309189477 0
-0.1589703216994689 0
0.06505284612026407 0
-0.06505291358039617 0
0.05598722250065648 0
-0.05598729929639772 0
0.01730886673561898 0
-0.01730937645423158 0
0.1477813466325684 0
-0.1477813456836347 0
-0.04554864043743638 0
0.04554935824103963 0
0.08338591289204011 0
-0.08338584244990137 0
0.08872833038970394 0
-0.08872830795461549 0
-0.01117554359907715 0
0.01117537498982526 0
-0.06246257042374239 0
0.06246268505532846 0
0.137600381009094 0
-0.1376003266321395 0
0.1211628107825656 0
-0.1211628218208888 0
0.09437942543254238 0
-0.0943792663694569 0
0.1003429395689151 0
-0.1003429644521151 0
0.003452119609773371 0
-0.003452143005349236 0
-0.04069569484236512 0
0.04069567708334766 0
0.02201094859430871 0
-0.02201116580048807 0
-0.1275977135899633 0
0.1275977985009588 0
0.1388445850013798 0
-0.1388445635171781 0
0.0750148497025747 0
-0.07501457906028584 0
0.1138334380185189 0
-0.1138334432151762 0
0.1158131210506292 0
-0.1158130538738193 0
0.1261011520293899 0
-0.1261011120593472 0
-0.1723633976759361 0
0.172363421330122 0
-0.02513276251584824 0
0.02513267916697497 0
0.03748902383610191 0
-0.03748894497100062 0
0.09305012668246013 0
-0.09304999967976629 0
0.05289265649753906 0
-0.05289275873435276 0
0.03000019156118684 0
-0.03000021598957111 0
0.07098227011327858 0
-0.07098228581440615 0
-0.08384708518477746 0
0.08384708137650067 0
0.1021035751956327 0
-0.1021035896309781 0
-0.1241481100104573 0
0.1241481891647066 0
-0.001774861566189031 0
0.001773892924972126 0
0.1726550884712477 0
-0.1726550790811801 0
0.06298980787700589 0
-0.06298982998871294 0
0.0736691538895984 0
-0.07366920038953108 0
0.01354677599997305 0
-0.01354715311271909 0
0.1403522466932195 0
-0.1403522294221995 0
-0.05779472138553961 0
0.05779469894800243 0
-0.02692947087177342 0
0.0269293315216516 0
0.03868190938204844 0
-0.03868196763672926 0
-0.1478244735719837 0
0.1478244713534149 0
-0.04887724124958305 0
0.04887721439909113 0
0.134351738121807 0
-0.1343517279335851 0
0.1634455368331491 0
-0.163445515539052 0
-0.01673913921515354 0
0.01673898661276345 0
0.008364290961793329 0
-0.008364389368967684 0
-0.09502710092865803 0
0.09502715306611854 0
0.007242302133305899 0
-0.007243176621515976 0
-0.004637334322281073 0
0.004636801875765978 0
0.1765747547327932 0
-0.1765747404635251 0
0.1057192146168525 0
-0.1057192117453054 0
-0.1771522201997198 0
0.1771522394893941 0
0.1374376347836015 0
-0.1374375778047234 0
0.02371102715683397 0
-0.0237111609794712 0
-0.009650774416884993 0
0.009650650597798516 0
-0.02233580961397607 0
0.02233575995775486 0
-0.006875269294339722 0
0.006875216399220575 0
0.04192312045189599 0
-0.04192321182895184 0
0.03346195247068236 0
-0.03346212892899495 0
-0.05174094981481289 0
0.05174116949118508 0
0.0329930518575697 0
-0.03299273191977473 0
-0.02972223278083335 0
0.02972212291913984 0
0.08341031688230409 0
-0.08341035888109208 0
0.07174244864863726 0
-0.07174244304589941 0
-0.1655047665121718 0
0.16550476990808 0
0.09547581949541005 0
-0.09547583891692603 0
-0.0144193409239713 0
0.01441932411762203 0
0.1072992912701779 0
-0.1072992754779584 0
0.09104524760329054 0
-0.09104522527332043 0
-0.01189676088176323 0
0.01189652459519771 0
0.03026113687789418 0
-0.03026008453040068 0
0.05700860471090893 0
-0.0570086440885909 0
0.03969856020034615 0
-0.03969867884368866 0
0.0532127377625384 0
-0.05321266167306589 0
-0.1444263043102015 0
0.1444263618064237 0
-0.04027875467570754 0
0.04027869980786157 0
0.01967101537362796 0
-0.01967083368883081 0
0.1103997407793455 0
-0.1103996193590155 0
0.07529122392681216 0
-0.07529106151349514 0
-0.04628910001950817 0
0.04628907493851779 0
-0.1547738242128403 0
0.1547738377666062 0
0.1378138393146122 0
-0.1378138443052158 0
0.07662572352943268 0
-0.07662564610828622 0
0.01135328641179736 0
-0.0113534881197641 0
0.001523453450604547 0
-0.001523897614491965 0
0.1012271392487951 0
-0.1012270789426214 0
0.1278783198949665 0
-0.1278782795341387 0
0.1031432536376597 0
-0.1031431435639169 0
0.1309208851191463 0
-0.1309208843372185 0
0.02771302728352991 0
-0.02771346239435023 0
0.06522768976555392 0
-0.06522762324806099 0
-0.05867268752436952 0
0.0586726785609427 0
0.1448758007597767 0
-0.144875793879627 0
0.05412277461338792 0
-0.05412279524854358 0
-0.1205626066640379 0
0.1205625986747289 0
0.1569516823215854 0
-0.1569516524723801 0
-0.1731407556141249 0
0.1731407748540723 0
0.04908143624188908 0
-0.04908145028058365 0
0.1038254197273685 0
-0.103825396151423 0
0.09426855577421668 0
-0.09426854765486903 0
0.09358395011854015 0
-0.09358396002713232 0
0.02592798180621846 0
-0.02592802783532491 0
0.08745691024242744 0
-0.08745686437297311 0
-0.05622580197902276 0
0.05622583420103119 0
-0.04863145887473656 0
0.04863194694841833 0
0.06819935336767675 0
-0.0681993050621634 0
0.1065246770638057 0
-0.1065246974957786 0
0.01541298554005867 0
-0.01541346158460546 0
-0.07536855504218752 0
0.07536855007671248 0
-0.03231899603118459 0
0.03231898512090704 0
0.1242795644705951 0
-0.1242795394169897 0
-0.02192793824029229 0
0.02192770645353457 0
0.1756842361498748 0
-0.1756842316094834 0
0.1559777495423801 0
-0.1559777100587818 0
-0.006453149904660004 0
0.006451797614579369 0
-0.02046223457463413 0
0.0204621139616295 0
0.0701749565602435 0
-0.07017500174572855 0
0.01883578496583376 0
-0.01883585495759254 0
0.1218107781445213 0
-0.1218107721604525 0
-0.1324980709498592 0
0.1324981429767973 0
0.1867145585489214 0
-0.1867145492724811 0
-0.07221814602015347 0
0.0722181363616676 0
-0.03235418581927568 0
0.03235415371607219 0
0.07125546856258999 0
-0.07125552812486326 0
0.02671965596448248 0
-0.0267199153582416 0
0.05083246785369139 0
-0.05083256036188147 0
0.06846771640127614 0
-0.06846775703219825 0
0.01650089473468457 0
-0.01650090897049042 0
0.08573130354870895 0
-0.08573133305058885 0
0.126270336703466 0
-0.1262702818862639 0
-0.04494459772185921 0
0.04494466324337996 0
-0.1625863996416037 0
0.1625864001808119 0
0.009579208471888654 0
-0.009580353597133152 0
0.08046678404694796 0
-0.0804667481395188 0
0.08067717248826745 0
-0.0806769767674831 0
0.07935829317003919 0
-0.0793583040120534 0
0.06079625011817194 0
-0.06079590666137669 0
-0.02745550183759005 0
0.0274568639609734 0
-0.07009915114923007 0
0.07009914253128534 0
0.1128061549427347 0
-0.1128061682444058 0
0.1360117978690007 0
-0.1360117297793002 0
0.06209043143194987 0
-0.06209003797938058 0
-0.1551520081992013 0
0.1551520261014145 0
-0.1310556377422833 0
0.1310556923779759 0
0.003083781183068607 0
-0.003083855211641521 0
0.04223336848902589 0
-0.04223351112437337 0
0.0570527388501218 0
-0.05705281035413501 0
-0.04692967265839547 0
0.04692963453981489 0
0.05851419421922856 0
-0.05851420627027602 0
0.1357495711148545 0
-0.1357495739809862 0
0.08164986765890667 0
-0.08164989162446785 0
0.09667684820517186 0
-0.09667675963070016 0
-0.07896179746583673 0
0.07896202759353349 0
-0.09122558390501014 0
0.09122576852428187 0
-0.0009559356350832706 0
0.0009557168905272723 0
0.01405600798861875 0
-0.01405604118401068 0
-0.001281987923826641 0
0.001280955219034572 0
-0.1260696566592298 0
0.1260696809437847 0
-0.02426642152621664 0
0.02426635545277132 0
-0.01483292679468191 0
0.01483251575564048 0
-9.159629230357871e-07 0
9.055354775380986e-07 0
0.1090512564266625 0
-0.1090512728766682 0
0.07990645559757464 0
-0.07990634066469167 0
0.0855375616055218 0
-0.08553760000495736 0
-0.1092446637102141 0
0.1092447626866133 0
0.1472823894569457 0
-0.1472823808839927 0
0.04860576332775228 0
-0.04860576116265361 0
0.140619287657312 0
-0.140619249499908 0
0.02629637154470659 0
-0.02629654011400766 0
-0.03783125539623108 0
0.03783118415833484 0
-0.004307209443837597 0
0.004307174369669469 0
0.02130469444528577 0
-0.02130483967276143 0
-0.1637068558648076 0
0.1637068690001607 0
-0.1340544719418205 0
0.1340544673216075 0
-0.0076696146625554 0
0.00766924566913631 0
0.1173741928749245 0
-0.1173740907290969 0
0.02214201375968219 0
-0.02214227279167697 0
0.1662497089762448 0
-0.1662496781498705 0
0.1842329219390487 0
-0.1842329094592396 0
0.04752336159245843 0
-0.04752340158234547 0
0.09782786657677091 0
-0.09782786704697072 0
0.1062538074510844 0
-0.1062538069347824 0
0.06466262169441522 0
-0.06466260417662753 0
0.06553794547708357 0
-0.06553801077523 0
0.1015812744934397 0
-0.1015812012740693 0
0.08146489655323286 0
-0.08146489043694323 0
0.08942344837120939 0
-0.08942344890254393 0
-0.04797555572414775 0
0.0479755482504241 0
0.01374146337458769 0
-0.01374174161398463 0
0.04030816780106291 0
-0.04030824302877915 0
0.1842516597048314 0
-0.1842516491028073 0
0.0337750908126357 0
-0.03377510074866766 0
0.02848458205213244 0
-0.02848468802089891 0
0.01634406539750946 0
-0.0163441825668044 0
0.1190924652173537 0
-0.1190924780041441 0
-0.1866390978854079 0
0.1866391082997603 0
-0.002922840675134192 0
0.002922676464161258 0
0.08851311675232851 0
-0.08851296640275318 0
0.07884379086036165 0
-0.07884377859676629 0
-0.002724175765767511 0
0.002724072863883476 0
0.06374913656606007 0
-0.06374894359520908 0
-0.122029645325331 0
0.1220297166879005 0
-0.001734199976352968 0
0.001732983272902332 0
-0.02804515243721405 0
0.02804513015064726 0
0.1667748045617711 0
-0.1667747876664035 0
-0.1597880671362982 0
0.159788104171829 0
0.1148577686315225 0
-0.114857715491696 0
0.06669693576838694 0
-0.06669694438837773 0
0.1177570913954345 0
-0.1177570743381282 0
0.1457711788954718 0
-0.1457711372875806 0
-0.1841193648327006 0
0.184119371535913 0
-0.02855213332274411 0
0.02855199423875385 0
0.1244732947371335 0
-0.1244733004422724 0
-0.005301266328706387 0
0.005300503125427602 0
0.002235606049246191 0
-0.002236455774572689 0
0.139705615902831 0
-0.139705588383933 0
-0.01439452558561873 0
0.01439443595358493 0
-0.03497088621739619 0
0.03497082922783879 0
0.0006880090664410146 0
-0.002053563057873471 0
0.002094439221002492 0
-0.0006826704741525314 0
-0.002909039892200062 0
0.002946293105815927 0
0.003046618542079894 0
-0.003011803405605449 0
$EndSolution
$Solution  /* DofData #0 */
0 0.4 0 2
-0.01162200593557577 0
0.01165743960510975 0
0.01163474448800898 0
-0.0116510856977652 0
-0.007828750352986883 0
-0.003987362491154733 0
-7.76837022502313e-06 0
0.003991624470589152 0
0.007796535296898726 0
0.01005175748576494 0
0.007816641594976997 0
0.00398293486603478 0
4.857172684797873e-06 0
-0.0039952322348804 0
-0.007803817488956623 0
-0.01006709435273292 0
0.01328726755372824 0
-0.0132876765887162 0
-0.1347273314103081 0
0.1347274011789689 0
0.1552737293748508 0
-0.1552738490143701 0
0.2264291178961034 0
-0.2264289166976239 0
0.2417509355019865 0
-0.2417507013626544 0
-0.07665664691902499 0
0.07665652745530142 0
0.03454023752752708 0
-0.03454104696276074 0
0.05837127898342787 0
-0.05837194091956466 0
0.1079717837947287 0
-0.1079719514640015 0
0.2482865111199635 0
-0.2482864854323991 0
0.148080873044902 0
-0.1480807789004542 0
-0.1319117813449352 0
0.1319125640314621 0
0.01938270649441564 0
-0.01938285304365759 0
0.2267058472301827 0
-0.226705736626681 0
0.3029352688309006 0
-0.3029351338776961 0
0.1271531409541359 0
-0.1271527249218509 0
-0.1614229129681754 0
0.1614229073324408 0
0.1899611663649662 0
-0.1899612430424322 0
0.3039171937027494 0
-0.3039171214916526 0
-0.06789404169196872 0
0.06789380465213582 0
0.008499053935808722 0
-0.008500821272675586 0
0.2582729910539643 0
-0.2582730110569691 0
0.07830250921236155 0
-0.07830286530131478 0
-0.2010800532696394 0
0.2010804471651978 0
-0.0702114741561739 0
0.0702119519274077 0
-0.03570614408768349 0
0.03570604905134999 0
0.1817022196192937 0
-0.1817019356399611 0
0.289897543517813 0
-0.2898974515212439 0
0.08067263827050886 0
-0.08067257717308038 0
0.005752989318863812 0
-0.005753860418841006 0
-0.02046521402822583 0
0.02046501126140035 0
0.08931442164305846 0
-0.08931451245777919 0
0.3045313980446122 0
-0.3045312821787645 0
0.2169350367676297 0
-0.2169349333402302 0
-0.08248898139952462 0
0.08248888524015786 0
0.1826868278915034 0
-0.182686828943223 0
-0.124847459527156 0
0.1248474217724492 0
0.0536943034957305 0
-0.05369455783134056 0
0.1591237694255328 0
-0.1591238371511801 0
-0.1126143531233501 0
0.1126142848844933 0
0.2183063029436877 0
-0.2183062732090375 0
-0.02741904701395284 0
0.02741729756824171 0
0.3404055812255222 0
-0.3404055170541462 0
0.09997491671528824 0
-0.09997488592690343 0
0.3181695832475769 0
-0.3181695575192288 0
0.1304577447530341 0
-0.1304579327483133 0
0.1127801354542979 0
-0.112780348347122 0
0.03588186003265305 0
-0.03588328268181284 0
0.2957681117461084 0
-0.2957681090368338 0
-0.09298683401391411 0
0.09298884768970293 0
0.1679868119711641 0
-0.1679866169633768 0
0.177777572792559 0
-0.1777775101486314 0
-0.02248543665165519 0
0.02248496457801613 0
-0.1257385401011921 0
0.125738860813756 0
0.2757343765957057 0
-0.275734224949102 0
0.2424670776504023 0
-0.2424671083618133 0
0.1896011413024136 0
-0.1896006962731415 0
0.2010348364505954 0
-0.2010349056163721 0
0.006907431101519076 0
-0.006907496520267353 0
-0.08143481810955221 0
0.08143476839166791 0
0.04436275208511637 0
-0.0443633586716823 0
-0.2557694820811883 0
0.2557697193105622 0
0.2778506295257352 0
-0.277850569454479 0
0.1512949218757177 0
-0.151294164697714 0
0.2281117997534907 0
-0.2281118140252706 0
0.232062727017272 0
-0.232062539128023 0
0.2528170142028455 0
-0.2528169028650755 0
-0.3449052928975291 0
0.3449053589645301 0
-0.05041957919731835 0
0.05041934578400623 0
0.07726721720503382 0
-0.07726701032175222 0
0.1871894149218918 0
-0.1871890611209648 0
0.1062973273563954 0
-0.1062976121219505 0
0.06003043870994765 0
-0.06003050696867093 0
0.1428670145325925 0
-0.1428670571525775 0
-0.1677735527785541 0
0.1677735420726549 0
0.2043022214867309 0
-0.2043022617156929 0
-0.2489684612956345 0
0.2489686821170213 0
-0.003787014679076638 0
0.003784307139078168 0
0.3454718412756873 0
-0.3454718150874608 0
0.1260421867875873 0
-0.1260422485110385 0
0.1475687170427892 0
-0.1475688466810952 0
0.02750764006616459 0
-0.02750869356308425 0
0.2811072625768208 0
-0.2811072144025829 0
-0.1157527134963576 0
0.1157526505803916 0
-0.05429072471822663 0
0.05429033367633688 0
0.07747586952068124 0
-0.07747603221680568 0
-0.2957773994864655 0
0.2957773933518013 0
-0.09822038889573399 0
0.0982203132305771 0
0.2687971046513388 0
-0.268797076172579 0
0.3270348102062665 0
-0.3270347506820264 0
-0.03527836195680428 0
0.03527791984179326 0
0.01677423846500993 0
-0.01677451360157356 0
-0.1904883240698347 0
0.1904884698588696 0
0.01528551324668056 0
-0.01528795579348078 0
-0.009498324574757119 0
0.009496833445210242 0
0.3533202114375534 0
-0.3533201716391607 0
0.2115223276175467 0
-0.2115223196231532 0
-0.3544722418175361 0
0.3544722956615771 0
0.2752446595319875 0
-0.2752445002375525 0
0.047614572741361 0
-0.04761494657734327 0
-0.01937866387283252 0
0.01937831734195456 0
-0.04473742745515116 0
0.04473728847980145 0
-0.01376916910209847 0
0.01376902114256299 0
0.08407587892239048 0
-0.08407613398877972 0
0.06741022184174769 0
-0.06741071404345388 0
-0.1045947290026286 0
0.1045953442120611 0
0.06812088505813491 0
-0.06811998136860943 0
-0.0602672060259837 0
0.06026689599845184 0
0.167149929250973 0
-0.1671500461857851 0
0.1438263996000335 0
-0.1438263841353897 0
-0.3311412647591949 0
0.3311412742520838 0
0.191482035869178 0
-0.1914820896376936 0
-0.02885003584001649 0
0.02884998882517585 0
0.2152730228108536 0
-0.2152729786365713 0
0.1829799493178804 0
-0.1829798868543477 0
-0.02401106219441703 0
0.02401040029250643 0
0.06259363425225029 0
-0.06259067778189267 0
0.1141294252738067 0
-0.1141295351885877 0
0.08044170618460936 0
-0.08044203457632533 0
0.1079316888034475 0
-0.1079314737042029 0
-0.2892549738889391 0
0.2892551345223222 0
-0.0807991149518683 0
0.08079896113889805 0
0.04139597651841675 0
-0.04139545366417068 0
0.2215199167905577 0
-0.2215195773218942 0
0.1514445376446357 0
-0.1514440829425453 0
-0.09266697365983483 0
0.09266690341296736 0
-0.3096442735117045 0
0.3096443114075597 0
0.2757387364521098 0
-0.2757387503162592 0
0.1538665143114023 0
-0.1538662977742333 0
0.02285777693075034 0
-0.02285834076629405 0
0.003096207777420171 0
-0.003097450234448132 0
0.2033876054704284 0
-0.2033874378414252 0
0.2560412106951143 0
-0.2560410978306696 0
0.2069233545915476 0
-0.2069230466421879 0
0.2621817688873648 0
-0.2621817665895831 0
0.05800922446662804 0
-0.05801046539774725 0
0.1320362778792531 0
-0.1320360963210868 0
-0.1173876481394609 0
0.1173876230296551 0
0.29004642268605 0
-0.2900464034444127 0
0.1093768920433405 0
-0.1093769470625267 0
-0.2412023202797853 0
0.241202298034181 0
0.3142445853642734 0
-0.3142445021245908 0
-0.3464172809693655 0
0.3464173347291667 0
0.09819062529815983 0
-0.09819066450675742 0
0.2079104351244855 0
-0.2079103692452917 0
0.1887320569845837 0
-0.1887320343594598 0
0.187216113485642 0
-0.1872161411179924 0
0.05191015011191624 0
-0.05191027873251636 0
0.1759783249999827 0
-0.1759781975962229 0
-0.1130867547585293 0
0.1130868444831011 0
-0.09875719758728729 0
0.09875856673013919 0
0.137813289731847 0
-0.1378131565716502 0
0.2132843561425187 0
-0.2132844129923017 0
0.03158083283618261 0
-0.03158216185064215 0
-0.1507815462887656 0
0.1507815323649579 0
-0.06465562302682332 0
0.06465559249299963 0
0.2491299117451939 0
-0.2491298419020969 0
-0.04496850566566528 0
0.04496785047535273 0
0.3514727742745411 0
-0.3514727616049312 0
0.3123069634283323 0
-0.3123068532428954 0
-0.0140000291985095 0
0.01399622484658609 0
-0.04111637977341884 0
0.04111604193996558 0
0.14107135706313 0
-0.141071482201345 0
0.03773686992352236 0
-0.03773706553821229 0
0.2437001501371118 0
-0.2437001334233358 0
-0.2654650835918101 0
0.2654652849101897 0
0.3735271603686024 0
-0.3735271344887517 0
-0.1445712589075913 0
0.1445712317889089 0
-0.06477162437000289 0
0.06477153450402491 0
0.1429809596109896 0
-0.1429811253425453 0
0.05449672766649496 0
-0.05449744935513332 0
0.1019911609773348 0
-0.1019914189995519 0
0.1370915135062002 0
-0.1370916268551714 0
0.03301076920820996 0
-0.03301080900188081 0
0.1716241303112503 0
-0.1716242125541849 0
0.2531866858106447 0
-0.2531865330734535 0
-0.09078251912553606 0
0.0907827017072608 0
-0.3252669861806775 0
0.3252669877118712 0
0.02076055461805747 0
-0.02076376294513531 0
0.1613712000958739 0
-0.1613710997892111 0
0.1626160339130303 0
-0.1626154877316791 0
0.1587564724301997 0
-0.1587565026819548 0
0.1232077509470777 0
-0.1232067908865504 0
-0.05748308016170962 0
0.0574869053667502 0
-0.140421811835907 0
0.1404217875651618 0
0.2259629207485452 0
-0.2259629576430146 0
0.2725527526654006 0
-0.2725525625763657 0
0.1256016534016092 0
-0.1256005509240641 0
-0.3106131625283594 0
0.3106132124459088 0
-0.2624673451985947 0
0.2624674979766906 0
0.006179562817836801 0
-0.00617976983278339 0
0.08517693186131862 0
-0.08517732879968073 0
0.1143711579959381 0
-0.1143713574427658 0
-0.09405374611276023 0
0.09405363926472161 0
0.117407523776779 0
-0.1174075578222302 0
0.2717451707984627 0
-0.2717451786912553 0
0.1639944385380405 0
-0.1639945046944682 0
0.1943871650201928 0
-0.1943869187373288 0
-0.1589756461171502 0
0.1589762904021982 0
-0.1834396294131589 0
0.1834401457025649 0
-0.00192453273005553 0
0.001923920698864258 0
0.02813242423671567 0
-0.02813251703050387 0
-0.002825780827089962 0
0.002822906150326917 0
-0.2523386764064592 0
0.2523387443027861 0
-0.04864007975085925 0
0.04863989477523316 0
-0.03033774272007597 0
0.03033658806966186 0
-1.731879806555263e-06 0
1.702720391508105e-06 0
0.2182535107852156 0
-0.218253556589816 0
0.1611274678930443 0
-0.1611271490787631 0
0.1715204955270562 0
-0.171520602266648 0
-0.2193495008127156 0
0.2193497767503773 0
0.2946326829064599 0
-0.2946326589379032 0
0.0991982602030209 0
-0.09919826386761352 0
0.2817249771649095 0
-0.2817248708110287 0
0.05288747888526604 0
-0.05288794961081049 0
-0.07613168024871751 0
0.07613148010868197 0
-0.008622035707234724 0
0.008621937610007431 0
0.04287664616006243 0
-0.04287705314456138 0
-0.3275035677728731 0
0.3275036044958212 0
-0.2681741748087343 0
0.268174161955918 0
-0.01556297211702044 0
0.01556193856913725 0
0.2354683537399085 0
-0.2354680685007174 0
0.04474566447221302 0
-0.04474638759657937 0
0.3327455736720698 0
-0.3327454875999394 0
0.3685662741504786 0
-0.3685662393034969 0
0.09538122867539858 0
-0.09538134094782762 0
0.1957027386276698 0
-0.1957027399699522 0
0.2130853015851016 0
-0.2130852998783285 0
0.1304815709464142 0
-0.130481520441964 0
0.1316939956628593 0
-0.131694177081585 0
0.2036575321655391 0
-0.2036573273507861 0
0.1631879978205628 0
-0.163187980848549 0
0.1789692799522237 0
-0.1789692815089831 0
-0.09597259867972964 0
0.09597257775434674 0
0.02775750747712089 0
-0.02775828497999909 0
0.08078021308958416 0
-0.08078042314270002 0
0.3685825901177779 0
-0.3685825605035469 0
0.06756282002665531 0
-0.06756284778955932 0
0.05839162396246868 0
-0.05839191379621527 0
0.03279612824383438 0
-0.0327964557168479 0
0.2384071262478856 0
-0.2384071617877971 0
-0.3733769201262985 0
0.3733769491890006 0
-0.005878000226023498 0
0.005877540760842726 0
0.1778271873528893 0
-0.1778267665678644 0
0.1586577855519662 0
-0.1586577506322333 0
-0.005465020617612878 0
0.005464732765037375 0
0.1284803189627969 0
-0.1284797785694403 0
-0.2447627830550671 0
0.2447629819806801 0
-0.003992458123284826 0
0.003989062813129328 0
-0.05612310597714897 0
0.05612304360717556 0
0.3337862202475576 0
-0.3337861731355675 0
-0.3198423473800242 0
0.3198424508444877 0
0.2304756852198541 0
-0.2304755373014289 0
0.1334179291066084 0
-0.133417953169674 0
0.2356894677582299 0
-0.2356894200881235 0
0.2918175457323781 0
-0.2918174294101799 0
-0.3683344441885503 0
0.3683344628826981 0
-0.05771009070696338 0
0.05770969973602655 0
0.249267955221594 0
-0.2492679709817246 0
-0.01101761047061752 0
0.01101547223905728 0
0.004679459726547214 0
-0.0046818324935194 0
0.2798702639637917 0
-0.2798701872623489 0
-0.02886878242333724 0
0.02886853156973141 0
-0.07010721587578135 0
0.0701070562361885 0
0.002003262606974053 0
-0.005980598501164498 0
0.006099821180177175 0
-0.001987570634726384 0
-0.008474673896400079 0
0.008583344228489812 0
0.008875465058302117 0
-0.008774006672623881 0
$EndSolution
$Solution  /* DofData #0 */
0 0.6000000000000001 0 3
-0.02256195831880911 0
0.02262921455502339 0
0.02258588259058267 0
-0.02261724692029347 0
-0.0152025569030886 0
-0.007741286869109493 0
-1.473129498295751e-05 0
0.007749688540944751 0
0.015141589697342 0
0.01955919948810371 0
0.01517968036186171 0
0.007733036190678385 0
9.376487784037215e-06 0
-0.007756374770338732 0
-0.01515524860324672 0
-0.01958815954061919 0
0.0200105804009472 0
-0.02001134303221688 0
-0.2027842693726145 0
0.202784399006262 0
0.2337357552518782 0
-0.233735976590994 0
0.3407903917605852 0
-0.3407900182375336 0
0.3633526941703335 0
-0.3633522576071816 0
-0.1151662179826537 0
0.1151659948754515 0
0.05249050535200042 0
-0.05249201988756912 0
0.08858671474111009 0
-0.08858794466786669 0
0.1622125145709213 0
-0.1622128265498295 0
0.3731018003916164 0
-0.3731017524211899 0
0.2237680500618197 0
-0.2237678742578824 0
-0.1994885427185823 0
0.1994900049786503 0
0.02910764322824615 0
-0.02910791640789312 0
0.3405016159655102 0
-0.3405014097570226 0
0.4549313706305947 0
-0.4549311193855772 0
0.1930587237638197 0
-0.1930579567856566 0
-0.2423924813663661 0
0.2423924706367241 0
0.2852362624034021 0
-0.2852364047913571 0
0.4563933170503552 0
-0.4563931828348075 0
-0.1022833334381965 0
0.1022828902144701 0
0.01309514747838032 0
-0.01309844045315511 0
0.3877316272328072 0
-0.3877316642109455 0
0.1179328573118018 0
-0.1179335198073154 0
-0.3029551878442864 0
0.30295592113002 0
-0.1071489234325684 0
0.1071498125448145 0
-0.05360293557466179 0
0.05360275827698969 0
0.2734467923594047 0
-0.2734462625537883 0
0.4351605009646479 0
-0.4351603294583292 0
0.1230790847179039 0
-0.1230789604662273 0
0.008714526588406508 0
-0.008716151272639819 0
-0.03075773790397458 0
0.03075735963324632 0
0.1340627706074076 0
-0.1340629397122955 0
0.4571928322677724 0
-0.4571926163545624 0
0.3265012217384775 0
-0.3265010297668254 0
-0.1246539480998594 0
0.1246537667063494 0
0.2750809654310685 0
-0.2750809664735364 0
-0.1873944227703027 0
0.1873943522086842 0
0.08072338192932062 0
-0.08072385568872814 0
0.2388319493259507 0
-0.2388320752722592 0
-0.169304712270559 0
0.1693045844866588 0
0.3276758811132505 0
-0.3276758257567118 0
-0.04258590328857937 0
0.0425826190023358 0
0.510935713933912 0
-0.5109355945692722 0
0.1526367457492984 0
-0.1526366987117613 0
0.4775776144675044 0
-0.4775775665970506 0
0.1961836126405558 0
-0.1961839619153174 0
0.1703075593364174 0
-0.170307952714429 0
0.0556068982489449 0
-0.05560954553969978 0
0.4439422066434461 0
-0.4439422014845105 0
-0.1421480395449683 0
0.1421518063964801 0
0.2536960138905774 0
-0.2536956540761311 0
0.267119389976044 0
-0.2671192733562589 0
-0.03391776301890755 0
0.03391688171686396 0
-0.1897560508971476 0
0.1897566491699107 0
0.4143550735125547 0
-0.4143547915529243 0
0.3639003274228225 0
-0.3639003843853134 0
0.2855909498136361 0
-0.2855901196111378 0
0.3020449163754707 0
-0.3020450445353317 0
0.01036565671299964 0
-0.0103657786797022 0
-0.1222135281018716 0
0.1222134352921532 0
0.06702526881740042 0
-0.06702639826319104 0
-0.3844648059125726 0
0.3844652478215626 0
0.4170038963607486 0
-0.4170037843702975 0
0.228728879284653 0
-0.2287274668213181 0
0.3427958873644897 0
-0.3427959134745371 0
0.3487103378614683 0
-0.3487099874681846 0
0.3800935389225173 0
-0.380093332160467 0
-0.517609983353936 0
0.5176101063857054 0
-0.07584681140737701 0
0.07584637555273038 0
0.119134893537879 0
-0.1191345339346161 0
0.282322195027808 0
-0.2823215379368644 0
0.1601687766044789 0
-0.1601693053902873 0
0.09008808990146169 0
-0.0900882170707866 0
0.215574628792827 0
-0.2155747057904407 0
-0.2517723892188856 0
0.2517723691483927 0
0.3065875507897859 0
-0.3065876255329202 0
-0.3744019635503101 0
0.3744023742733321 0
-0.006015299606729245 0
0.006010253513294559 0
0.5184360381379916 0
-0.5184359894431859 0
0.1891516135321503 0
-0.1891517284068726 0
0.2216783512011541 0
-0.2216785921592377 0
0.04184594130092324 0
-0.0418479035367624 0
0.4222296125879119 0
-0.4222295229989327 0
-0.173859542733736 0
0.1738594250938431 0
-0.08204551615303303 0
0.08204478442101475 0
0.1163719882444853 0
-0.1163722911988304 0
-0.4438474613610093 0
0.4438474500561022 0
-0.147988237839436 0
0.1479880956405191 0
0.4033278391995467 0
-0.4033277861226808 0
0.49075516112384 0
-0.4907550501823594 0
-0.05545778687072508 0
0.05545693301457846 0
0.02522582140683787 0
-0.02522633431383179 0
-0.2863453613542005 0
0.2863456331643378 0
0.02405866835491897 0
-0.02406321701069795 0
-0.01456307712254269 0
0.01456029264049825 0
0.530221358624776 0
-0.5302212846186167 0
0.3174019305542379 0
-0.3174019157173666 0
-0.5319453084500909 0
0.531945408657305 0
0.4133885419983236 0
-0.4133882450681688 0
0.0716936297915186 0
-0.07169432608023922 0
-0.02917682646063613 0
0.02917617979745817 0
-0.06719902672042788 0
0.06719876737138747 0
-0.02068004289800566 0
0.02067976693825516 0
0.1264379930050282 0
-0.1264384677004786 0
0.101801803574312 0
-0.1018027189059777 0
-0.1584629700618461 0
0.1584641188675103 0
0.1051947055867799 0
-0.105193003375389 0
-0.09156201908663002 0
0.09156143562706119 0
0.2511897789681999 0
-0.2511899960165347 0
0.2162216802478449 0
-0.2162216518057208 0
-0.4968979004733193 0
0.4968979181669664 0
0.2879718888723399 0
-0.2879719880849791 0
-0.04329107804627838 0
0.04329099035160169 0
0.3238618296728966 0
-0.3238617472817888 0
0.2757258154680015 0
-0.2757256989620929 0
-0.03632360599942727 0
0.03632236965072405 0
0.09681385237116852 0
-0.09680831372059656 0
0.171352555388211 0
-0.1713527599420465 0
0.122137003772252 0
-0.122137609576672 0
0.1640240256400271 0
-0.1640236201316182 0
-0.4344506085163305 0
0.4344509077371398 0
-0.121539707838581 0
0.1215394203162935 0
0.06499223238265406 0
-0.0649912291528317 0
0.3332971103576644 0
-0.333296477543472 0
0.2283838548184559 0
-0.2283830060010563 0
-0.1391257700674896 0
0.1391256388770682 0
-0.4646028323974941 0
0.4646029030439647 0
0.4137649031800646 0
-0.413764928854255 0
0.2316680596615586 0
-0.2316676558550881 0
0.03450011695448578 0
-0.03450116782029156 0
0.004713945305138727 0
-0.004716262669991372 0
0.3063993838017196 0
-0.3063990731870059 0
0.3844635828397729 0
-0.3844633724024334 0
0.3112841710549578 0
-0.3112835966081859 0
0.3937527093030971 0
-0.3937527048045487 0
0.09066375382640145 0
-0.09066611391814572 0
0.2002871754692043 0
-0.2002868454716669 0
-0.1761411444960541 0
0.1761410975921965 0
0.4354859152909791 0
-0.4354858794095752 0
0.1656624220849321 0
-0.1656625195205368 0
-0.3619123392699448 0
0.3619122979760843 0
0.471848705532641 0
-0.4718485507706768 0
-0.5198176278975948 0
0.5198177280525207 0
0.1473251176988312 0
-0.1473251907100918 0
0.3122321324890714 0
-0.3122320097500273 0
0.2833732884795813 0
-0.283373246448929 0
0.2808922353637376 0
-0.2808922867391495 0
0.0779417241415697 0
-0.0779419637762826 0
0.2654706618464772 0
-0.2654704259540307 0
-0.1705267107220885 0
0.1705268772790604 0
-0.1502451952467653 0
0.1502477562799467 0
0.2087175404890613 0
-0.2087172958865113 0
0.3202583116019654 0
-0.3202584170506139 0
0.04843666173398875 0
-0.04843913548895949 0
-0.2262350466200322 0
0.2262350205846143 0
-0.09700832062435034 0
0.09700826364610475 0
0.3745008312233382 0
-0.37450070141244 0
-0.06902299621828359 0
0.06902176110739001 0
0.5273564373539578 0
-0.5273564137827604 0
0.4689567340278357 0
-0.4689565290168691 0
-0.02254347579003906 0
0.02253633866745536 0
-0.06194543670605784 0
0.06194480574393665 0
0.2126255313022216 0
-0.2126257622877901 0
0.05669749448564244 0
-0.05669785900417658 0
0.3656611787505586 0
-0.3656611476261966 0
-0.3988597636978341 0
0.3988601388751399 0
0.5604291834660355 0
-0.5604291353284817 0
-0.2170474118234383 0
0.2170473610480272 0
-0.09724671863313934 0
0.09724655089657543 0
0.2151349824071496 0
-0.2151352898285704 0
0.08323752065051558 0
-0.08323885918784986 0
0.1534472642471867 0
-0.1534477440557998 0
0.2058576134694766 0
-0.205857824291316 0
0.04952883246199553 0
-0.04952890662924626 0
0.2576642258294962 0
-0.2576643786823136 0
0.3806922609914321 0
-0.3806919772671724 0
-0.1374347287742408 0
0.1374350679605348 0
-0.4880334660459557 0
0.488033468945992 0
0.03340217213168564 0
-0.03340816568432984 0
0.2426745990850977 0
-0.2426744122646121 0
0.2457057341906867 0
-0.2457047179833876 0
0.2381910173627751 0
-0.2381910736397953 0
0.1870925613313265 0
-0.1870907719926626 0
-0.08985603737468635 0
0.08986320058482708 0
-0.2109482315800368 0
0.2109481859952675 0
0.3394393944262116 0
-0.3394394626363185 0
0.4095763270345185 0
-0.4095759732139321 0
0.1904084459368882 0
-0.19040638606403 0
-0.4663562734352789 0
0.4663563662327088 0
-0.3942037524268489 0
0.3942040372759553 0
0.00928629670081425 0
-0.00928668269027106 0
0.1287678873979354 0
-0.12876862380166 0
0.1719317968262322 0
-0.1719321677277779 0
-0.1413550286470376 0
0.1413548289373016 0
0.176646475526228 0
-0.1766465396725173 0
0.4079651266210206 0
-0.4079651411025696 0
0.2469724478955673 0
-0.2469725695938086 0
0.2930401784424201 0
-0.2930397219325457 0
-0.2399488547724278 0
0.2399500575104076 0
-0.2765551610408941 0
0.2765561237186338 0
-0.002904639589009157 0
0.002903497794883168 0
0.04222745105911845 0
-0.04222762401147821 0
-0.004608055413171885 0
0.004602720717069403 0
-0.3787894760081308 0
0.3787896025771568 0
-0.07311148118500913 0
0.0731111358915251 0
-0.0464548194233502 0
0.04645265651045263 0
-2.457455293357897e-06 0
2.403086298920557e-06 0
0.3275934441213634 0
-0.3275935291487497 0
0.243547684341867 0
-0.2435470948487448 0
0.2579095093043577 0
-0.2579097070938365 0
-0.3302389299273289 0
0.3302394428147805 0
0.4420448919641481 0
-0.4420448472835842 0
0.1516037927800283 0
-0.1516038182243223 0
0.4232743027926504 0
-0.4232741051608113 0
0.07974727022165824 0
-0.07974814663352822 0
-0.1148597518497931 0
0.1148593768912777 0
-0.01294379905470075 0
0.01294361611844342 0
0.06469219341137074 0
-0.06469295392130708 0
-0.4913822202857082 0
0.4913822887398937 0
-0.4023533568873139 0
0.4023533330518002 0
-0.02366019868066763 0
0.02365826833971031 0
0.3542191643192583 0
-0.3542186332495246 0
0.06777010610296463 0
-0.06777145202174926 0
0.4994659413699967 0
-0.4994657811359113 0
0.5529912219725192 0
-0.552991157097845 0
0.1435440217359624 0
-0.1435442319285221 0
0.2936204642429067 0
-0.2936204667986294 0
0.3204435992331404 0
-0.3204435955449207 0
0.1973548834655371 0
-0.1973547863879994 0
0.1984135767655239 0
-0.1984139127595083 0
0.3061851116855328 0
-0.3061847296810795 0
0.2451464962966122 0
-0.2451464649063272 0
0.2686266845459594 0
-0.2686266875857163 0
-0.1439892284670378 0
0.1439891894010917 0
0.04202385125203858 0
-0.04202529984305352 0
0.1214016650274665 0
-0.1214020560760848 0
0.5529858161350636 0
-0.5529857609820681 0
0.1013620726615988 0
-0.1013621243838276 0
0.08959498856406725 0
-0.08959551649992266 0
0.04934665619585556 0
-0.04934726643608246 0
0.3579243947455329 0
-0.357924460593863 0
-0.5602047855115738 0
0.5602048395851562 0
-0.008862593728100025 0
0.008861736529236899 0
0.2678715929792901 0
-0.2678708077482022 0
0.2393565094536579 0
-0.2393564431430713 0
-0.008221043231819962 0
0.008220506332766388 0
0.1941068118098461 0
-0.1941058027599155 0
-0.3681375870659291 0
0.3681379567586049 0
-0.006728043522928374 0
0.006721726346664615 0
-0.08423095720759818 0
0.08423084082448652 0
0.5010134385072726 0
-0.5010133509220084 0
-0.4801394185882277 0
0.4801396113063774 0
0.3467869344195239 0
-0.3467866599251772 0
0.2001608565121419 0
-0.2001609012981149 0
0.3537816606342117 0
-0.3537815718082894 0
0.4381148614029733 0
-0.4381146445745011 0
-0.5526368207761511 0
0.5526368555350647 0
-0.0874202018137637 0
0.08741946891994753 0
0.3743556679469061 0
-0.3743556969597274 0
-0.01711212839289722 0
0.01710813387606957 0
0.007313162368823282 0
-0.007317579948119842 0
0.4204535744658357 0
-0.4204534319359026 0
-0.04341570421832507 0
0.04341523609570159 0
-0.1053943510049149 0
0.1053940528238711 0
0.003890366175807172 0
-0.01161691655120748 0
0.01184883644052169 0
-0.00385961637669231 0
-0.01646667067828581 0
0.01667809553201225 0
0.01724541973147474 0
-0.01704821810475283 0
$EndSolution
$Solution  /* DofData #0 */
0 0.8 0 4
-0.03651698048179274 0
0.03662341110261658 0
0.03655443491071137 0
-0.03660462108226833 0
-0.02461260062590212 0
-0.01253018975632195 0
-2.328801478830966e-05 0
0.0125439775185868 0
0.02451642312691783 0
0.03173004942133104 0
0.02457657199335293 0
0.01251737557745567 0
1.508341379539029e-05 0
-0.01255430313506049 0
-0.02453777774389699 0
-0.03177563432762352 0
0.02678082706464708 0
-0.02678201215351404 0
-0.271249394537378 0
0.271249595258118 0
0.3126837123002508 0
-0.3126840534896906 0
0.4558273346365927 0
-0.4558267567604714 0
0.4853822586764958 0
-0.4853815802522078 0
-0.153782487073294 0
0.1537821397801917 0
0.07084105768098113 0
-0.07084341979293209 0
0.1194083167385795 0
-0.1194102212022989 0
0.2166033040675289 0
-0.2166037878504643 0
0.4983129718495009 0
-0.4983128971806326 0
0.300425293723852 0
-0.300425020090855 0
-0.2680198405749627 0
0.2680221175836897 0
0.03885236403346991 0
-0.03885278845060328 0
0.4545581803350164 0
-0.454557859913268 0
0.6072388153782332 0
-0.6072384255478416 0
0.2603371196970037 0
-0.2603359417328849 0
-0.3235140250430261 0
0.323514008012048 0
0.3806847968549736 0
-0.3806850171986659 0
0.609174348884005 0
-0.6091741409885707 0
-0.1369329661494337 0
0.1369322753637609 0
0.01789526602472055 0
-0.01790037967035453 0
0.5173800034123806 0
-0.5173800603668878 0
0.1578452823787228 0
-0.1578463095882081 0
-0.4056169619988033 0
0.4056180997020207 0
-0.1451644763068833 0
0.1451658552317338 0
-0.07152545877721574 0
0.07152518309594064 0
0.3657175314473853 0
-0.3657167076257675 0
0.5806085139680448 0
-0.5806082474860947 0
0.166704152633466 0
-0.1667039430345431 0
0.01172616875866607 0
-0.01172869430998028 0
-0.0410855201495401 0
0.04108493198489877 0
0.1788647874391599 0
-0.1788650498735931 0
0.6100873832844972 0
-0.6100870479501301 0
0.4367147007135115 0
-0.4367144037777535 0
-0.1673607549918707 0
0.167360469732463 0
0.3680939935039251 0
-0.3680939936527488 0
-0.2500139392461226 0
0.2500138293248859 0
0.1078595863383116 0
-0.1078603218304812 0
0.3186262779158733 0
-0.3186264731082785 0
-0.2262206654024801 0
0.2262204659410022 0
0.4371729031108146 0
-0.4371728172236547 0
-0.05861021428225456 0
0.05860507465797252 0
0.6816587053059434 0
-0.6816585202670662 0
0.2068748390247285 0
-0.2068747824816591 0
0.6371760722364763 0
-0.6371759980055247 0
0.2622021319815197 0
-0.2622026727578212 0
0.2285046496235223 0
-0.2285052552274521 0
0.07638187027985081 0
-0.07638597564936482 0
0.5922871507217041 0
-0.5922871425319154 0
-0.1928805311738471 0
0.1928864045084907 0
0.3404163089125138 0
-0.3404157557959454 0
0.3567279664296532 0
-0.3567277854967449 0
-0.04546166870923019 0
0.04546029738974077 0
-0.2544496402297346 0
0.2544505704062202 0
0.5534197266977533 0
-0.5534192897914927 0
0.4854511962706621 0
-0.4854512843104193 0
0.382281251218655 0
-0.3822799603933975 0
0.4033451422744199 0
-0.4033453401516222 0
0.01382654318410664 0
-0.01382673270740465 0
-0.1630283252164221 0
0.1630281808142722 0
0.08997103866522686 0
-0.08997279133869435 0
-0.5136376730714267 0
0.513638359141298 0
0.5562914147065666 0
-0.5562912406969158 0
0.3072152817684514 0
-0.3072130857045034 0
0.457849988349837 0
-0.457850028123323 0
0.465720896196931 0
-0.4657203515784598 0
0.507881480753936 0
-0.5078811607688011 0
-0.6904631620825041 0
0.6904633530314362 0
-0.1014020352813407 0
0.1014013569213578 0
0.1629100444766323 0
-0.1629095273481105 0
0.3783612943676397 0
-0.3783602773640903 0
0.2144657936530048 0
-0.2144666119173385 0
0.1201707293478653 0
-0.120170926807676 0
0.2890325902208531 0
-0.2890327059270297 0
-0.3358372051621524 0
0.3358371737970204 0
0.4089519211564461 0
-0.4089520368833318 0
-0.5003947757407857 0
0.5003954124025106 0
-0.008440441771978592 0
0.008432603580051178 0
0.6915347224743055 0
-0.6915346470155899 0
0.2523130562139231 0
-0.252313234392667 0
0.2959795274314266 0
-0.2959799006702021 0
0.05652828801683735 0
-0.05653133406085158 0
0.5636870108412504 0
-0.5636868719903768 0
-0.2321020603661421 0
0.2321018770210053 0
-0.1101590058192539 0
0.1101578645018352 0
0.1553612532511094 0
-0.1553617234069644 0
-0.5920243490197427 0
0.5920243316657362 0
-0.1981432512935134 0
0.1981430285182436 0
0.5379364162694303 0
-0.5379363338248735 0
0.6545950561285322 0
-0.6545948837945647 0
-0.07713177686559342 0
0.07713040274406865 0
0.03371537574433912 0
-0.03371617265443923 0
-0.3825633127930129 0
0.3825637351535978 0
0.03349709954648841 0
-0.0335041592338928 0
-0.0198134718254376 0
0.01980913796085222 0
0.7072645186917907 0
-0.7072644040033895 0
0.4233512742371812 0
-0.4233512512919078 0
-0.7095579748144597 0
0.709558130239121 0
0.5518396424626515 0
-0.5518391811594957 0
0.09593270406171371 0
-0.0959337849120631 0
-0.03903903037038407 0
0.03903802457828883 0
-0.0897152996979803 0
0.0897148963068104 0
-0.02760638208497129 0
0.02760595310618062 0
0.168990984689473 0
-0.1689917209532756 0
0.1365975201257487 0
-0.1365989387212002 0
-0.2132560628451467 0
0.2132578508379655 0
0.14404254628094 0
-0.1440398735169748 0
-0.1235402635847836 0
0.1235393482274313 0
0.3355033928715999 0
-0.3355037285965281 0
0.288900803414782 0
-0.2889007598477938 0
-0.6627641099190508 0
0.6627641374059565 0
0.3849027770253295 0
-0.3849029295365258 0
-0.05774155060027007 0
0.05774141426755163 0
0.4330116238043038 0
-0.433011495721978 0
0.3692115155862216 0
-0.3692113344664736 0
-0.04881681405088114 0
0.04881488921653634 0
0.1327545343299561 0
-0.1327458853920317 0
0.2286689699684384 0
-0.2286692872285709 0
0.1647002496444632 0
-0.1647011806800714 0
0.2213687395393858 0
-0.2213681022740744 0
-0.5799809538859779 0
0.5799814184210943 0
-0.1624810633333783 0
0.1624806153454631 0
0.09029343831682446 0
-0.0902918339994552 0
0.4456735414978909 0
-0.4456725583191666 0
0.3060398599231074 0
-0.3060385392500742 0
-0.1856583373911635 0
0.1856581331785124 0
-0.6196417426013924 0
0.6196418523673296 0
0.5518834216999857 0
-0.5518834613159258 0
0.3099808805103966 0
-0.3099802528955145 0
0.04626813906449203 0
-0.04626977143594107 0
0.006372729202112253 0
-0.006376331620696935 0
0.4101877447665855 0
-0.4101872651556939 0
0.5131225784200908 0
-0.5131222514045564 0
0.4161745636784946 0
-0.4161736705647075 0
0.5256064263142981 0
-0.5256064189792825 0
0.1254716623065845 0
-0.1254754038767731 0
0.2698540917349497 0
-0.2698535925192887 0
-0.2349297719622263 0
0.2349296989354222 0
0.5811706347606178 0
-0.5811705789915419 0
0.2228883295490188 0
-0.2228884727324592 0
-0.4826864671049844 0
0.4826864032283617 0
0.6297367051709364 0
-0.6297364653732832 0
-0.6933309101347658 0
0.6933310656450661 0
0.1964826818321805 0
-0.1964827951409287 0
0.4167696369608003 0
-0.4167694463782337 0
0.3781765670740711 0
-0.3781765020079951 0
0.3746084394929471 0
-0.3746085190968899 0
0.1040183481910392 0
-0.1040187202926154 0
0.3558486528434047 0
-0.355848288905451 0
-0.228494520272645 0
0.2284947779132499 0
-0.2029751851550935 0
0.2029791781326611 0
0.2807988747879677 0
-0.280798500544766 0
0.4274276612355303 0
-0.4274278242233523 0
0.06591954013594496 0
-0.06592337755505866 0
-0.3017254784743837 0
0.3017254378961189 0
-0.1293756674436164 0
0.1293755788236547 0
0.5003465744174918 0
-0.5003463733488457 0
-0.09400149447709487 0
0.09399955351763004 0
0.7033268639673824 0
-0.7033268274196786 0
0.6258989001283267 0
-0.6258985822313947 0
-0.03199495774703389 0
0.03198379657224019 0
-0.08293392073362559 0
0.08293293851452223 0
0.284779473897365 0
-0.2847798291083789 0
0.07571241033920269 0
-0.07571297646482646 0
0.4876875440176813 0
-0.4876874957135205 0
-0.5326445055427607 0
0.5326450882705869 0
0.7474127719861905 0
-0.7474126973655497 0
-0.289635739505297 0
0.2896356602593299 0
-0.1297743700596011 0
0.1297741091092428 0
0.2876797376328899 0
-0.2876802128219446 0
0.1128566829626951 0
-0.1128587517203739 0
0.2051745263075169 0
-0.2051752698799688 0
0.2747534641082356 0
-0.2747537908925023 0
0.06605436379984775 0
-0.06605447900930865 0
0.34383860367279 0
-0.3438388404196057 0
0.5087353209670855 0
-0.5087348817470673 0
-0.1848292284900864 0
0.1848297535820414 0
-0.6508782829559183 0
0.6508782875351473 0
0.04737477567969078 0
-0.04738410782775509 0
0.3243417715192176 0
-0.3243414815320276 0
0.3298452698455536 0
-0.3298436941070318 0
0.3176587207075666 0
-0.3176588079568876 0
0.2523213504463929 0
-0.2523185709543063 0
-0.1243678486498149 0
0.1243790298322793 0
-0.2816604177977549 0
0.2816603464257605 0
0.4532074211654619 0
-0.4532075262340535 0
0.547040119042801 0
-0.5470395701714427 0
0.2563967283488921 0
-0.2563935204813158 0
-0.6223565673430553 0
0.6223567111122149 0
-0.5262362787019541 0
0.526236721340468 0
0.01240302726281332 0
-0.01240362709853072 0
0.1729490224732934 0
-0.1729501609246065 0
0.229713281952565 0
-0.2297138567770672 0
-0.1888178591162119 0
0.1888175479821788 0
0.2362005193714245 0
-0.2362006201286369 0
0.5443896930816415 0
-0.5443897152094022 0
0.3305280805012767 0
-0.3305282669765009 0
0.392553178196767 0
-0.3925524730731481 0
-0.3217969745182863 0
0.3217988458882595 0
-0.3704929331344293 0
0.3704944292039619 0
-0.00389520877859374 0
0.00389343339621996 0
0.05633945046012423 0
-0.0563397191257631 0
-0.006607562849120637 0
0.006599312968590132 0
-0.5054060362307065 0
0.5054062328765553 0
-0.09767197796319642 0
0.09767144073252973 0
-0.06312983829730462 0
0.06312646106186932 0
-3.101530400258674e-06 0
3.017040041439934e-06 0
0.4370589221612328 0
-0.4370590536910374 0
0.3270619930247662 0
-0.3270610848411408 0
0.3446688057797653 0
-0.3446691111770339 0
-0.4418440828809038 0
0.4418448773470056 0
0.5895135609372619 0
-0.5895134915192805 0
0.2056640574827585 0
-0.2056641267262854 0
0.5652282985706912 0
-0.5652279925153098 0
0.1068520114448862 0
-0.1068533713572952 0
-0.153977644719731 0
0.1539770591590016 0
-0.01727188057761431 0
0.01727159624389484 0
0.08672978081787458 0
-0.08673096533767172 0
-0.6553356017206802 0
0.6553357080714216 0
-0.53658677804699 0
0.5365867412130183 0
-0.03194319222130219 0
0.03194018724434537 0
0.4735689330006889 0
-0.4735681089406984 0
0.09117812694185914 0
-0.09118021470771978 0
0.6663910836098679 0
-0.6663908350044387 0
0.7374997158874556 0
-0.7374996152292715 0
0.1919847943070339 0
-0.191985122323788 0
0.3915772610046631 0
-0.3915772650616675 0
0.4282823412943002 0
-0.4282823347514287 0
0.265189665753034 0
-0.2651895102419626 0
0.2656469709190085 0
-0.2656474894276227 0
0.4091242359983361 0
-0.4091236421726454 0
0.3273196142520791 0
-0.3273195658821155 0
0.3583858140013352 0
-0.3583858189461344 0
-0.1920237138993983 0
0.1920236531105145 0
0.05651837291188554 0
-0.05652062228395126 0
0.1621593400248747 0
-0.1621599467524374 0
0.7374549826026845 0
-0.7374548969963347 0
0.1351718328751269 0
-0.1351719131835958 0
0.1219797799887158 0
-0.1219805804601724 0
0.06598696439509064 0
-0.0659879121612946 0
0.4776264244299354 0
-0.4776265260908062 0
-0.747114784145071 0
0.7471148679926773 0
-0.01187399442133043 0
0.01187266151064508 0
0.3585819966803464 0
-0.3585807753714232 0
0.3208620886691643 0
-0.3208619836987073 0
-0.01099088592980987 0
0.01099005128298894 0
0.2605496003191595 0
-0.2605480299150964 0
-0.4920977231471538 0
0.4920982957207483 0
-0.009898379370705897 0
0.009888583871981597 0
-0.1123660613448333 0
0.1123658803365331 0
0.6684374998173082 0
-0.6684373641181295 0
-0.6406579400944868 0
0.640658239268624 0
0.4637306367732829 0
-0.4637302122873993 0
0.2669237833709118 0
-0.2669238528398722 0
0.4720195778406622 0
-0.4720194398969065 0
0.5846410420614515 0
-0.5846407052023865 0
-0.7370188252038686 0
0.7370188790649931 0
-0.1176335758929239 0
0.1176324306968589 0
0.4997106369559459 0
-0.499710681445009 0
-0.02355120159095508 0
0.02354498172351646 0
0.01011994400438788 0
-0.01012679853197173 0
0.5614187649095073 0
-0.5614185441856024 0
-0.05802885445820563 0
0.05802812635462579 0
-0.1408189571004157 0
0.1408184928781173 0
0.006298819235114104 0
-0.01881281661009501 0
0.01918892659731549 0
-0.006248603957481899 0
-0.0266750426961307 0
0.02701797307426659 0
0.0279365686967163 0
-0.02761701564845982 0
$EndSolution
$Solution  /* DofData #0 */
0 1 0 5
-0.05321770478315883 0
0.05336935507403112 0
0.05327049330781811 0
-0.05334279535395634 0
-0.03587863753569522 0
-0.0182616546300062 0
-3.314581943178014e-05 0
0.01828199961452283 0
0.03574204884885138 0
0.04634698990368302 0
0.03582755208957362 0
0.01824374032625167 0
2.183680189111023e-05 0
-0.01829635002120277 0
-0.03577210376013265 0
-0.04641158910628917 0
0.03359388050822017 0
-0.03359553816605693 0
-0.3400866936485494 0
0.3400869733571669 0
0.3920747935804971 0
-0.3920752668473206 0
0.5714806986367693 0
-0.5714798939991537 0
0.6078020146284601 0
-0.6078010656362958 0
-0.1924960278291432 0
0.1924955411866626 0
0.08955644627266672 0
-0.0895597627082434 0
0.1507824840908535 0
-0.1507851382069948 0
0.2711309226544668 0
-0.2711315978877926 0
0.6238852431923703 0
-0.6238851385641349 0
0.3779673770704179 0
-0.3779669936796035 0
-0.3374216019468105 0
0.3374247937334712 0
0.0486151309067174 0
-0.04861572443678359 0
0.5688525719109592 0
-0.5688521237435795 0
0.7598302723664115 0
-0.7598297279354207 0
0.3288683155922954 0
-0.3288666878326837 0
-0.4047741380164341 0
0.40477411367532 0
0.4762914923979417 0
-0.4762917992809497 0
0.7622335313803225 0
-0.7622332415426736 0
-0.1718199262659534 0
0.1718189570761384 0
0.02288138075632482 0
-0.02288852853746321 0
0.647201429447532 0
-0.6472015083811004 0
0.1980148925670294 0
-0.198016326111346 0
-0.5089963714720779 0
0.5089979602867554 0
-0.184162739775674 0
0.1841646646207319 0
-0.08947143662658869 0
0.08947105076797458 0
0.4584680956961519 0
-0.4584669426094936 0
0.7262253053852425 0
-0.7262249326848463 0
0.2114401613672255 0
-0.2114398444286554 0
0.01478351755136131 0
-0.01478705145997108 0
-0.05144543597216862 0
0.05144461276106735 0
0.2237157422336859 0
-0.223716108819046 0
0.7631945672167307 0
-0.7631940984279937 0
0.5475186678203013 0
-0.5475182544532904 0
-0.2105615084382239 0
0.2105611045388665 0
0.4616714853004626 0
-0.4616714833870115 0
-0.3126996044662804 0
0.3126994503186031 0
0.1350934723733456 0
-0.1350945001360747 0
0.3984991634782083 0
-0.3984994357544028 0
-0.28334229618092 0
0.2833420158908994 0
0.5467861361856503 0
-0.5467860162454941 0
-0.07541587781718076 0
0.07540863682545193 0
0.852557630811466 0
-0.8525573726283164 0
0.2625513144892987 0
-0.2625512591822873 0
0.7969482345231844 0
-0.7969481309159838 0
0.3284875034153087 0
-0.3284882569820265 0
0.2873123308268438 0
-0.2873131697353433 0
0.09811374602411745 0
-0.09811947627558407 0
0.7407879278537953 0
-0.740787916147495 0
-0.2450460747281904 0
0.2450543186592513 0
0.428059115183101 0
-0.4280583501437678 0
0.4465797830876003 0
-0.4465795304263046 0
-0.05710726694417181 0
0.05710534616535615 0
-0.3197596697148944 0
0.3197609715003928 0
0.6928893870897984 0
-0.6928887777477574 0
0.6071093306297686 0
-0.6071094530888932 0
0.4796104544522619 0
-0.4796086478426076 0
0.5049099697869581 0
-0.5049102447303477 0
0.01728985957761716 0
-0.0172901246666316 0
-0.2038760213805046 0
0.2038758191347724 0
0.113175043618163 0
-0.1131774916918204 0
-0.6432461584001276 0
0.6432471171384861 0
0.6957013670501959 0
-0.6957011236791973 0
0.3866617022829009 0
-0.3866586288272646 0
0.5732415642513218 0
-0.5732416187301768 0
0.5830624615509745 0
-0.5830616995825313 0
0.6361359676299692 0
-0.6361355219290946 0
-0.8634517928781908 0
0.8634520596313016 0
-0.1270739331822665 0
0.1270729827801734 0
0.2084267640303491 0
-0.2084261005369036 0
0.4752272787603959 0
-0.4752258620741162 0
0.2691508337303663 0
-0.2691519733291803 0
0.1502761559682371 0
-0.1502764319449174 0
0.3631748252796754 0
-0.3631749814460027 0
-0.4199621797202362 0
0.4199621355918343 0
0.5113883701290868 0
-0.5113885313981664 0
-0.6268978374527281 0
0.6268987257222973 0
-0.01104488351986214 0
0.01103392423400851 0
0.8647560885473704 0
-0.8647559832999955 0
0.3155219303601912 0
-0.3155221791136065 0
0.3704553645174142 0
-0.3704558848641652 0
0.07152425694435458 0
-0.07152851305739054 0
0.7054500394070896 0
-0.7054498457103964 0
-0.2904682877423037 0
0.2904680305061612 0
-0.138599456115337 0
0.1385978535600115 0
0.1944354535329995 0
-0.1944361102769666 0
-0.7402986686231247 0
0.7402986446568705 0
-0.2486512330726113 0
0.2486509188514243 0
0.6726159796077948 0
-0.6726158643378666 0
0.8185439867725607 0
-0.8185437458098535 0
-0.100167666954262 0
0.1001656768056253 0
0.04223956263968719 0
-0.04224067715462367 0
-0.4791103820554547 0
0.4791109728044634 0
0.04354187555653587 0
-0.04355173778065807 0
-0.02523300359484376 0
0.02522693156130351 0
0.8844372288131294 0
-0.8844370688407347 0
0.5293642098421231 0
-0.5293641779077293 0
-0.8872979896833123 0
0.8872982066661057 0
0.6905709553808983 0
-0.6905703102880786 0
0.1203176789539796 0
-0.1203191891549231 0
-0.04895959934417744 0
0.04895819116451462 0
-0.1122814113775337 0
0.1122808465850041 0
-0.03454681275849456 0
0.03454621249921197 0
0.2117180192128832 0
-0.2117190470704872 0
0.1717616791644608 0
-0.1717636579897189 0
-0.2688923721058861 0
0.2688948770963286 0
0.1845077617121944 0
-0.1845039834970242 0
-0.1561414434865596 0
0.1561401505815534 0
0.4200666518764365 0
-0.4200671192324597 0
0.3618387274524807 0
-0.3618386674278665 0
-0.8287302678642386 0
0.8287303063013539 0
0.4822358861464887 0
-0.4822360970807512 0
-0.07220061829392216 0
0.07220042751020428 0
0.5426731227843474 0
-0.5426729435490741 0
0.4633720568922756 0
-0.4633718034334496 0
-0.06147467413073599 0
0.06147197653473952 0
0.1702633402356725 0
-0.1702511818458205 0
0.2860704464411012 0
-0.2860708893396798 0
0.2080547359162941 0
-0.2080560233033403 0
0.279855584428406 0
-0.2798546828019328 0
-0.7258166207017148 0
0.7258172698458967 0
-0.2036054444069158 0
0.2036048160536672 0
0.1171480970343541 0
-0.1171457877564942 0
0.5585965644033042 0
-0.5585951894314979 0
0.3843494032988926 0
-0.3843475536232522 0
-0.2322581603298199 0
0.2322578741791177 0
-0.774753935456075 0
0.7747540889701562 0
0.6900861669029539 0
-0.6900862219118177 0
0.388759899560984 0
-0.3887590215149042 0
0.05815075707707531 0
-0.05815303948340318 0
0.008068969692221014 0
-0.008074010571426359 0
0.5146845938074728 0
-0.5146839273497864 0
0.6419973718317076 0
-0.641996914407587 0
0.5215479396021202 0
-0.5215466897008308 0
0.6577180640769565 0
-0.6577180533185482 0
0.1622461098044146 0
-0.1622514498730581 0
0.3406219364311195 0
-0.3406212576581566 0
-0.2937504288980267 0
0.293750326547286 0
0.7270790379559783 0
-0.7270789599296226 0
0.2809716794383347 0
-0.2809718678791723 0
-0.6035190582534236 0
0.6035189693259031 0
0.7878836745113231 0
-0.7878833400876529 0
-0.8669472084986133 0
0.8669474258404357 0
0.2456612844893367 0
-0.2456614427696867 0
0.5215039303850098 0
-0.5215036640219251 0
0.4731276046946873 0
-0.473127514042551 0
0.4683611942863101 0
-0.46836130530077 0
0.1301360536751477 0
-0.1301365737562359 0
0.4470346021257387 0
-0.4470340968315701 0
-0.2869435853323462 0
0.2869439439956272 0
-0.2568376043986263 0
0.2568432086772969 0
0.3539541140519925 0
-0.3539535989851775 0
0.5347752016078874 0
-0.5347754283296069 0
0.08397395337962711 0
-0.08397931136940288 0
-0.3772495826201386 0
0.3772495256861402 0
-0.1617563686672362 0
0.1617562445950016 0
0.6266254564909496 0
-0.6266251761748537 0
-0.1198220906363834 0
0.1198193444807899 0
0.8793764354596716 0
-0.8793763844533454 0
0.78310780169065 0
-0.7831073580036944 0
-0.04227380490476483 0
0.04225809160589674 0
-0.1040677261641026 0
0.104066349765942 0
0.3574803382381072 0
-0.3574808297236405 0
0.09477683553148231 0
-0.09477762695022465 0
0.6097734880904051 0
-0.6097734206141587 0
-0.6667850443194397 0
0.6667858590166474 0
0.9344707677992466 0
-0.9344706636847221 0
-0.3623263434319523 0
0.362326232087876 0
-0.1623499340292996 0
0.1623495685928875 0
0.3605807876482592 0
-0.3605814486828729 0
0.1432764600488909 0
-0.143279337508101 0
0.2571490305838408 0
-0.2571500677466373 0
0.3437676294305933 0
-0.3437680853398395 0
0.08258670651727888 0
-0.08258686760679304 0
0.4301354321786283 0
-0.4301357622093418 0
0.6372687190415577 0
-0.637268107077675 0
-0.2329004286374278 0
0.2329011602322287 0
-0.8137945520721671 0
0.8137945585828463 0
0.06256054167051278 0
-0.06257362131386555 0
0.4063406401883222 0
-0.406340235037377 0
0.4149426048560227 0
-0.4149404056441341 0
0.3971566603922368 0
-0.3971567821419025 0
0.3187762717662294 0
-0.3187723854095986 0
-0.160830359118894 0
0.160846070740874 0
-0.3525419787626944 0
0.3525418781540486 0
0.5672413488734784 0
-0.5672414945036997 0
0.6849054928942884 0
-0.6849047265139846 0
0.32346256397505 0
-0.3234580669668621 0
-0.7785914709254904 0
0.7785916714037918 0
-0.6585388834170033 0
0.6585395025577124 0
0.01552888332421576 0
-0.01552972239363796 0
0.2176682151992154 0
-0.2176697991468064 0
0.2876961407851707 0
-0.2876969426129897 0
-0.2364279702049866 0
0.2364275338519695 0
0.296041841783587 0
-0.2960419842789245 0
0.6810008795081377 0
-0.681000909916855 0
0.4146104838431584 0
-0.4146107408779934 0
0.4928507960112833 0
-0.4928498158401438 0
-0.4044430625558701 0
0.4044456835715031 0
-0.4651807396353942 0
0.4651828324520247 0
-0.004895287726334064 0
0.004892802811062546 0
0.07046692988212028 0
-0.07046730554751475 0
-0.008804943867544863 0
0.008793461639786568 0
-0.6321737621466779 0
0.6321740371533824 0
-0.1223136922791223 0
0.1223129398635285 0
-0.08031331640945401 0
0.08030856913909168 0
-3.672156061347229e-06 0
3.553968454077027e-06 0
0.5466388894954007 0
-0.5466390726120255 0
0.4115746085635808 0
-0.4115733495148539 0
0.4317657708801379 0
-0.4317661952381409 0
-0.5541022053942322 0
0.5541033130252297 0
0.7370337192403619 0
-0.7370336221609989 0
0.2612347719960886 0
-0.2612349115227114 0
0.7075514590001211 0
-0.7075510324137742 0
0.1341800791829697 0
-0.1341819785138262 0
-0.1934509003125736 0
0.1934500770714291 0
-0.02160571674640164 0
0.02160531894335672 0
0.1089697712566404 0
-0.1089714320532628 0
-0.819357141301379 0
0.8193572900264793 0
-0.6708696640420393 0
0.6708696128158574 0
-0.0403954638552009 0
0.04039125292497014 0
0.5934650923831148 0
-0.5934639414343917 0
0.1149358251263916 0
-0.1149387400448412 0
0.8335030243524569 0
-0.833502677172557 0
0.9220844214076802 0
-0.9220842808314841 0
0.2406789977646872 0
-0.2406794585898643 0
0.489569682980195 0
-0.4895696887791036 0
0.5365592886701858 0
-0.5365592783461897 0
0.333901284710969 0
-0.3339010604851649 0
0.3333488823962442 0
-0.333349602468485 0
0.5124386653294752 0
-0.5124378344115262 0
0.4096884224075248 0
-0.4096883553434194 0
0.4482376962727083 0
-0.4482377035102574 0
-0.2400744778843656 0
0.2400743927358552 0
0.07122091723176081 0
-0.07122406116763212 0
0.2030412267819443 0
-0.2030420740928598 0
0.9219842989521363 0
-0.9219841793507734 0
0.1689911751111421 0
-0.1689912873497819 0
0.1554413389302737 0
-0.1554424299274033 0
0.08270913981351553 0
-0.08271046477099786 0
0.5974969554872998 0
-0.5974970967293847 0
-0.9340997085782209 0
0.934099825602863 0
-0.01490981058508077 0
0.01490794490681017 0
0.4498997821891947 0
-0.4498980722923225 0
0.4031035711061809 0
-0.4031034214996294 0
-0.01377331269865663 0
0.01377214474362474 0
0.3277367004210563 0
-0.3277345003748476 0
-0.6165918586969037 0
0.6165926568501993 0
-0.01346467312092186 0
0.01345100165361058 0
-0.1405260091214632 0
0.1405257557095255 0
0.8360411285707992 0
-0.8360409393388003 0
-0.8013784668501578 0
0.8013788848927852 0
0.5812513187077719 0
-0.5812507279148152 0
0.333704947087529 0
-0.3337050440764061 0
0.5903903805215782 0
-0.5903901876990925 0
0.7313759666206172 0
-0.7313754955526111 0
-0.9214734692008028 0
0.9214735443212269 0
-0.1483056748326402 0
0.1483040638620605 0
0.6253093589858677 0
-0.6253094203562667 0
-0.03030420392180409 0
0.0302954856274626 0
0.01308451867531044 0
-0.01309409192957621 0
0.7027323196905539 0
-0.702732012039857 0
-0.07270237012096421 0
0.07270135071573977 0
-0.1763688866639507 0
0.1763682360778176 0
0.009182581297578906 0
-0.02743180137466317 0
0.02798097617772256 0
-0.009108776162610008 0
-0.038908251193155 0
0.03940907107575978 0
0.0407483233075829 0
-0.04028208676994385 0
$EndSolution
