$ResFormat /* GetDP 3.0.5-git-997fd378, ascii */
1.1 0
$EndResFormat
$Solution  /* DofData #0 */
0 0 0 0
-0.1339041120657465 0
-0.2123576233601146 0
-0.1691234512518796 0
-0.01632857902240432 0
-0.0051397359573822 0
-0.1340158941820796 0
-0.1477530947273946 0
-0.1193650769056637 0
-0.1085859939300109 0
-0.1521023495874186 0
-0.1644848178147455 0
-0.1326295263256186 0
-0.1228314788944196 0
-0.1683847567888194 0
-0.1793620381442537 0
-0.1445311144993327 0
-0.1357401358851281 0
-0.1827963947294445 0
-0.1923944960826911 0
-0.1551165601877343 0
-0.1473133586498538 0
-0.1953586615600984 0
-0.2036211390945721 0
-0.1644356017585756 0
-0.1575728965638948 0
-0.2061615527961435 0
-0.213099050812337 0
-0.1724816085963556 0
-0.1665715388994106 0
-0.2151912036040654 0
-0.2208573889521963 0
-0.1792921257586955 0
-0.1743077586655793 0
-0.222529566317089 0
-0.2269264638151083 0
-0.184862552410184 0
-0.1808036477093318 0
-0.2281933726607667 0
-0.2313410254554671 0
-0.1892107949080476 0
-0.1860644478960541 0
-0.2321723598500066 0
-0.2340715018269625 0
-0.1923333911687085 0
-0.1901013031202135 0
-0.2345005423433642 0
-0.2351339154304911 0
-0.1942353358931639 0
-0.192918501805297 0
-0.2351410710034706 0
-0.2344997276424572 0
-0.1949006572980313 0
-0.1945127440774801 0
-0.2340632338550485 0
-0.2321327585069529 0
-0.1943340481240709 0
-0.1948641630666242 0
-0.2312784483727273 0
-0.228013791596945 0
-0.1925128327188343 0
-0.1939870925483218 0
-0.2266988147473593 0
-0.2221197560640007 0
-0.1894345814925119 0
-0.1918488998679722 0
-0.2203688695967214 0
-0.2145191973126307 0
-0.1850377266181062 0
-0.1884317153905647 0
-0.02414017471495433 0
-0.04625221025773549 0
-0.06660290163063617 0
-0.08546976193628254 0
-0.1029553344424418 0
-0.1191167782863103 0
-0.1471556940153723 0
-0.1594979897163422 0
-0.1709092588615556 0
-0.1813608647442626 0
-0.1907982512357324 0
-0.1992562390194906 0
-0.2068690304587761 0
-0.2134927337755274 0
-0.2191935955280367 0
-0.2240258844693239 0
-0.2280077877070743 0
-0.2310729484599648 0
-0.2332244163672343 0
-0.2345300734536687 0
-0.2349655033702254 0
-0.2344611309977707 0
-0.2330204235411822 0
-0.2307468519203033 0
-0.2274730308134439 0
-0.2232494595907775 0
-0.2181569481270357 0
-0.206361952577441 0
-0.2001584125023861 0
-0.1938613564820808 0
-0.1875454241551064 0
-0.1813184359838174 0
-0.1751433514291431 0
-0.1689223236792921 0
-0.1682679830148249 0
-0.1671904315852298 0
-0.1656812290329551 0
-0.1636979951441683 0
-0.1612921431754621 0
-0.1584926518376571 0
-0.1552392586409342 0
-0.1516150206233025 0
-0.147725620411673 0
-0.1435793527254445 0
-0.1392483444993458 0
-0.1347638993282134 0
-0.1301828897581894 0
-0.1255733183225084 0
-0.1208963056542681 0
-0.1162266129048143 0
-0.1114934750603747 0
-0.1066379556174147 0
-0.101753452772444 0
-0.09659798806083411 0
-0.09119988457213647 0
-0.08556308265190013 0
-0.07978698145467433 0
-0.07383861792404836 0
-0.06787173426130609 0
-0.06177619005077611 0
-0.05569695810595045 0
-0.04956298586321201 0
-0.0433988876481959 0
-0.037220542237 0
-0.03104140074796895 0
-0.02485286417536023 0
-0.01865856413901638 0
-0.01245078688932964 0
-0.006197958359515169 0
-0.1574922517656538 0
-0.1449062818638022 0
-0.1311392800163724 0
-0.1160538804837972 0
-0.09950221814227596 0
-0.08145516673719828 0
-0.06159713665427537 0
-0.03992652535032092 0
-0.01621496486982421 0
-0.01585889953185264 0
-0.01528160760791567 0
-0.01454365290851588 0
-0.01358527797610899 0
-0.01242908360168906 0
-0.01117616950668662 0
-0.009765609537127217 0
-0.008338642548715421 0
-0.006849034855604942 0
-0.005316123790137094 0
-0.003813148272099312 0
-0.002400420966215494 0
-0.001268721756193844 0
-0.0006079728890883579 0
-0.0002661298587613312 0
-0.0001119092262952374 0
-4.510187093459783e-05 0
-1.616490128134398e-05 0
-0.012469348677593 0
-0.009681357362069185 0
-0.007674088611083043 0
-0.006211429235488297 0
-0.005139105655792492 0
-0.005136942282614188 0
-0.005134337054106489 0
-0.005130291160906859 0
-0.005125415104356154 0
-0.005118821150250781 0
-0.005111356348688711 0
-0.005104020222344716 0
-0.005095571245392967 0
-0.005086535811908661 0
-0.00507649236151364 0
-0.005065535215009454 0
-0.005053165477568975 0
-0.00503965469552629 0
-0.005026296666905319 0
-0.005010675640180432 0
-0.004995412735054214 0
-0.004979208185574515 0
-0.004961210370746852 0
-0.004942569978188425 0
-0.004922996745801359 0
-0.004902720511915388 0
-0.00488129343365108 0
-0.004859304915865744 0
-0.004835960891142147 0
-0.004812352914559948 0
-0.004788266275909655 0
-0.004763295832633068 0
-0.004737388671686153 0
-0.004711039225896326 0
-0.004683440974446869 0
-0.00465518000939283 0
-0.004625807617657505 0
-0.004595339643506958 0
-0.004563706544755596 0
-0.004531812100681968 0
-0.004499493474495579 0
-0.004466245560204189 0
-0.004431910917759773 0
-0.004397653101138226 0
-0.004361486593155883 0
-0.004324947359117967 0
-0.004286871938555202 0
-0.004247829900875881 0
-0.004207145535333693 0
-0.004166662585263368 0
-0.004124577853599363 0
-0.004083147076014793 0
-0.004040928398134435 0
-0.003998554135005907 0
-0.003955949554559541 0
-0.003913379612995927 0
-0.003869459202851996 0
-0.003825872246638506 0
-0.003780843281588794 0
-0.00373582379709359 0
-0.003689389328803891 0
-0.003643218037595851 0
-0.003594897536276061 0
-0.003547086133585066 0
-0.003498817913067584 0
-0.003449778672402705 0
-0.003400750477527813 0
-0.003351906012360746 0
-0.003302537671512278 0
-0.003252961929398089 0
-0.003202397040906584 0
-0.003151160492800932 0
-0.003099309457842609 0
-0.003047981306761684 0
-0.002995357982639149 0
-0.002944137088737975 0
-0.002892117423930291 0
-0.002840582290227444 0
-0.002788030719571179 0
-0.002736240533516397 0
-0.002682357734066684 0
-0.002628951169496347 0
-0.002574126581489937 0
-0.002520714131873657 0
-0.002465382437861229 0
-0.002411151720147336 0
-0.002355993760068762 0
-0.002300581717337434 0
-0.00224463680523743 0
-0.002189805804114599 0
-0.002134620920857397 0
-0.002080436700283037 0
-0.002025948484009826 0
-0.001971597525680175 0
-0.001917387000992338 0
-0.00186347667351734 0
-0.00180802388928402 0
-0.00175359627140827 0
-0.001698259022407122 0
-0.00164382455499438 0
-0.001588815838103988 0
-0.001535450947738225 0
-0.001481275650847669 0
-0.001428475422909558 0
-0.001375450149248882 0
-0.001323703122988583 0
-0.001270490398015602 0
-0.001218400295889776 0
-0.001166122749137595 0
-0.001114639940851166 0
-0.001063604986439778 0
-0.001014262500911551 0
-0.0009650775122786965 0
-0.0009179679774781765 0
-0.0008715192453367973 0
-0.0008265824245239031 0
-0.0007824926144018953 0
-0.00074020533154289 0
-0.0006979510627594763 0
-0.0006578841500912808 0
-0.0006179595894893801 0
-0.000579670431375138 0
-0.0005423841836192623 0
-0.0005067827188712881 0
-0.0004722856409010698 0
-0.0004400592417970137 0
-0.000409609937507711 0
-0.0003808529340441818 0
-0.0003538110824632589 0
-0.000328576510218695 0
-0.00030414284990366 0
-0.000281599164954819 0
-0.0002600382733505233 0
-0.0002399608943655699 0
-0.0002208679499589348 0
-0.0002033124855114862 0
-0.0001867281394356782 0
-0.0001717769164043475 0
-0.0001577012607164251 0
-0.0001446541210355509 0
-0.000132623876559249 0
-0.0001215151029020868 0
-0.0001110883690457736 0
-0.0001015070315244153 0
-9.254755794771121e-05 0
-8.43504074516845e-05 0
-7.673599387700246e-05 0
-6.986742493637239e-05 0
-6.350836572194299e-05 0
-5.76393534830786e-05 0
-5.222232662071327e-05 0
-4.73359188348294e-05 0
-4.280616907803108e-05 0
-3.88064098650528e-05 0
-3.513014741294978e-05 0
-3.181255158357515e-05 0
-2.87508505528243e-05 0
-2.597234500174925e-05 0
-2.339088727004802e-05 0
-2.108090024703977e-05 0
-1.892760406935913e-05 0
-1.696712683904501e-05 0
-1.518737124169767e-05 0
-1.357231712525335e-05 0
-1.207218253654312e-05 0
-1.07051855729915e-05 0
-9.432055934829404e-06 0
-8.256423806273656e-06 0
-7.139345549352386e-06 0
-6.105910348186435e-06 0
-5.108490371279648e-06 0
-4.176229819713195e-06 0
-3.295774862562623e-06 0
-2.436815014195444e-06 0
-1.620506412090953e-06 0
-7.984992681004162e-07 0
-0.004091707666357703 0
-0.003054502288477264 0
-0.002027162462216126 0
-0.001008871065496913 0
-0.1479296501837192 0
-0.147456284544771 0
-0.1463156522504596 0
-0.1445222274633806 0
-0.1421545782687077 0
-0.1390302900468693 0
-0.1352101216493926 0
-0.1307284505914479 0
-0.1254708405703431 0
-0.1138068412680194 0
-0.1183508214701378 0
-0.1223441460798183 0
-0.1257520480021811 0
-0.1285611103102184 0
-0.1307326384224762 0
-0.1323983639989382 0
-0.1334738265597578 0
-0.1340108468187362 0
-0.1647113204170662 0
-0.164235934829153 0
-0.1630074487025518 0
-0.1610383784583666 0
-0.1584077334547733 0
-0.1548914909933674 0
-0.1506060720617591 0
-0.1455162219681197 0
-0.1395318538722606 0
-0.129137239281811 0
-0.1345949695174374 0
-0.1392436349981814 0
-0.1431727003933102 0
-0.1464137271975696 0
-0.1488448549771167 0
-0.1506815878287102 0
-0.1518416352750826 0
-0.1523080434310362 0
-0.1795706110720041 0
-0.1790417511822493 0
-0.1777061720182092 0
-0.175562792925196 0
-0.1726771787733291 0
-0.1688796943728014 0
-0.1641460475894706 0
-0.1585797806463142 0
-0.1520402142666825 0
-0.1427990831820909 0
-0.1489352854117421 0
-0.1541522295927451 0
-0.15856611537339 0
-0.1621487941656607 0
-0.1648484988115324 0
-0.1668623036352621 0
-0.1681167538708822 0
-0.1686034332821384 0
-0.1925680893611732 0
-0.191974440367819 0
-0.190531793507825 0
-0.1882328231881297 0
-0.1851403991708254 0
-0.1810505723581139 0
-0.1760128895702997 0
-0.1700602386435853 0
-0.1630911331983778 0
-0.1549363383643172 0
-0.1615933829915764 0
-0.1672640777093971 0
-0.1720866201807359 0
-0.1759566464729887 0
-0.1788986650497102 0
-0.1810832540818855 0
-0.1824464274841826 0
-0.1829917321175595 0
-0.2037651931086718 0
-0.2031100230062756 0
-0.2015724039779853 0
-0.1991418491328862 0
-0.1958820812337172 0
-0.1915591186234079 0
-0.1862866867969864 0
-0.1800377766438996 0
-0.1727463044983872 0
-0.1656337352388403 0
-0.1726928792111111 0
-0.17873111268477 0
-0.1838193557679635 0
-0.187987288551677 0
-0.1911217244975847 0
-0.1934556770519107 0
-0.1949235020492698 0
-0.1955326842697109 0
-0.213214179467752 0
-0.2125080708944966 0
-0.2108942262018226 0
-0.20835880266665 0
-0.2049593241239995 0
-0.2005204516851348 0
-0.1950173723656479 0
-0.1885653720912669 0
-0.1810435499216715 0
-0.1749463895137528 0
-0.1823029372254918 0
-0.18860698464243 0
-0.1939517970567402 0
-0.1983000368558011 0
-0.2016012936725034 0
-0.2040611610656362 0
-0.2056199645266335 0
-0.2062898273809079 0
-0.2209540359101147 0
-0.2202138589325981 0
-0.218547530839018 0
-0.2159411301088464 0
-0.2124528630913819 0
-0.2079072619005735 0
-0.2022791539155981 0
-0.1956868234456363 0
-0.1880125054558129 0
-0.1829094505255738 0
-0.1904761303978103 0
-0.1969700933327802 0
-0.2025106337963149 0
-0.2069804717311957 0
-0.2104056233220723 0
-0.2129619855887859 0
-0.2145912444811685 0
-0.2153070632417222 0
-0.2270190025506186 0
-0.2262594897790206 0
-0.2245652308772987 0
-0.2219225270371503 0
-0.2183889317586764 0
-0.2137609275816734 0
-0.2080936714030813 0
-0.2014263037368611 0
-0.1936701535516308 0
-0.1895492553453026 0
-0.1972503755364904 0
-0.2038664066708414 0
-0.2095154876511472 0
-0.2140806790478636 0
-0.2175853738090562 0
-0.2202041888000237 0
-0.2218798011459735 0
-0.2226260864449155 0
-0.2314233605642968 0
-0.2306603416132257 0
-0.2289624592759701 0
-0.2263167560092994 0
-0.2227849921287986 0
-0.2181059534597553 0
-0.2124762527646108 0
-0.2057933909184039 0
-0.1980262283961855 0
-0.1948810559946967 0
-0.202646908971742 0
-0.209326437432048 0
-0.214980515252166 0
-0.2196351682903783 0
-0.223169997248169 0
-0.2258162255395749 0
-0.2275136410478192 0
-0.2282760764240797 0
-0.2341668889985321 0
-0.2334175864969137 0
-0.2317390460878426 0
-0.229119060875434 0
-0.2256186756565559 0
-0.2210072026265446 0
-0.2154048207708602 0
-0.2087840557923404 0
-0.2010817513088448 0
-0.198911969545387 0
-0.2066703278788457 0
-0.2133449030965829 0
-0.2189672822187155 0
-0.2236401631950762 0
-0.2271669838581642 0
-0.2298088986682134 0
-0.2315039842354562 0
-0.2322644880576618 0
-0.2352432074068629 0
-0.2345201516977754 0
-0.2328828900501007 0
-0.2303191583427117 0
-0.2268870254104942 0
-0.2224142040300721 0
-0.2168788975184743 0
-0.2103930641240814 0
-0.2028326960378024 0
-0.2016421839777018 0
-0.2093161461289984 0
-0.2159075703896579 0
-0.2215081213991814 0
-0.226080569980843 0
-0.2295699673797661 0
-0.2321790725064018 0
-0.2338493818357587 0
-0.2345935875570398 0
-0.2346253183634515 0
-0.2339416830665506 0
-0.2323663958927332 0
-0.2298916736291997 0
-0.226580681745313 0
-0.2222308181329018 0
-0.2168936052520804 0
-0.2106041754519538 0
-0.2032644566580659 0
-0.2030652309665626 0
-0.2105784744951398 0
-0.2170214578537228 0
-0.2225192504946001 0
-0.2269604145537586 0
-0.2303670518664254 0
-0.2329113905640534 0
-0.2345348752852729 0
-0.2352493163454843 0
-0.2322815101735425 0
-0.2316420729363708 0
-0.2301418541337222 0
-0.2277799759089499 0
-0.2246268782343397 0
-0.2204551355510417 0
-0.2153820007019792 0
-0.2093739203254272 0
-0.2023529800143941 0
-0.2031638964794371 0
-0.2104347895421327 0
-0.2166662001933536 0
-0.2219296345762299 0
-0.2262543787840177 0
-0.229525415225246 0
-0.2319733756596642 0
-0.2335305317896485 0
-0.2342024629710094 0
-0.2281705345500629 0
-0.2275658920516062 0
-0.2261414156024716 0
-0.2239066204976503 0
-0.2209347140272551 0
-0.2170324215047991 0
-0.2122574692033239 0
-0.2066370439544194 0
-0.2000560344515911 0
-0.2019112153956555 0
-0.2088345810641054 0
-0.2147514377250575 0
-0.2197712476456984 0
-0.2238662328979094 0
-0.2269808382931631 0
-0.2293122408559518 0
-0.2307928936786632 0
-0.2314224541791396 0
-0.2222452322317341 0
-0.221637707165198 0
-0.2202713673104677 0
-0.2181682469715647 0
-0.2154130311453477 0
-0.2117904170838489 0
-0.2074250057305893 0
-0.2022886187383667 0
-0.1962983391063375 0
-0.1992588692770554 0
-0.20570880710059 0
-0.211222521288148 0
-0.2158875272665518 0
-0.2197382360160455 0
-0.2226537189458962 0
-0.2248548992064889 0
-0.2262620003150516 0
-0.226860967410895 0
-0.2144392249645989 0
-0.2137393412886249 0
-0.2123975473056986 0
-0.2104282638476809 0
-0.2078711259635881 0
-0.2046288163374227 0
-0.2006785285554791 0
-0.1961407651269271 0
-0.1909070786756995 0
-0.1951170089667902 0
-0.2009321560729985 0
-0.2059239581310619 0
-0.2101999323146686 0
-0.213722271043382 0
-0.2164273779190726 0
-0.2184990125163694 0
-0.2198559968449072 0
-0.2204760804445088 0
-0.130842285641037 0
-0.1411855056743189 0
-0.1170653223648934 0
-0.1223989995106175 0
-0.1410274130623966 0
-0.1269681459833546 0
-0.1402207928741468 0
-0.1388019815694882 0
-0.1340810140140883 0
-0.1367507728127375 0
-0.1509795472062475 0
-0.1585839945237342 0
-0.1375048321955346 0
-0.1586597670089063 0
-0.1312906587898914 0
-0.1427999856719921 0
-0.1577514126945374 0
-0.1562028285273581 0
-0.1472882356473108 0
-0.1539343077184846 0
-0.1616941559285345 0
-0.1732415062123028 0
-0.1567630968457131 0
-0.1741428983874636 0
-0.1440357711546876 0
-0.1742383440181736 0
-0.1508983519123525 0
-0.1715547028832177 0
-0.1657744530283901 0
-0.1690674503654452 0
-0.1823152676666918 0
-0.184996394992503 0
-0.1868187398960596 0
-0.1690424082643309 0
-0.1878049333683216 0
-0.1879458122690636 0
-0.1553724817964476 0
-0.1627300343351043 0
-0.1743616741508903 0
-0.1787650669027607 0
-0.1900700952406178 0
-0.1937913700502651 0
-0.1966326747007126 0
-0.1985751625569939 0
-0.199642611644121 0
-0.1730874349336885 0
-0.1998275537046133 0
-0.1653552687112873 0
-0.1797468748698134 0
-0.1854088295039281 0
-0.2035629985260564 0
-0.1889329276168283 0
-0.2099492868106381 0
-0.1740189059291602 0
-0.182024323223684 0
-0.2097177716030949 0
-0.2085806167078033 0
-0.2065386319372877 0
-0.1947822856337564 0
-0.1996394097875144 0
-0.2147738285003458 0
-0.2026749199326911 0
-0.2183355571233807 0
-0.1813885942977777 0
-0.1895809884918385 0
-0.218076311677048 0
-0.1966628113085962 0
-0.2168884159960404 0
-0.2076693149869621 0
-0.2117031562598443 0
-0.2182525121095401 0
-0.2213790911665176 0
-0.2090672575230482 0
-0.2235369386862239 0
-0.2029689503724537 0
-0.2250334139782921 0
-0.1874795364504747 0
-0.1957837830782121 0
-0.2247558560157744 0
-0.2141430138669357 0
-0.2191347914791318 0
-0.2263761205539129 0
-0.200646657105889 0
-0.1923037659951084 0
-0.2300665929725225 0
-0.229778115948003 0
-0.2078705085573287 0
-0.2285479279047943 0
-0.2140320507627818 0
-0.2232348626156082 0
-0.2225664651205654 0
-0.2266443550926938 0
-0.2041717871669879 0
-0.2334269438796558 0
-0.1958652379821545 0
-0.2331479979827867 0
-0.2113607879202867 0
-0.231927139907756 0
-0.229768258408059 0
-0.2174908132138105 0
-0.2284723144748561 0
-0.2315475331053938 0
-0.2336676350581548 0
-0.1981653136248559 0
-0.2351259473808094 0
-0.2063557836027802 0
-0.2348613431600034 0
-0.2134336805759338 0
-0.2194353325306583 0
-0.2244289875622443 0
-0.2348975593008343 0
-0.1991939064463976 0
-0.2351369925350857 0
-0.2071878454285656 0
-0.2140841892988569 0
-0.2337483472377986 0
-0.2316938890237512 0
-0.2199244171296491 0
-0.22477929858874 0
-0.2287080896450817 0
-0.2235746409827057 0
-0.2132739887263555 0
-0.233223905503287 0
-0.2066411576259885 0
-0.2334281255730128 0
-0.1989369061174947 0
-0.2321317196654955 0
-0.2301649162675414 0
-0.2189180037912801 0
-0.2273047962345311 0
-0.2241802356254446 0
-0.2268950398479646 0
-0.2299794413710963 0
-0.1973749279749641 0
-0.2046694797520808 0
-0.2297977046505116 0
-0.2109298940223642 0
-0.2287628715828188 0
-0.2162112782160671 0
-0.2206076613760127 0
-0.215965437074217 0
-0.2217968191442529 0
-0.2118911288779012 0
-0.2235662545349449 0
-0.2069709992500577 0
-0.2011984195912284 0
-0.1944683066323286 0
-0.2247393268098671 0
-0.2245612378163636 0
-0.2192514424660734 0
-0.2123703938899166 0
-0.2056159430309359 0
-0.2164327355245436 0
-0.2012286130072443 0
-0.2174374219213037 0
-0.190131516609155 0
-0.2177089772759847 0
-0.1960840132462449 0
-0.2147478114328675 0
-0.209312043771863 0
-0.07642784737439605 0
-0.1250481459737224 0
-0.1497891309063133 0
-0.1156568136465047 0
-0.09507057976415224 0
-0.1468206747340716 0
-0.1619877614012962 0
-0.1262390043058164 0
-0.03965311331525823 0
-0.1662283542656907 0
-0.0928289962742283 0
-0.0473737598539772 0
-0.1720218424862466 0
-0.1465338057188378 0
-0.05175364675279533 0
-0.1033203325193928 0
-0.06632284415729371 0
-0.1667181961246628 0
-0.1250705623949369 0
-0.1182144783954315 0
-0.1871249038001975 0
-0.05442931473112567 0
-0.08644377600656608 0
-0.07637836846303965 0
-0.1623263333162908 0
-0.1749079088309204 0
-0.1792865281656578 0
-0.1242524151881078 0
-0.04832154786248013 0
-0.1421692605637621 0
-0.1105719154530379 0
-0.02208995006680296 0
-0.1435187022221453 0
-0.1421037190406775 0
-0.1634450366944405 0
-0.1330885457279624 0
-0.1769514288192736 0
-0.1485138663170853 0
-0.1804220065928689 0
-0.02431625987875588 0
-0.05012816505274824 0
-0.06425410075998114 0
-0.09470891079977931 0
-0.07827338562154942 0
-0.1360153936080667 0
-0.08608479202404905 0
-0.106002459908444 0
-0.1112362514241029 0
-0.06390569125289514 0
-0.1563409182213136 0
-0.03113870066701383 0
-0.098924784810831 0
-0.160252147370487 0
-0.1352591224726995 0
-0.09960022171713756 0
-0.08549406716251322 0
-0.07454667450705894 0
-0.154157202958828 0
-0.1832560095118866 0
-0.0618466217665772 0
-0.02448123095809321 0
-0.1788887235980814 0
-0.1118702684306747 0
-0.1102035993381046 0
-0.1551387362003767 0
-0.173757748775523 0
-0.177946174601522 0
-0.1318835155751828 0
-0.06416720377096609 0
-0.1365002825502228 0
-0.1746762120021029 0
-0.1487976072719333 0
-0.1918039901328659 0
-0.03530644146120729 0
-0.1609298709070691 0
-0.1975822632719154 0
-0.1101200328912437 0
-0.0172019578557054 0
-0.1296738083568517 0
-0.07852808893419591 0
-0.183885106389974 0
-0.0368415167841925 0
-0.09863171144399403 0
-0.07962311566259575 0
-0.03114048054030012 0
-0.1127404900677755 0
-0.08569163190477803 0
-0.1350119864992532 0
-0.1007305639811286 0
-0.0895871073211925 0
-0.05364113890556494 0
-0.1252786495298349 0
-0.1002454055426682 0
-0.1859028923123973 0
-0.1572088703434386 0
-0.1736819925093065 0
-0.1169814169806488 0
-0.03693347088146465 0
-0.07910069678979972 0
-0.1685584245386541 0
-0.0293608436676473 0
-0.08815919724186615 0
-0.1713972292112992 0
-0.1587755803711654 0
-0.1502178702811109 0
-0.1558713789592105 0
-0.1391878137894575 0
-0.07367755914668236 0
-0.1236096233096596 0
-0.1256906812419216 0
-0.1770758386147497 0
-0.01224166232376551 0
-0.1789421371845013 0
-0.1824887844043758 0
-0.09802168845238199 0
-0.1195426087003177 0
-0.06219188332416797 0
-0.1883720515937534 0
-0.1655069732488119 0
-0.023987880144418 0
-0.04193126056779384 0
-0.03802960074849129 0
-0.1997996967907611 0
-0.1324224747540003 0
-0.08449557977421683 0
-0.1353988086775227 0
-0.06335722779682884 0
-0.1037966432919404 0
-0.1188209232417799 0
-0.1678286884692362 0
-0.1258273831789589 0
-0.1518497947986449 0
-0.1451429181018438 0
-0.1453030685980159 0
-0.09300975125848165 0
-0.1630499356667824 0
-0.03236652629324707 0
-0.181037532504093 0
-0.1842929476557563 0
-0.1548378407442722 0
-0.1883843729246807 0
-0.1026185673211786 0
-0.1470575999695646 0
-0.1469398497909683 0
-0.02845857476227319 0
-0.07528475584891994 0
-0.1389927324092065 0
-0.1766314772822958 0
-0.07070521020954181 0
-0.1351407288499121 0
-0.01135050745981461 0
-0.1535671331617069 0
-0.177779577883202 0
-0.02555252338965514 0
-0.04970064305286545 0
-0.1881495449072339 0
-0.0266023603688307 0
-0.01502668698474387 0
-0.1250017330324673 0
-0.0450104208475644 0
-0.04763107208395571 0
-0.1405816328082337 0
-0.1187180781758633 0
-0.1644915616265728 0
-0.1352166885339149 0
-0.1221301342662997 0
-0.1578987135680702 0
-0.03352426412946487 0
-0.1697358667026127 0
-0.05526526845635098 0
-0.04446571507380299 0
-0.04267928772206508 0
-0.07145606985350697 0
-0.1773444771356655 0
-0.0121383907018877 0
-0.1650284436679933 0
-0.09871095584705702 0
-0.118129058304303 0
-0.05493751064623172 0
-0.09031242996890275 0
-0.05879214456041357 0
-0.08695458143083336 0
-0.06563579963460174 0
-0.1679056521129945 0
-0.1697251941010565 0
-0.1119957291200275 0
-0.1048406871401069 0
-0.1027678563774661 0
-0.07064584137658936 0
-0.1538845524869097 0
-0.07554126688945061 0
-0.160078701302844 0
-0.09492708517413524 0
-0.07935403243640407 0
-0.1305479359166136 0
-0.1705364530876721 0
-0.2053366379292129 0
-0.05378919778190936 0
-0.1082193921679249 0
-0.1070858596482958 0
-0.1707814278825603 0
-0.1835236326628201 0
-0.06174436992516163 0
-0.1767426785349558 0
-0.1415503070286968 0
-0.1730855869786988 0
-0.1638343236507295 0
-0.1890393263072631 0
-0.07571961874558576 0
-0.1461690931771267 0
-0.08083530873155499 0
-0.1110404136823594 0
-0.01479006913561269 0
-0.01785613326119837 0
-0.1411839273063175 0
-0.1315190213195631 0
-0.1329350163936409 0
-0.102624373470191 0
-0.1122875275783408 0
-0.1531170791889454 0
-0.09463755332787958 0
-0.07154985522458797 0
-0.06957508215087418 0
-0.1255258365914115 0
-0.1459919996644963 0
-0.1052624745871286 0
-0.08957857264010309 0
-0.0915192414117204 0
-0.1639447876637746 0
-0.1485957984021034 0
-0.1170307006205904 0
-0.08104869217153737 0
-0.09497138825260419 0
-0.1592899768131246 0
-0.1790391402990186 0
-0.1875001654943477 0
-0.1890388143540831 0
-0.0349162597970547 0
-0.1840001674111843 0
-0.1871648696139733 0
-0.1776470957953026 0
-0.1091560722931668 0
-0.1425195006811955 0
-0.02454695076548122 0
-0.09300114989955845 0
-0.1605101671227217 0
-0.1381038607741098 0
-0.1091715252312621 0
-0.1695446541694516 0
-0.1724883457923497 0
-0.1079766061541948 0
-0.1572129035282201 0
-0.1842387472751035 0
-0.1168933855864199 0
-0.183327498790484 0
-0.1784519006178786 0
-0.1365777454122852 0
-0.09390320779757813 0
-0.1174123431231365 0
-0.1294382912138452 0
-0.1016390766965988 0
-0.1544138739430182 0
-0.1267143889029358 0
-0.1546107452703098 0
-0.1795642757895048 0
-0.06169456209877985 0
-0.05593781168130404 0
-0.1734157987869681 0
-0.05338290896292426 0
-0.04534185531919055 0
-0.02550279499169314 0
-0.1898208100685606 0
-0.1183657021416023 0
-0.195107644026132 0
-0.2007832705280654 0
-0.1650154862662939 0
-0.1309416858191762 0
-0.1394383194948128 0
-0.08860058963465155 0
-0.01675420191155755 0
-0.1968391303447368 0
-0.1790848330385572 0
-0.1097414986389973 0
-0.1167521299889523 0
-0.05675269555529752 0
-0.1873094166434535 0
-0.2047540291505517 0
-0.1501882071120846 0
-0.07402756875922753 0
-0.1901030720167315 0
-0.0656576277917906 0
-0.01862771378937142 0
-0.05846447901370817 0
-0.03717990929092009 0
-0.01930527574441127 0
-0.1577008877920346 0
-0.112046595428264 0
-0.04975705741565272 0
-0.01809850801140077 0
-0.1100419712606263 0
-0.1280224825111001 0
-0.157948223519614 0
-0.1918774372669328 0
-0.1475152175927341 0
-0.03324021276195292 0
-0.1675540023897093 0
-0.1395631532688281 0
-0.07071538770349235 0
-0.05201850072658944 0
-0.04285205044074106 0
-0.1480066396751408 0
-0.09059333245368796 0
-0.1178219064120373 0
-0.04285676577039074 0
-0.008396552998190709 0
-0.08062158506378812 0
-0.02911241641047657 0
-0.1693457072392786 0
-0.08578268210679622 0
-0.1880548311680594 0
-0.1821998991051239 0
-0.151663207864455 0
-0.09680431235244977 0
-0.1823956213996602 0
-0.0137669160695554 0
-0.1509518872626073 0
-0.1160597153568404 0
-0.13332579993289 0
-0.1158451215309812 0
-0.1553846802084242 0
-0.1830418652843485 0
-0.09189346676514794 0
-0.1498210372104635 0
-0.007000532440588726 0
-0.1398133003841369 0
-0.1668122239572069 0
-0.1262245608486117 0
-0.1288582532637243 0
-0.0241952116270368 0
-0.05043768860914501 0
-0.07320544685068964 0
-0.1020461864066415 0
-0.08275391369815702 0
-0.08637432945172106 0
-0.1945529926227928 0
-0.129513248865843 0
-0.007032113641304627 0
-0.02073535209211756 0
-0.1197127413301538 0
-0.1217914768693902 0
-0.04009184562958094 0
-0.1221694450414312 0
-0.1743749480983103 0
-0.1300536625341849 0
-0.1567417477179651 0
-0.1463843198475238 0
-0.1872005938019339 0
-0.1382814836024796 0
-0.0677582307498192 0
-0.03168724051658571 0
-0.09775610707645417 0
-0.1737622914268457 0
-0.1616449120978773 0
-0.18837785558989 0
-0.07726328099384767 0
-0.2296538525981451 0
-0.03831038991279486 0
-0.08479523980615566 0
-0.1183003636535268 0
-0.137816687751555 0
-0.1303522364875918 0
-0.04760547071234453 0
-0.1523281005363353 0
-0.1825014441034434 0
-0.1859140802853945 0
-0.1022595584576647 0
-0.1228616838742782 0
-0.180330589396236 0
-0.08336824911091667 0
-0.1155618149964211 0
-0.1431980130821199 0
-0.1920065250780379 0
-0.05950745574189827 0
-0.02118568297122438 0
-0.1029483293707636 0
-0.1082014784969055 0
-0.1409347517570361 0
-0.163220674759339 0
-0.1771847352621376 0
-0.1356271464578021 0
-0.09962996427903238 0
-0.08297144261317742 0
-0.06079246483892323 0
-0.1439527822861265 0
-0.1526684749654401 0
-0.1697633866468541 0
-0.01496179232304905 0
-0.1623034974050089 0
-0.125049112098183 0
-0.1190099353957474 0
-0.1370866865555877 0
-0.1832579350401576 0
-0.1778652873339455 0
-0.1721136791113821 0
-0.008480906806079528 0
-0.1840102198641652 0
-0.1850156865753391 0
-0.1735076312941229 0
-0.09329577137771647 0
-0.2297120010324405 0
-0.2092248751849885 0
-0.05696257428899025 0
-0.1323519779989905 0
-0.1730337744825874 0
-0.1684681485297581 0
-0.06903819296221766 0
-0.04989230350312127 0
-0.05578060538363135 0
-0.1208571452202335 0
-0.1026084571655189 0
-0.0191275825068827 0
-0.09657101737379013 0
-0.04530322771125814 0
-0.1222942183221379 0
-0.209298164137347 0
-0.09814369526914907 0
-0.0405432859492434 0
-0.09418270587434897 0
-0.1787543499967117 0
-0.1238254347968489 0
-0.1501283097438605 0
-0.1932320418581114 0
-0.1868436927277039 0
-0.2347724498429983 0
-0.1576339721873339 0
-0.07018741038510412 0
-0.105414008121264 0
-0.1724243185585409 0
-0.166493317113388 0
-0.1311841530107206 0
-0.1113992109639657 0
-0.1623462598275855 0
-0.04120357351955376 0
-0.09993680509804995 0
-0.03337843720971047 0
-0.1575124502270938 0
-0.1479842644501455 0
-0.03735070812288698 0
-0.08328697621123538 0
-0.1787477240568897 0
-0.1558138022249921 0
-0.01970165970029467 0
-0.08553030516868333 0
-0.1503513751638176 0
-0.1730339545296771 0
-0.1407068274653001 0
-0.03550153059952234 0
-0.006554269184592033 0
-0.153537689380283 0
-0.1014919335601337 0
-0.04382029552200469 0
-0.1461968749026174 0
-0.1686744533970254 0
-0.1716355219741171 0
-0.08868961487217059 0
-0.06908441655903946 0
-0.03171343608096884 0
-0.1063382359219534 0
-0.04543449138600849 0
-0.07251528257382814 0
-0.1703852375680433 0
-0.1686954845407045 0
-0.05967761852444214 0
-0.07298470196664586 0
-0.06755299633766605 0
-0.03038160306482316 0
-0.1101659325844738 0
-0.1007841843076251 0
-0.1151021948519599 0
-0.06309941984200786 0
-0.04514820692317806 0
-0.1256461644465116 0
-0.01868414953288825 0
-0.009681798808367843 0
-0.1783599520778331 0
-0.0972903630774912 0
-0.1909844819089104 0
-0.1549152939168578 0
-0.06555676837312906 0
-0.04261028710268701 0
-0.1423155674248612 0
-0.0548280217212961 0
-0.06415212808631281 0
-0.02629326021107387 0
-0.07842039920315391 0
-0.08397812064697305 0
-0.1649773483126623 0
-0.08585083635446911 0
-0.1429558612913988 0
-0.1907034707533546 0
-0.13079395828164 0
-0.1213291460577277 0
-0.1334736460188987 0
-0.2059983037032395 0
-0.1409291990375518 0
-0.05889924809405384 0
-0.01293323247970628 0
-0.08204355404803701 0
-0.07888535328572181 0
-0.1603921485930011 0
-0.05235229483466516 0
-0.2087727336922516 0
-0.07100358509891055 0
-0.1022020001821293 0
-0.03801546615422267 0
-0.1163885483404543 0
-0.02877516164255792 0
-0.0756103161652701 0
-0.1110674283026657 0
-0.1800326669686609 0
-0.1749181754203196 0
-0.1326566106544336 0
-0.1713563316013847 0
-0.12211943220173 0
-0.1889756415963965 0
-0.1731930602470625 0
-0.161259054653719 0
-0.09145183074114117 0
-0.1321850119260063 0
-0.1529772307868677 0
-0.127161292060624 0
-0.07252046410197463 0
-0.03995696080714497 0
-0.2014052193110802 0
-0.1597260479838003 0
-0.1456836803441443 0
-0.1587757122456451 0
-0.01770403619373771 0
-0.05784651533365438 0
-0.1240620485160511 0
-0.1740113016016549 0
-0.05040945132311118 0
-0.1785739012743294 0
-0.18487361235126 0
-0.1819845206722931 0
-0.1832534396731597 0
-0.01678142135387954 0
-0.1203202559745833 0
-0.08158115526974102 0
-0.01191079502507083 0
-0.1761623580887778 0
-0.1334544486382421 0
-0.1130645470329563 0
-0.1364599014511483 0
-0.1205202440286898 0
-0.0873935208062072 0
-0.1056439828776313 0
-0.04091991130706191 0
-0.1598515942191591 0
-0.1480879190407946 0
-0.1731784545604251 0
-0.166272894243606 0
-0.113019632562361 0
-0.02746243806261451 0
-0.1527215417802923 0
-0.08699861977832532 0
-0.1148897386714041 0
-0.1819632818627872 0
-0.1553759709071688 0
-0.05499000951796966 0
-0.1231596979837341 0
-0.1418456456960842 0
-0.007562433572821986 0
-0.1041355535983979 0
-0.1243134698724861 0
-0.1677377373918835 0
-0.0403193417367435 0
-0.1676622120330598 0
-0.176652699315362 0
-0.1220106272663967 0
-0.168497938454817 0
-0.1180379637977694 0
-0.1270735040126168 0
-0.09848001436815806 0
-0.1432363754573445 0
-0.005066013549652262 0
-0.1352965087251973 0
-0.1523712461740279 0
-0.02386027957309762 0
-0.1455437403397021 0
-0.1753579833864682 0
-0.1514780748187947 0
-0.1407476662560785 0
-0.08078156636409646 0
-0.01381954969714439 0
-0.1358230627468269 0
-0.1634195297774729 0
-0.1666310712644903 0
-0.09702827855287165 0
-0.1398141951372022 0
-0.0802073535849163 0
-0.1830522674197403 0
-0.1272285753734505 0
-0.06820965457960768 0
-0.03260257194062977 0
-0.07696586376146904 0
-0.07322710498162732 0
-0.2030799933882759 0
-0.02658431568432772 0
-0.1731362026366982 0
-0.08745413187588309 0
-0.1158949644862745 0
-0.1166830447550453 0
-0.03588017745718956 0
-0.08226309175382203 0
-0.1417317127835314 0
-0.1111693580484524 0
-0.1072985913031869 0
-0.07203898529846185 0
-0.1765655379261019 0
-0.1137522186553114 0
-0.1427225236599803 0
-0.1731600994472239 0
-0.00555829650378851 0
-0.05217213780640061 0
-0.1838912983455454 0
-0.1865793676070702 0
-0.0671667568011784 0
-0.1690474032137183 0
-0.01037108554286561 0
-0.1320798822420525 0
-0.1159042879632049 0
-0.08010206001639381 0
-0.1262366490877473 0
-0.1478583942937141 0
-0.19069165386621 0
-0.179383337633151 0
-0.145173417556703 0
-0.1831964654508403 0
-0.04874332785923292 0
-0.09531605106162819 0
-0.007312263094114766 0
-0.1650873848412797 0
-0.06059780076920881 0
-0.1220779997391062 0
-0.06260059834976593 0
-0.1589038769471631 0
-0.09110647002949911 0
-0.005426366461273108 0
-0.1510190940689102 0
-0.1054751789215681 0
-0.1032007270018054 0
-0.03055019749438526 0
-0.07340727864870318 0
-0.1105143760916991 0
-0.1294678802969828 0
-0.01394301840873757 0
-0.1494499006958268 0
-0.0683323704020749 0
-0.1583018874994694 0
-0.07094696429749579 0
-0.09590990569727031 0
-0.1655355109825059 0
-0.1619278870954891 0
-0.0625663159010597 0
-0.1512603234420016 0
-0.03554526441591623 0
-0.1587290494521791 0
-0.1371391223960868 0
-0.07513273107083801 0
-0.08455734217572458 0
-0.1356905431839206 0
-0.1458745426813667 0
-0.06560332845946944 0
-0.171502028664877 0
-0.07920202573021821 0
-0.08972940770935958 0
-0.1009321916124624 0
-0.105663210368982 0
-0.09713135886558394 0
-0.1685290122816831 0
-0.1868537429168387 0
-0.1797156396060833 0
-0.1654847770939161 0
-0.162043133651865 0
-0.1104016302290527 0
-0.07777916861618353 0
-0.1730419773449937 0
-0.02678622090428051 0
-0.1586153413685766 0
-0.2027797527845859 0
-0.0229074818297237 0
-0.1866858290874271 0
-0.1401195090478115 0
-0.137134198380761 0
-0.1997061480109094 0
-0.1320413783558731 0
-0.05664047534822324 0
-0.1446304667290189 0
-0.1584388650894712 0
-0.0453442779974217 0
-0.1074601301012859 0
-0.1640989180488838 0
-0.1723760682587907 0
-0.1093884207542402 0
-0.1060883000653885 0
-0.1418614388024116 0
-0.0118292287147419 0
-0.1807184299919451 0
-0.1648225337022488 0
-0.05379766704742663 0
-0.1373061443848382 0
-0.1788937410343458 0
-0.1694914434864513 0
-0.1540020943332097 0
-0.1629585237333512 0
-0.1772282242694481 0
-0.0561541777311373 0
-0.1560066202907461 0
-0.1864204656510488 0
-0.1039095690723427 0
-0.1964708381313496 0
-0.1567170799039359 0
-0.137769147126808 0
-0.1290561944975183 0
-0.1574594681325674 0
-0.0540048732683113 0
-0.02073901540321145 0
-0.1400467507028492 0
-0.03944386703057606 0
-0.1047182589620325 0
-0.1725292404462744 0
-0.07035860392140052 0
-0.162547135965219 0
-0.0133787386302222 0
-0.183324430840504 0
-0.09759861507408223 0
-0.1264935952851036 0
-0.1241780188221526 0
-0.06744862236945399 0
-0.02486590187268575 0
-0.1292958782899547 0
-0.1399402380147219 0
-0.09063275873597457 0
-0.03805187626382413 0
-0.1086934158532071 0
-0.09433513591510788 0
-0.01961362877498392 0
-0.146178685656908 0
-0.1225493970632013 0
-0.1800537042076939 0
-0.04703721344013125 0
-0.03474113945684446 0
-0.1120916890487125 0
-0.1911359912170968 0
-0.06826933374312415 0
-0.17159732746992 0
-0.1370349167388741 0
-0.06251248061331931 0
-0.1293642613477801 0
-0.1297763326655371 0
-0.08683288154338399 0
-0.2053731012747806 0
-0.09914053641131172 0
-0.05622530154428356 0
-0.09958916036817952 0
-0.1208432658566769 0
-0.2099966930882292 0
-0.01111573165276829 0
-0.200956332374463 0
-0.08624935117896089 0
-0.1991132431675245 0
-0.1084239311403137 0
-0.05221707886462368 0
-0.08689746545596869 0
-0.08993751093703271 0
-0.1609230177237302 0
-0.007572218078669346 0
-0.1550736978171465 0
-0.04799839719919945 0
-0.1323867648428709 0
-0.1909643165355372 0
-0.1722712224117283 0
-0.174944902891636 0
-0.1508579028411151 0
-0.1906198408883754 0
-0.1274678860424207 0
-0.1433256328658038 0
-0.1862219172545017 0
-0.04819250853822942 0
-0.1815874586647456 0
-0.1906803510735811 0
-0.1849231178566911 0
-0.1632700288193262 0
-0.2050892289542239 0
-0.2314410719472846 0
-0.1886110186159369 0
-0.1465136943128544 0
-0.1790123838513272 0
-0.08632728895904151 0
-0.06767778019030389 0
-0.1902313479293697 0
-0.08980235662581068 0
-0.07494944646079149 0
-0.0157173977562261 0
-0.1128811198353835 0
-0.186457547271842 0
-0.1854331380826099 0
-0.1751350376154448 0
-0.08930652839286451 0
-0.01929827488541693 0
-0.1864444055899429 0
-0.192859165725019 0
-0.1160369602454933 0
-0.1303291136547898 0
-0.1964389607060424 0
-0.1769437297321016 0
-0.1695700780905836 0
-0.1678148487320928 0
-0.06311087821476584 0
-0.1172413067672313 0
-0.1110621596394525 0
-0.06709812542670582 0
-0.1658014286897875 0
-0.1449924847524464 0
-0.0920359873435692 0
-0.2094301781615885 0
-0.05511162518854094 0
-0.1229414066226343 0
-0.03032763443521646 0
-0.1194800874915548 0
-0.04958434517653511 0
-0.1867650410393885 0
-0.1093605493391421 0
-0.06575083347377005 0
-0.142292071705383 0
-0.1504923166985086 0
-0.1742475811844043 0
-0.1626009659968724 0
-0.1080816265618902 0
-0.1512277123097871 0
-0.1474408608627607 0
-0.09363048556621775 0
-0.1217536905157622 0
-0.1833863007782247 0
-0.1202705625252463 0
-0.1613373906826333 0
-0.1904820208411006 0
-0.1513418590605454 0
-0.1210372527966195 0
-0.1611588077000776 0
-0.05109518492567659 0
-0.04417689767920063 0
-0.1432401916500549 0
-0.09709146499711117 0
-0.003699869346926499 0
-0.1066234726334261 0
-0.0746716508054235 0
-0.06109331301114779 0
-0.0395452326785087 0
-0.08955067273124546 0
-0.02901392768370236 0
-0.08858026244688119 0
-0.08251784406606487 0
-0.06222897741664818 0
-0.04915945251389146 0
-0.06795431000096867 0
-0.04280684746758943 0
-0.02022304986769044 0
-0.1225134678387176 0
-0.1154531926885332 0
-0.1065302284532553 0
-0.09078804189715152 0
-0.04110470917004583 0
-0.08323063431759634 0
-0.0603317680164357 0
-0.04310844356681368 0
-0.04791319133494017 0
-0.05439558473944664 0
-0.1344833892437945 0
-0.03297567152116299 0
-0.1256675792143793 0
-0.02310814468423735 0
-0.1038818651415674 0
-0.01295700071554927 0
-0.06910041600520878 0
-0.1432940628435783 0
-0.01315035636231372 0
-0.07337758666693633 0
-0.08236260271258328 0
-0.07825676832258756 0
-0.06811169812306062 0
-0.03904713980794603 0
-0.08729382734655387 0
-0.05180100445583834 0
-0.03810519920381798 0
-0.05422943517336518 0
-0.01827711539829936 0
-0.03053340742186504 0
-0.01325136209403808 0
-0.09688199427927567 0
-0.1256620862256816 0
-0.09760986901766186 0
-0.106589572460282 0
-0.118517930912025 0
-0.1374748935799195 0
-0.05105730622659655 0
-0.14460075620244 0
-0.02331555713129313 0
-0.05917377276547999 0
-0.01000219882718994 0
-0.1190028094965727 0
-0.04186900343534395 0
-0.07811339250168572 0
-0.1135439515829031 0
-0.03098384113129448 0
-0.09164035954743027 0
-0.06296603663555249 0
-0.104420312917207 0
-0.09135073454852606 0
-0.0579745786843796 0
-0.1098027171065271 0
-0.02385208058547271 0
-0.05265017805672544 0
-0.05093719359504664 0
-0.07038597319436299 0
-0.003386006906916751 0
-0.04744329594021337 0
-0.05376134222785105 0
-0.08052433611414755 0
-0.06391445220134631 0
-0.1515816641155081 0
-0.008594269501353585 0
-0.1061173530223386 0
-0.02066235736450971 0
-0.08754944940354531 0
-0.02399609905990111 0
-0.149047229863161 0
-0.03364346003216385 0
-0.07021817640205323 0
-0.1378182619278248 0
-0.1139538584983795 0
-0.1025180114467692 0
-0.04226551483889109 0
-0.009160958291533893 0
-0.0362464019980856 0
-0.03612799465584344 0
-0.02768417483607895 0
-0.03258795990403664 0
-0.03366269860601744 0
-0.03727604733565848 0
-0.1069322373720782 0
-0.1277427559949297 0
-0.09735765809606373 0
-0.01814339677436298 0
-0.01399735486525118 0
-0.03923296732419329 0
-0.1564487044795369 0
-0.01452135484684999 0
-0.0657186813870675 0
-0.06077386468340742 0
-0.008092220295294132 0
-0.07945137216685957 0
-0.0846886046802986 0
-0.02082205532344781 0
-0.07397245626434074 0
-0.0706504266942673 0
-0.06948396530185035 0
-0.03784295195621312 0
-0.05790880894102073 0
-0.09894139909279072 0
-0.09046265543265489 0
-0.0524954614413437 0
-0.01226843841410737 0
-0.1399996789739465 0
-0.006184344109224484 0
-0.1473966351939387 0
-0.135169158313543 0
-0.1441665676706088 0
-0.04230043481244029 0
-0.1054147914984514 0
-0.08649763143628064 0
-0.006425537659534865 0
-0.107722527803348 0
-0.1539071284682982 0
-0.02734172381444753 0
-0.08000915955946769 0
-0.08608210789708717 0
-0.1557505247727318 0
-0.0211333864111393 0
-0.05133352287319248 0
-0.1221484608483214 0
-0.04564417299231077 0
-0.02274161650506359 0
-0.05320100834813827 0
-0.03613061853550165 0
-0.08512299525431311 0
-0.07375602530489463 0
-0.05653551522567472 0
-0.1250398243604943 0
-0.1318251750271359 0
-0.1024279396006186 0
-0.02617986747581529 0
-0.1125396717862317 0
-0.01540526901266346 0
-0.07437232046083514 0
-0.09915359852326354 0
-0.1043099116589304 0
-0.02566570380369717 0
-0.1210882577065475 0
-0.04435215014864522 0
-0.1164507897472429 0
-0.07729757203468252 0
-0.06746629553741253 0
-0.114060674802366 0
-0.05704340866248597 0
-0.0756742979156959 0
-0.09879155172320178 0
-0.0397912803665142 0
-0.09216180719178593 0
-0.1363690838931937 0
-0.01876792900152402 0
-0.1365565835992133 0
-0.09065869705733857 0
-0.03088397889116779 0
-0.1486154983648568 0
-0.1343757928764203 0
-0.03825219304662415 0
-0.1237450899467275 0
-0.07557202490484895 0
-0.06926164131803289 0
-0.07915060611233837 0
-0.04569970310161655 0
-0.09256207104844212 0
-0.09318602921146556 0
-0.005596039857002305 0
-0.03517101241071852 0
-0.009226593176686341 0
-0.0444563050306188 0
-0.03924940842674863 0
-0.03213254132917334 0
-0.02672671610431408 0
-0.06269049281250864 0
-0.01687783839668389 0
-0.05576187376910775 0
-0.0314768271210422 0
-0.06237280193484891 0
-0.1430563871529487 0
-0.1008446332366245 0
-0.02905836101304701 0
-0.1264777367552371 0
-0.03410269093664639 0
-0.00396301405394734 0
-0.1124887690740234 0
-0.1305955421645253 0
-0.01322617503293564 0
-0.08650216894148896 0
-0.126013272998857 0
-0.005084158477226187 0
-0.03239122285612589 0
-0.001450781735657133 0
-0.01013879334084908 0
-0.02659566640228264 0
-0.03336216353851069 0
-0.03926361556547098 0
-0.07180825068593955 0
-0.1150084636438886 0
-0.09491332156220533 0
-0.05968298429914469 0
-0.0640772378356903 0
-0.07342260607969905 0
-0.1188790249258797 0
-0.1242540084823588 0
-0.05434241930142909 0
-0.0960500576284488 0
-0.03038745440055374 0
-0.00515906243509626 0
-0.06430123591475842 0
-0.03159701710154996 0
-0.04867866253045761 0
-0.1165367651570425 0
-0.05252100781796733 0
-0.09137388423905808 0
-0.02031238904909935 0
-0.08269365956706561 0
-0.01405628311469359 0
-0.05809010187125576 0
-0.1341608296130223 0
-0.05601211428082763 0
-0.1274823435126624 0
-0.05967103616782232 0
-0.05068033459275179 0
-0.08154719727172005 0
-0.160414128352237 0
-0.00444150633220183 0
-0.1184113512867699 0
-0.1066679182209216 0
-0.02578789500099616 0
-0.06348531279217147 0
-0.1132151003935869 0
-0.1469661894464805 0
-0.08379324566504308 0
-0.01818447613018745 0
-0.1611931230920333 0
-0.009238118238335662 0
-0.01981212023488249 0
-0.02130907256254711 0
-0.1509080455060481 0
-0.003877516983241117 0
-0.03051376641947911 0
-0.05362033840838018 0
-0.00882945490261863 0
-0.0674168405391781 0
-0.03731976929746757 0
-0.102748459318147 0
-0.0702316697855441 0
-0.02741257361813513 0
-0.04730867650114595 0
-0.04784621308971616 0
-0.04850405217149814 0
-0.05560184668836014 0
-0.01231943216196749 0
-0.07586930422068573 0
-0.011317816992796 0
-8.869447604597642e-06 0
-1.739010164719572e-05 0
-0.01018619063764465 0
-3.150270200481339e-05 0
-4.804496164287423e-05 0
-8.741695977418277e-05 0
-0.0001480118573786453 0
-0.000227028653124688 0
-0.0003792528023976031 0
-0.0005338456152710549 0
-0.0008258066203165984 0
-0.001107878463787897 0
-0.001576525108050117 0
-0.002043599383296884 0
-0.002444985230170344 0
-0.003050852476157326 0
-0.003469415768253215 0
-0.004098848611715392 0
-0.004825849295140711 0
-0.005211607380605238 0
-0.005767795337019706 0
-0.006159050852318943 0
-0.006736024475793872 0
-0.007093303326416489 0
-0.007830955483074666 0
-0.008336230734907168 0
-0.008371126120045591 0
-0.008852183711231981 0
-0.00897721141130388 0
-0.009304578287432448 0
-0.009450375971717578 0
-0.009809170033788468 0
-0.007298747038668442 0
-3.138937861995367e-06 0
-0.008896387539254444 0
-1.012058978129576e-05 0
-0.008073303001615633 0
-5.101723190125077e-06 0
-0.007137649654559997 0
-1.225076872827658e-05 0
-0.007323711185707286 0
-1.559920971293702e-05 0
-2.028464236036158e-05 0
-2.417428519627884e-05 0
-3.097241504720649e-05 0
-3.673848779111694e-05 0
-4.491963195990279e-05 0
-5.656749716807609e-05 0
-6.696904217922059e-05 0
-8.348659224950427e-05 0
-0.0001033910765277305 0
-0.0001198687899435674 0
-0.0001513559556803714 0
-0.0001736849704500013 0
-0.0002067613061741713 0
-0.0002514719856847307 0
-0.000289860630012397 0
-0.000350389153873841 0
-0.0004020567143376346 0
-0.0004708537942620744 0
-0.0005532207453253992 0
-0.0006265357587902866 0
-0.0007413872116051527 0
-0.0008282475027113612 0
-0.0009502685540564622 0
-0.001089552824027131 0
-0.001220702217671666 0
-0.001380197725787857 0
-0.001466284035830375 0
-0.001688894966014097 0
-0.001751316237958724 0
-0.001879156663263091 0
-0.002094658540358776 0
-0.002195725386386997 0
-0.002427052228972943 0
-0.002489697354630637 0
-0.002634514345822193 0
-0.002829598050523935 0
-0.002946951476101021 0
-0.003306279813808453 0
-0.003336573421643414 0
-0.003587673090923083 0
-0.003744972191916761 0
-0.003751653077588141 0
-0.003973590979323154 0
-0.004135941389606067 0
-0.004134652753811578 0
-0.004407421905132414 0
-0.004457083985156401 0
-0.004568195546131936 0
-0.004700929650528332 0
-0.004851062197754877 0
-0.005121862704321932 0
-0.005142055751227305 0
-0.005319120103585439 0
-0.005640601028300953 0
-0.005797620133944676 0
-0.005943768760800313 0
-0.005848917196085718 0
-0.006256286585599668 0
-0.005983592057006401 0
-0.006054233067126822 0
-0.006361828203623291 0
-0.00629870335773986 0
-0.006735464236608779 0
-0.006455982849291765 0
-0.006507274449611525 0
-0.006733092183672065 0
-0.006700402658570121 0
-0.007006416917243624 0
-0.006785762237061121 0
-0.006845873766619786 0
-0.007129448487367966 0
-0.006957491344959578 0
-0.007141095809919272 0
-0.006694033024105917 0
-1.694206818252793e-06 0
-6.981933693848862e-06 0
-0.006695472587895318 0
-0.0107918433078174 0
-3.590557080941189e-06 0
-0.006815845475659009 0
-0.006807939360348818 0
-0.006134526604120035 0
-2.419258211944344e-06 0
-9.411591262037891e-06 0
-0.006278247670307482 0
-3.442770293065477e-06 0
-0.006143883551271392 0
-1.771371647527939e-06 0
-0.008475160267750262 0
-4.279355674167771e-06 0
-0.005912121930743728 0
-0.006215029235454854 0
-5.259045243329611e-06 0
-0.006011036824697924 0
-0.005849216425048926 0
-0.005829329066130822 0
-0.005902806030385067 0
-0.002804672478527418 0
-0.002943016347670362 0
-0.0006788735829930495 0
-0.005965877748785225 0
-6.568283385169326e-05 0
-0.000766959936653463 0
-8.08721830425396e-05 0
-9.766818365889019e-05 0
-2.950029733682095e-05 0
-2.389933799835263e-05 0
-0.004910428288834351 0
-0.001976194852768976 0
-0.002101686876806617 0
-0.005118415618212863 0
-0.005544171082475672 0
-0.005654807820523571 0
-0.005014678097241656 0
-0.0001652852256052801 0
-0.0001980108265640521 0
-0.003474785985042392 0
-0.001100964773294401 0
-0.004483868527924507 0
-0.004696482562409483 0
-0.0001179555101700792 0
-0.001342195466527976 0
-0.001218245868648561 0
-0.003077582708476741 0
-0.005297736022316792 0
-0.003964354440790689 0
-0.004082813532030181 0
-0.001835393406585876 0
-0.003781074821809642 0
-0.003651644532456451 0
-0.003529239817196953 0
-0.002188792858887976 0
-1.939834228896096e-05 0
-1.54804008641287e-05 0
-0.005742406857231444 0
-0.002324301495244769 0
-0.0004405745553258021 0
-5.380897175632087e-05 0
-0.005418017801529993 0
-0.0009900675171034957 0
-0.0008767294608133238 0
-0.0002344257698309803 0
-0.0002772699944052544 0
-0.004804751790166028 0
-0.004378489887340063 0
-0.001470118741898121 0
-3.550634395784856e-05 0
-4.392971187308649e-05 0
-0.004259454765560027 0
-0.005220438603815184 0
-0.005137527241727421 0
-1.211131121371831e-05 0
-0.0005090506747749145 0
-0.0005880757438276523 0
-0.0003783782041466038 0
-0.0003244837843427979 0
-0.002455554342399413 0
-0.002653808187278933 0
-0.006011135078915516 0
-0.005673044152549461 0
-0.005534996088800891 0
-0.003851340531096027 0
-0.003323006444168896 0
-0.00321189427671822 0
-0.000141423625139588 0
-0.001547902569474298 0
-0.001694951816249039 0
-0.006092786883810093 0
-0.006031876081553485 0
-0.006018435634173099 0
-7.966734704604507e-06 0
-0.006063430264280173 0
-0.005998832408367057 0
-0.00591748447419197 0
-1.028741063275479e-05 0
-0.008959277840031943 0
-4.97230323181895e-06 0
-0.0057918931627034 0
-7.231351974392518e-06 0
-0.008433852328347556 0
-0.009136665904719999 0
-0.0120738742474678 0
-0.0001057165430014569 0
-0.004340524272273178 0
-0.005223874622706917 0
-0.006885702817628995 0
-0.0002810218312312297 0
-0.0003466839650860495 0
-0.006093327883914349 0
-0.008216177279293767 0
-0.0006380406923361233 0
-0.0007960904736542168 0
-2.234035419785994e-05 0
-2.701370482932006e-05 0
-6.269925842894192e-05 0
-7.335021419739591e-05 0
-0.001285668877358638 0
-0.001667254755694192 0
-0.007079055971892447 0
-0.009325881692176689 0
-0.003592493585413063 0
-0.004754665496348009 0
-0.006973733549333205 0
-0.008674728175409034 0
-0.01159937607664765 0
-0.00168654734854763 0
-0.0021557293563693 0
-0.002603267295490645 0
-0.003492535933063353 0
-0.008139528760907386 0
-0.01092429269875604 0
-0.005999835309301499 0
-7.518417368701784e-07 0
-0.005680302767048138 0
-0.005756951457538779 0
-0.00694611161800663 0
-7.13106194390142e-07 0
-0.00263911664655253 0
-0.002747616468280666 0
-0.009098394224757868 0
-0.01191009798057068 0
-0.0006115773010006162 0
-0.005693223606840578 0
-7.043759129800298e-05 0
-0.0006944500012894017 0
-0.0007926308826128857 0
-8.581003890896721e-05 0
-0.002896172820159249 0
-0.003258625079426543 0
-2.578964607217813e-05 0
-0.00478048482810438 0
-0.001969062182440711 0
-0.00499223905564973 0
-0.001356079988893091 0
-0.005404521636216769 0
-0.004837469349283578 0
-0.0001755834146169693 0
-0.003387190083480688 0
-0.00111635260328366 0
-0.003787775319922846 0
-0.0003944848051486567 0
-0.004443316891646571 0
-0.005801092718218704 0
-0.0001025496176237261 0
-0.001220808710096368 0
-0.0002085731238164071 0
-0.004179832399559986 0
-3.179245119107743e-05 0
-0.003025143037372102 0
-0.005180511323893211 0
-0.0002905158405441424 0
-0.003944198556574795 0
-0.001706660944059969 0
-0.0001248070920818435 0
-1.324316335508849e-05 0
-0.003614358515799506 0
-0.003467641809571964 0
-0.002104477706669123 0
-0.005518732819013765 0
-1.680153024827974e-05 0
-0.002321195200316189 0
-0.000458758626673308 0
-4.721912508880682e-05 0
-0.005244971965827321 0
-0.005450149304271901 0
-0.0008973104895555232 0
-0.0002479457651514968 0
-0.004566403113505876 0
-0.001826128142479829 0
-0.004267231287293929 0
-0.001469826921988545 0
-3.825861771143234e-05 0
-2.083881523959088e-05 0
-0.004106341249967318 0
-0.005044862933132326 0
-0.005568370892407935 0
-0.00218561265580147 0
-0.0005272886545306545 0
-0.0003381878230263647 0
-0.002454046298310107 0
-5.721746150142856e-05 0
-0.005410627939368366 0
-0.003688459864778333 0
-0.004675115796152497 0
-0.003119371706143605 0
-0.001001912015088829 0
-0.0001469770175630142 0
-0.001564114059743436 0
-0.005035024398820436 0
-0.00106984571639212 0
-1.701957527105232e-05 0
-0.002428317577710945 0
-0.0001253213143632809 0
-0.002108754635428025 0
-0.0004911634654516894 0
-0.001643775112070355 0
-0.0005640548185110416 0
-0.001577934346152366 0
-1.044649391278843e-06 0
-0.002371925040249312 0
-9.935416023169172e-05 0
-0.002168849633042454 0
-2.27089463343745e-05 0
-0.002403929156254838 0
-0.0009941289306225605 0
-0.001150856108776653 0
-1.272854134289799e-05 0
-0.002460999551426016 0
-0.0001572871505027255 0
-0.002056188217952196 0
-0.0004252233144407678 0
-0.001717729355126068 0
-2.224405805444583e-06 0
-0.002500162555162323 0
-0.0005934929697807244 0
-0.001402482867772485 0
-7.289299014078244e-05 0
-0.002066585732739278 0
-2.972261770036103e-05 0
-0.002345764856010837 0
-0.0009075200621036707 0
-0.001216191640482693 0
-9.322036948889772e-06 0
-0.002459232428139647 0
-0.0001925179841609445 0
-0.001977216210146132 0
-0.0003599166278714465 0
-0.001768266122216123 0
-4.053074096605866e-06 0
-0.002650879111562094 0
-0.0007542267070511897 0
-0.001492241127553581 0
-6.210751939131626e-05 0
-0.002377348548077823 0
-4.243048746712727e-05 0
-0.002443604513238821 0
-0.0008721247114312688 0
-0.00137782427416849 0
-6.931264448772401e-06 0
-0.00262856301868255 0
-0.0002344214230216825 0
-0.001865568032901478 0
-0.0002794357081837866 0
-0.001728762769711983 0
-4.405402421140091e-06 0
-0.002157917791400103 0
-0.0006641325104347325 0
-0.001173308832266725 0
-4.219703347841805e-05 0
-0.00197080248763822 0
-0.0002291672240026922 0
-0.00125814490687215 0
-0.0001504665260034078 0
-0.001355310442731307 0
-5.364631655773452e-06 0
-0.00170062561728084 0
-0.0008673159181792657 0
-0.0005934205536190631 0
-2.407508298614182e-05 0
-0.001598308161662423 0
-4.605089790486128e-05 0
-0.001533117055120706 0
-0.0004656445738813972 0
-0.0009964959575739195 0
-2.132170153839045e-06 0
-0.001728642697748026 0
-0.0001780317203262401 0
-0.0012450525059033 0
-0.0005184972037878418 0
-0.00231712479360425 0
-0.0002315170470305659 0
-0.002677245828136041 0
-1.431938536561736e-05 0
-0.00326873865445991 0
-0.001260733475085427 0
-0.001573932942749137 0
-3.447529688893937e-05 0
-0.003153587089960802 0
-0.0001154047179251644 0
-0.002899513157061083 0
-0.0007945997907365205 0
-0.002034436266370756 0
-0.0006903086040879551 0
-0.0007423091412918812 0
-1.320882924050816e-05 0
-0.001615935322139418 0
-7.498585008149089e-05 0
-0.001430265852727138 0
-0.0003524992445396348 0
-0.001077422260938171 0
-9.915577504701572e-06 0
-0.001635078027357061 0
-9.420672071424384e-05 0
-0.00139323175868673 0
-0.0003065283303046212 0
-0.001124210839115813 0
-0.000253039475621023 0
-0.00113089396735696 0
-0.0001138047052795305 0
-0.001305289431705639 0
-7.044980825467909e-06 0
-0.001593611824770201 0
-0.0006139804896377424 0
-0.0007676230877699004 0
-1.703669085089892e-05 0
-0.001536071793993687 0
-5.860623982411672e-05 0
-0.001449218641098688 0
-0.0003962452824336226 0
-0.001018895598232136 0
-0.0006042028786477817 0
-0.002223534227923055 0
-0.0001854770551796194 0
-0.002754388325471175 0
-1.932819460849593e-05 0
-0.003233808409255242 0
-0.001364077155694231 0
-0.001468352941907309 0
-2.585130443412251e-05 0
-0.00319592700049972 0
-0.0001470759812227376 0
-0.002829848804027487 0
-0.0006968599994957009 0
-0.002131097684655922 0
-0.0003666297084820607 0
-0.002597923211468317 0
-1.107422716230743e-06 0
-0.001710335305144822 0
-2.156038652912333e-06 0
-0.00334398426540485 0
-0.0004523435013639666 0
-0.002468196140901828 0
-0.0002915047121423841 0
-0.002667157476141897 0
-1.081153523926402e-05 0
-0.003382559114145299 0
-0.00118984710438642 0
-0.001718292953941381 0
-4.639725963947489e-05 0
-0.00318786712485994 0
-9.286767191937801e-05 0
-0.00303797329025826 0
-0.0009143407520142077 0
-0.001988811015696368 0
-3.98479661065455e-06 0
-0.003435628566006187 0
-6.385536175949105e-06 0
-0.003490433290368139 0
-0.001044339060949269 0
-0.001921917753650927 0
-7.235481357414735e-05 0
-0.003167286028822741 0
-6.31085566852016e-05 0
-0.003209911552281594 0
-0.001105192184914987 0
-0.001873241471025973 0
-7.783270118066081e-06 0
-0.003492492548765317 0
-3.418498907677976e-07 0
-0.001471900337447018 0
-7.719003718646452e-07 0
-0.003579842233070969 0
-2.436488539742156e-06 0
-0.001389107403840802 0
-0.0004095382790569355 0
-0.0007707875312066233 0
-3.026676793304424e-05 0
-0.001257132640044965 0
-2.440697497282846e-05 0
-0.001276652210143487 0
-0.0004450065324582308 0
-0.0007375587857435904 0
-3.300598295668584e-06 0
-0.001385506066480891 0
-0.0001592883781814221 0
-0.0009651409413599819 0
-0.0001250112494857201 0
-0.00101036081459346 0
-0.0004556961262508904 0
-0.002698037115194607 0
-0.0003285905378732832 0
-0.002714193785936625 0
-9.938880183387933e-06 0
-0.003586018399205406 0
-0.001862833523935196 0
-0.001210395449492133 0
-5.489923403039535e-05 0
-0.003347513367759784 0
-8.811806345956724e-05 0
-0.003238407883645741 0
-0.001011946113851624 0
-0.002057692331176995 0
-5.106066037182728e-06 0
-0.003626240736211922 0
-0.001275113166693656 0
-3.589648808815069e-06 0
-0.0006625364995787138 0
-0.0004302800388835966 0
-0.001189779214387672 0
-1.981974636037173e-05 0
-0.00115247861819653 0
-3.168610534266208e-05 0
-0.0003604261994557012 0
-0.0007318134610566273 0
-0.001289305135293089 0
-1.851253336804643e-06 0
-0.0006414062004453555 0
-0.002618720962503126 0
-0.0002402177955312519 0
-0.003124966727887051 0
-1.889033663447163e-05 0
-0.003746639809254191 0
-0.001507443628645361 0
-0.001755768726687867 0
-3.45125293824157e-05 0
-0.003655500195232967 0
-0.0001485700146480756 0
-0.003302688509602622 0
-0.0008612102764399338 0
-0.002396207627148032 0
-0.0008152311387522517 0
-0.002735990038523251 0
-0.0003710197478261418 0
-0.0002067732833660836 0
-0.003509060180073341 0
-5.950573725015584e-06 0
-0.0008420070074276961 0
-2.783783452632501e-05 0
-0.004040086180674283 0
-4.365594711767307e-05 0
-0.0007312536792445993 0
-0.001778732605680621 0
-0.0001705269568737653 0
-0.0005701099985116129 0
-0.0001955099795199366 0
-0.0005470698370168666 0
-3.467366379968555e-05 0
-0.0007517187998601705 0
-7.920219181463285e-06 0
-0.0008334442301903419 0
-0.0003449592739064951 0
-0.0003988436396647281 0
-4.462539054128854e-06 0
-0.0008533070307562405 0
-5.466905007147284e-05 0
-0.000713338529043118 0
-0.0001479040160219961 0
-0.0005956479904510504 0
-0.0002126129950341176 0
-0.001073253191734467 0
-0.0001199065039906798 0
-0.001188412013223131 0
-5.407495085820499e-06 0
-0.001483565999148963 0
-0.0005401329863025718 0
-0.0007390469712236935 0
-1.869443589409823e-05 0
-0.001409327797025284 0
-8.807336608939199e-07 0
-0.0009783142627028667 0
-0.0002914787083777982 0
-0.0006880547069742579 0
-3.588610429845821e-05 0
-0.0010141812909952 0
-3.445634538177124e-06 0
-0.00383578164923589 0
-0.000966120715876032 0
-0.002267771183565319 0
-0.0001157846671016557 0
-0.00335130938767462 0
-4.528701794710089e-05 0
-0.003576015837846435 0
-0.001379657614896942 0
-0.001858739774354211 0
-1.388171957931421e-05 0
-0.003751100815196918 0
-0.0002940181406290936 0
-0.003011017433067955 0
-0.0005443428291812603 0
-0.002698999016905741 0
-1.784882139641286e-06 0
-0.004040421303942337 0
-5.470872510617031e-07 0
-0.001258597383072802 0
-0.002859410982701985 0
-0.0004362464230299215 0
-4.14479932135078e-07 0
-0.002592288029262514 0
-0.0003930941911666282 0
-0.003001800507355195 0
-0.0001004983911933907 0
-0.0006505812682008527 0
-8.802936954870238e-05 0
-0.0006632929207250573 0
-0.0007579017130292234 0
-0.0001604514745408124 0
-0.0008578673156072566 0
-8.009852472569606e-05 0
-0.001063013969131234 0
-4.317246156906763e-06 0
-0.0005197479709625647 0
-0.0003991483636957984 0
-0.00101702535255155 0
-1.225385442930747e-05 0
-3.504343375110438e-06 0
-0.002684606775962847 0
-0.0007338137159185476 0
-0.001536964542697827 0
-6.877956503537488e-05 0
-0.0023864717177587 0
-3.886742067638657e-05 0
-0.002482317121700268 0
-1.958743953418385e-06 0
-0.0009665383115034929 0
-0.0009105112036391183 0
-0.001361925677295479 0
-0.0002965640516452239 0
-0.0005267931679703346 0
-7.88571619996371e-06 0
-0.002647393720946608 0
-1.918953706373356e-05 0
-0.0008829389898804665 0
-0.0002373169289706868 0
-0.002048425177305099 0
-0.0003408874781768703 0
-0.001967521574585949 0
-2.597248920089462e-05 0
-0.000805240942407552 0
-0.0002389137210189606 0
-0.0005327778282063604 0
-9.636145780486656e-07 0
-0.000882270851468039 0
-4.269455831882704e-05 0
-0.00220317034354217 0
-5.533512474931341e-06 0
-0.00239209034337477 0
-0.0007634370947365964 0
-0.001278251771609937 0
-4.315922860666444e-06 0
-0.002417267117091987 0
-0.0007168544780670772 0
-0.001336641766879884 0
-5.156876885366222e-05 0
-0.002188834542330474 0
-8.965947280822947e-05 0
-0.003626499313177012 0
-0.00116614597152525 0
-0.002249091641948247 0
-6.508588094199849e-06 0
-0.004027274791036053 0
-0.004005368181940399 0
-9.856854178957992e-06 0
-0.002116632426950607 0
-0.001306896501459349 0
-0.003706779110406596 0
-6.674489443047558e-05 0
-8.354604938492409e-06 0
-0.004163663252292748 0
-0.001280835923851226 0
-0.002263075656791783 0
-8.018799049541667e-05 0
-0.003802314533058427 0
-0.0007364132550332057 0
-0.002831826996923318 0
-0.0002448967850553297 0
-0.003453754055237361 0
-0.000303048077383767 0
-0.002023135885940248 0
-2.262237462594638e-05 0
-0.004090090463669498 0
-0.001691608234316492 0
-0.001881352726508494 0
-3.440573751552262e-05 0
-0.004020167521636392 0
-0.003589538341369505 0
-0.0001749845328508408 0
-0.0009045491163275351 0
-0.002661759756466268 0
-0.001030824015341788 0
-0.002536402796386253 0
-0.0001364336612701097 0
-0.00367570636291576 0
-4.604328614325682e-05 0
-0.00396288994510955 0
-0.001558769499783422 0
-0.002015357610813508 0
-1.662115650114853e-05 0
-0.004130447055475508 0
-0.0003056116462473364 0
-0.00335150065663784 0
-0.0001139588680038306 0
-0.0006491386416188443 0
-8.010950966140329e-05 0
-0.0006915158096152208 0
-0.0006281839153339141 0
-0.002948388696824413 0
-2.156103946948655e-06 0
-0.0007087633748982647 0
-0.00024459263376763 0
-0.0003640564273644154 0
-1.040845255818611e-05 0
-0.0006651349832278212 0
-0.0003415978701755036 0
-0.001798870031187502 0
-0.0002059680317619767 0
-0.001949460685647817 0
-8.367912466218352e-06 0
-0.002466027345614635 0
-0.0008807731139486818 0
-0.001242304888368071 0
-3.266945817598727e-05 0
-0.002332639823692767 0
-7.065427924914561e-05 0
-0.002216619845754431 0
-0.0006592214276656864 0
-0.001465076583752689 0
-2.755665853046826e-06 0
-0.002535129893655098 0
-3.17364082851825e-06 0
-0.004229831111006335 0
-0.0003520982338374082 0
-0.0003881437070722162 0
-4.888845097248684e-06 0
-0.0008463680380862849 0
-7.184991048950011e-06 0
-0.0008330823054426495 0
-0.0002169832721800401 0
-0.0005415003042449022 0
-5.063633599822742e-05 0
-0.0007164870748165839 0
-3.729166449954006e-05 0
-0.0007421270670345424 0
-3.015441782763541e-05 0
-0.0007797211867234441 0
-0.0001545616801002612 0
-0.0005850021100514512 0
-0.0001863884041175414 0
-0.0005525149427697198 0
-0.0001780072603970627 0
-0.0005614094654070378 0
-0.0002592938919403463 0
-0.001891895358082289 0
-4.047358210382059e-05 0
-0.0007362173658098556 0
-6.51422760268085e-06 0
-0.000837383750036208 0
-0.0003790807894644144 0
-0.0003617085309661754 0
-5.412228625159793e-06 0
-0.0008438166144676056 0
-4.690211235048368e-05 0
-0.0007238800713040796 0
-0.0001626578433592555 0
-0.0005770921400863548 0
-0.0006615194620239573 0
-1.940867895855966e-05 0
-0.0002027441601886179 0
-0.0004271747280066341 0
-0.0004493560060307728 0
-0.001702389677500654 0
-0.0001466993906808399 0
-0.00208522790147229 0
-1.4116177718004e-05 0
-0.002462984254491393 0
-0.001024479680941129 0
-0.001129159875895708 0
-2.072690359598104e-05 0
-0.00242425488335462 0
-0.0001080092284448819 0
-0.00215955313025671 0
-0.0005418224057905151 0
-0.001607902830188824 0
-0.0007394122240386127 0
-9.590371430022681e-07 0
-0.0006005952162216067 0
-0.001503470182984957 0
-8.354388025431349e-05 0
-0.002162534764537188 0
-2.736694605143749e-05 0
-0.002382807569194872 0
-0.000943497906761252 0
-0.001203407076537484 0
-1.044664637467103e-05 0
-0.002479115029706865 0
-0.0001814591774504054 0
-0.002019524745631732 0
-0.0003843097396893013 0
-0.001765619227790309 0
-0.0001402871949685776 0
-0.0005995687110366535 0
-5.808410127652477e-05 0
-0.0007029202380442536 0
-0.0003997232497799454 0
-0.001729574003048101 0
-0.0001686142923525362 0
-0.002020293169076007 0
-4.04753175652652e-06 0
-0.0008507963269468195 0
-1.136300181229935e-05 0
-0.002451351347813583 0
-0.0003346256572021598 0
-0.0004046871844683385 0
-0.0009592859224776804 0
-0.00116987228440268 0
-2.492020103090911e-05 0
-0.002373994736532978 0
-8.581467086801082e-06 0
-0.0008247351284014224 0
-9.07373984479052e-05 0
-0.002169268101766291 0
-3.170049031899203e-05 0
-0.0007498883715449098 0
-0.0005846531311443918 0
-0.001540514962961149 0
-0.0002018067557246959 0
-0.0005332117848119229 0
-1.819536723754443e-06 0
-0.002531820572555224 0
-0.0004676671611721515 0
-0.001667866426954868 0
-0.000135444460515482 0
-0.002090278136847052 0
-1.54615401633259e-05 0
-0.002439216399773171 0
-0.001045174070283649 0
-0.001096424099408957 0
-1.871400110502435e-05 0
-0.002420961032999938 0
-0.0001162803884097183 0
-0.002128950973022021 0
-0.0005145727979519795 0
-0.001622509458502245 0
-0.0008590376196641171 0
-0.002701878322812587 0
-0.0001907861228500305 0
-0.003551310557240929 0
-6.405810930803796e-07 0
-0.0008834365806643025 0
-3.090372579176887e-05 0
-0.004033365113874254 0
-0.001737144229731956 0
-0.001829888904530621 0
-2.517565759270304e-05 0
-0.00406725950236948 0
-0.0002249268585299263 0
-0.003484270610905394 0
-0.0007765539503416138 0
-0.002784291866762873 0
-0.0009780380540694534 0
-0.002584992870875012 0
-0.0001508818890387507 0
-0.003637744757766785 0
-2.424828289848343e-06 0
-0.004242770636336122 0
-4.088854888461693e-05 0
-0.003982557490636049 0
-0.001610969740487508 0
-0.001959232718655809 0
-1.884465078161368e-05 0
-0.004110871496787058 0
-0.003389840399905211 0
-0.0002795244096700169 0
-0.0006703164807452056 0
-0.002898703071596463 0
-0.002489147087236159 0
-1.430802333119089e-06 0
-0.0008418254591143535 0
-4.770616099056955e-07 0
-7.335381535381375e-05 0
-0.0005121219754971837 0
-5.867888992618283e-05 0
-0.002757290835312779 0
-6.132243799132222e-06 0
-0.003019218306918293 0
-0.0009292802357313277 0
-0.001641129208610094 0
-5.404570073751572e-06 0
-0.004281622529009331 0
-0.00116475112242227 0
-0.002455614567549625 0
-0.0001095065291615033 0
-0.003803792406150716 0
-6.055449830709158e-05 0
-0.003963213198604202 0
-0.001457531860846925 0
-0.002168218729202766 0
-1.252592021539362e-05 0
-0.004224207283815153 0
-0.0003764389033128682 0
-0.003295112613450676 0
-0.0005427884397338064 0
-0.003083147411949243 0
-1.755561078553434e-06 0
-0.0007805221289710511 0
-0.0002466033070938802 0
-0.0004193243819915977 0
-1.440340568198844e-05 0
-0.0007173683815347955 0
-0.0005644126782004724 0
-0.002223466776292809 0
-0.0004767476664229812 0
-0.00329027796907063 0
-4.402408661588944e-06 0
-0.004221063441218432 0
-0.0001980221988549738 0
-0.002686686085169913 0
-0.001098465749231955 0
-0.002464435949166105 0
-1.71413421878648e-05 0
-0.003198600438144802 0
-0.0001188178206820892 0
-0.003714315608422923 0
-5.370251265571665e-05 0
-0.00392235026863461 0
-0.001307609307044306 0
-0.001483591369107019 0
-0.0008020943664563372 0
-0.001945618733799685 0
-1.161611205341747e-07 0
-0.0008587161407473452 0
-0.001483557314578771 0
-0.002083827756599734 0
-2.822836387149359e-05 0
-0.00313428216584587 0
-0.000103739419073085 0
-0.002835727780883476 0
-1.394467518135695e-05 0
-0.004142923880109789 0
-3.690589587810997e-05 0
-0.003069836234195094 0
-0.000342569567011233 0
-0.003291618883704546 0
-0.0001330925109484629 0
-0.002813098007861733 0
-0.001200821792754677 0
-0.001571718279959736 0
-0.0005718580452491916 0
-0.003005011190961787 0
-1.270342674813809e-05 0
-0.00320636473528246 0
-0.0007203703022488836 0
-0.002066354662743678 0
-0.0002423871161179666 0
-0.002593830596996366 0
-0.0004818228212965515 0
-0.002294736929286222 0
-5.602781718108945e-07 0
-0.004260985480201325 0
-5.064408848345835e-05 0
-0.001525855816739894 0
-1.726845872551006e-06 0
-0.001733990356698409 0
-0.0004480132601047193 0
-0.001018094647635373 0
-2.631341908261576e-06 0
-0.003271398851841669 0
-0.0003002276596547489 0
-0.001168387640087408 0
-0.001408969468483871 0
-0.0001033403612079001 0
-0.001674425472934531 0
-9.194318275288957e-06 0
-0.0006871205168331958 0
-0.0007748828399169027 0
-0.00164218626149774 0
-1.47845237002258e-05 0
-0.00147151025347978 0
-7.086820933562521e-05 0
-0.0003756797792797206 0
-0.00108387399123311 0
-5.626168002874867e-05 0
-0.001494299067406826 0
-0.0004195807677980971 0
-0.00103102038422502 0
-0.0002072288345241444 0
-0.001340503869412492 0
-0.0003263425023140495 0
-0.001127092233211864 0
-8.899394687699504e-05 0
-0.001428500642853131 0
-0.0003388884014476 0
-0.001100545443892736 0
-8.162000368258512e-05 0
-0.001427524113930345 0
-1.107252432519754e-05 0
-0.001655950835389567 0
-1.207874146947445e-05 0
-0.001633649930184361 0
-0.000719002197172361 0
-0.0007297049112105184 0
-1.009629433374605e-05 0
-0.0007134696816792127 0
-0.0002692811613600596 0
-0.0003803326790053994 0
-2.051213796270781e-06 0
-0.0008158322912126889 0
-2.575883252818878e-06 0
-0.0007546251665031823 0
-0.0002834811930328615 0
-0.001186529679179726 0
-0.0001118039768634067 0
-0.001393786987077526 0
-8.251721318480429e-06 0
-0.001679838947983917 0
-0.000431348671736691 0
-0.0002662226383269881 0
-0.0006675809920105088 0
-0.0007939020876831697 0
-6.644818220295704e-05 0
-0.0006258887276093806 0
-1.637474540793862e-05 0
-0.001633355745289047 0
-6.433315481606085e-05 0
-0.001460217249762806 0
-0.000386331501069598 0
-0.001050396451864781 0
-1.386993705594138e-05 0
-0.0007554142788341211 0
-0.0001088608470449997 0
-0.0005733613588348354 0
-1.844538841611424e-05 0
-0.0007334332582417038 0
-0.0001828922345025369 0
-0.001384004896162337 0
-0.000236067856970014 0
-0.0004549652849425335 0
-2.640790966145485e-07 0
-0.0008348164349137564 0
-1.34711259644061e-06 0
-0.000814473437218502 0
-0.0006641296073596988 0
-0.002155015164628569 0
-1.396201766336791e-06 0
-0.001737107865669124 0
-0.0001583391760320283 0
-0.002797677807129208 0
-9.067101475282427e-05 0
-0.003953337611407549 0
-0.004351895008226065 0
-9.73234363806547e-06 0
-0.001298565122845903 0
-0.002405806539052464 0
-0.002329669835849532 0
-0.001382066991852358 0
-0.002203945500984965 0
-6.889912049501026e-07 0
-2.346716090040219e-05 0
-0.003199451602090381 0
-7.774737862382976e-06 0
-0.004360921682443912 0
-0.00400309766319381 0
-7.724989302161651e-05 0
-1.332869700594903e-06 0
-0.004276147483284276 0
-0.001393861253135461 0
-0.001439448396329742 0
-2.138681711885853e-05 0
-0.003234870726575747 0
-0.000172653512883998 0
-0.002791042558220048 0
-0.000636627647948929 0
-0.002201787132987632 0
-5.299744811776701e-06 0
-0.003218305465888439 0
-0.0009360600680189545 0
-0.001798843491014042 0
-7.182755119612168e-05 0
-0.002904881918408347 0
-5.409682116434383e-05 0
-0.002964386783622184 0
-0.001041339931669265 0
-0.00169411367764078 0
-7.859610440704587e-06 0
-0.003200808005572642 0
-0.003151231409726073 0
-0.0005104454760869275 0
-0.0001750383450363099 0
-0.001473915696314182 0
-0.0002351397764710162 0
-0.001373207331149447 0
-2.900339108409005e-06 0
-0.002041983108592231 0
-0.0005696505193731439 0
-0.001159595887500371 0
-5.021941434643087e-05 0
-0.001823871856435544 0
-3.12190563081641e-05 0
-0.001885158980102345 0
-0.000682195633384619 0
-0.00104898201266904 0
-5.682625193019836e-06 0
-0.002019967573394026 0
-1.083092876318679e-06 0
-0.003184910502369092 0
-4.529873663388537e-06 0
-0.001752519385003727 0
-0.0005293807658525562 0
-0.0001176008821497265 0
-0.0005770152790804807 0
-0.0009221143564504175 0
-2.89972618724696e-05 0
-0.001625706286170309 0
-4.081378751252136e-05 0
-0.001588348701375484 0
-0.0006091133612557482 0
-5.368179519068502e-05 0
-0.0005072257126798261 0
-0.0009913773626170181 0
-2.806625598410134e-06 0
-0.00176702462441809 0
-0.0007507327500229152 0
-0.002026167293418824 0
-0.0007444112775779289 0
-3.261785341265967e-06 0
-0.0003591796938101294 0
-0.0002856877461330659 0
-1.681375448600393e-07 0
-0.001605700939878274 0
-0.0007161954829756924 0
-8.055195308191559e-06 0
-0.0001219911421103485 0
-0.002825751921028605 0
-3.57549693908471e-07 0
-0.003515493407471312 0
-2.129865073067562e-05 0
-0.001760331288989662 0
-3.104941663625349e-05 0
-0.003107484014065337 0
-0.0006894354106086842 0
-0.0009009762585938606 0
-7.390027442383506e-06 0
-0.001839626840653137 0
-0.0001392331146923476 0
-0.001486632464892903 0
-0.0002771140539864244 0
-0.001314708691034607 0
-0.001266269137594848 0
-0.001512825321101443 0
-1.536718552637545e-05 0
-0.003195144553567909 0
-7.967920044344082e-06 0
-0.0006180632949471215 0
-0.0002388610989437376 0
-0.0003216913548977632 0
-2.458653611477283e-06 0
-0.0006500130905489244 0
-0.0005291941832570188 0
-5.227749434512454e-05 0
-0.0004751055423213934 0
-9.598493769479636e-05 0
-0.00264693572956433 0
-0.0002128582808260026 0
-0.0005323204735070103 0
-0.002244004541624785 0
-0.0003144471298359408 0
-0.002381885151833282 0
-1.647909564166545e-06 0
-0.003254130807604059 0
-3.043275899522502e-06 0
-0.003132683588021398 0
-0.0008009010836805381 0
-0.001842173549832183 0
-9.228088448304394e-05 0
-0.002745892647820147 0
-3.854069439558464e-05 0
-0.002917308829596731 0
-0.001115995828590102 0
-0.001531182609974192 0
-1.100189645253591e-05 0
-0.003069605576644437 0
-0.0002474352821007957 0
-0.002452630609513299 0
-0.0004365865921312495 0
-0.002217115037100364 0
-0.0004145031467252409 0
-0.003337620809076728 0
-0.003366484892418312 0
-0.0004608579632000794 0
-0.0003877617550069145 0
-0.002404613320663625 0
-3.307266658890148e-06 0
-0.00152606248411561 0
-0.0004775935538063734 0
-0.0008240277384045919 0
-2.880865309478528e-05 0
-0.001400550878142059 0
-0.001751776345368923 0
-9.242010373734273e-07 0
-1.599527244125328e-05 0
-0.0006881431428388303 0
-0.0002268108635919918 0
-0.0004181028719413337 0
-1.405064488589176e-06 0
-0.0007587343333093305 0
-6.796325738539925e-05 0
-0.0004099511528129544 0
-5.282881418963238e-05 0
-0.0004283685329746058 0
-4.130395585258984e-06 0
-0.004549775507195739 0
-0.0001031440109794116 0
-0.003927040423535325 0
-0.001238074785976064 0
-0.002476298136563427 0
-1.44621860672939e-06 0
-0.0005234482912051395 0
-6.409208666863349e-06 0
-0.004386492657717567 0
-0.001150178174117674 0
-0.002684938092664318 0
-0.0002735354769663604 0
-0.0001759886986348386 0
-0.004341095739426437 0
-1.151309962284774e-05 0
-0.0001353156110879862 0
-0.003977155364194755 0
-0.002267182421455767 0
-0.001449883421145048 0
-0.0004901027872524795 0
-8.326657485257717e-06 0
-0.004042833037571232 0
-6.778253157606555e-05 0
-0.0004766102047136642 0
-1.291647582921867e-05 0
-5.381836883753752e-05 0
-0.004237327190403557 0
-0.000150228115852053 0
-0.0003021691749501154 0
-0.001630240355838777 0
-0.002208002253736433 0
-0.0005352157992665947 0
-7.905077842780107e-07 0
-1.611165058222733e-05 0
-0.004438915544945914 0
-3.073861327187955e-06 0
-0.001598522882266692 0
-0.0004834544544740645 0
-0.0008765586007969436 0
-0.00034886585123375 0
-0.003557981850748218 0
-3.273008804412346e-05 0
-0.001454599205805983 0
-0.0006392686341633647 0
-0.003196145422375601 0
-0.000762861000786786 0
-0.003118461828050441 0
-0.0002847943637054834 0
-0.003721314607265056 0
-2.229678655158531e-05 0
-0.004461519943621992 0
-0.001794649408028877 0
-0.00209028657673357 0
-4.071603522250999e-05 0
-0.004352252808052569 0
-0.0001758438061770143 0
-0.003932074440924018 0
-0.001024432904513825 0
-0.002852557389946477 0
$EndSolution
