$ResFormat /* GetDP 3.0.5-git-997fd378, ascii */
1.1 0
$EndResFormat
$Solution  /* DofData #0 */
0 0 0 0
-1.945768788256762 0
-2.752263447127096 0
-1.873572598428394 0
-1.203112598514566 0
-0.02302347683464007 0
-1.947720822474668 0
-2.148408192376363 0
-1.687485846774206 0
-1.534533750756752 0
-2.211675371163595 0
-2.390438449240913 0
-1.872469772259194 0
-1.735794175990866 0
-2.446224942323643 0
-2.602223405546555 0
-2.035763416811397 0
-1.915250132628863 0
-2.650501139115619 0
-2.784183910000554 0
-2.178118993674893 0
-2.073315895956076 0
-2.825069016265289 0
-2.937000337686567 0
-2.299609694781785 0
-2.210448257980892 0
-2.970745568057192 0
-3.06139211505 0
-2.400819730951608 0
-2.326814322090403 0
-3.088099309705335 0
-3.157974389528114 0
-2.481852525916946 0
-2.422956522322726 0
-3.177835410111815 0
-3.227321222513933 0
-2.5430023074375 0
-2.498987596862059 0
-3.240434890247503 0
-3.269630736943749 0
-2.584361298453119 0
-2.555206205737505 0
-3.275963166292998 0
-3.28486547990215 0
-2.605847214483886 0
-2.59161300092914 0
-3.284459223581206 0
-3.273031374456041 0
-2.607633714303647 0
-2.608163962603448 0
-3.265801335778326 0
-3.233702078561726 0
-2.589506167994811 0
-2.604980431614936 0
-3.2194858272809 0
-3.166306595191059 0
-2.551410726310112 0
-2.581831417179299 0
-3.145043826578949 0
-3.070546633326639 0
-2.493024731074704 0
-2.538768364980924 0
-3.042095869403938 0
-2.946204921483759 0
-2.413969381212572 0
-2.475229387811614 0
-2.910718249309684 0
-2.794339834293585 0
-2.313514583940491 0
-2.391008342771494 0
-0.1793665948785919 0
-0.135740953699736 0
-0.07211429563370655 0
-0.541641917035604 0
-0.9552989584759992 0
-1.273923358056625 0
-1.517646011391747 0
-1.702837895994268 0
-1.842328407115583 0
-2.046498704044788 0
-2.143701153400637 0
-2.237096235487919 0
-2.326476032927619 0
-2.411743710706164 0
-2.492863934006897 0
-2.569823076574645 0
-2.642663408972673 0
-2.711265921825773 0
-2.775946052009634 0
-2.836481019609777 0
-2.893031623404261 0
-2.945617765847942 0
-2.994387223939556 0
-3.039145321167997 0
-3.080043970710855 0
-3.117080439815891 0
-3.150459962981309 0
-3.179945969910419 0
-3.205662088940395 0
-3.227682771893597 0
-3.245951072341956 0
-3.260463177818976 0
-3.271214062030918 0
-3.278213588633485 0
-3.281522731204938 0
-3.28106945726858 0
-3.276737755813724 0
-3.268762033431595 0
-3.256944285651313 0
-3.241287749960482 0
-3.22166063955701 0
-3.198231169002105 0
-3.170927989945671 0
-3.139694999670202 0
-3.104414276084753 0
-3.06532814531763 0
-3.022177294316787 0
-2.975147156484913 0
-2.924307773288883 0
-2.869855317887528 0
-2.812245217588256 0
-2.684287934268478 0
-2.591667042324564 0
-2.468936971160205 0
-2.310102856275501 0
-2.111433963659375 0
-1.855062744970427 0
-1.80098778200689 0
-1.716207515221086 0
-1.606332576504813 0
-1.478310822310918 0
-1.344122553505048 0
-1.2009767054443 0
-1.051155277130573 0
-0.9045536506383187 0
-0.752620046796008 0
-0.603974088863382 0
-0.4509640190950607 0
-0.3020002942441798 0
-0.1497898566981095 0
-1.735549713169385 0
-1.577799063512837 0
-1.398631418737088 0
-1.17129442665756 0
-1.089698141517934 0
-0.9589282155362109 0
-0.7987850361701735 0
-0.6110242007232315 0
-0.4169188131463957 0
-0.2087640407165416 0
-0.9790582913614594 0
-0.8250942558119785 0
-0.7128802431014524 0
-0.6248020507507663 0
-0.5553693343103306 0
-0.4984857314647292 0
-0.4499990127261992 0
-0.4088727822728738 0
-0.3733506791453863 0
-0.3419045203398851 0
-0.3144347763314311 0
-0.2895848684180573 0
-0.2669341471850819 0
-0.2464753905544661 0
-0.2279046982504925 0
-0.2107778393760256 0
-0.194888293849173 0
-0.1802211836735959 0
-0.1666366924320533 0
-0.1539434425412643 0
-0.1420347543552128 0
-0.1309055045525895 0
-0.1204578642802183 0
-0.110639404341835 0
-0.1014154478262065 0
-0.092730633676532 0
-0.08453538058493609 0
-0.07680582653653296 0
-0.06949819163199834 0
-0.06257449177832961 0
-0.05601712094067149 0
-0.0497936295800203 0
-0.04388707841698174 0
-0.03827617946219147 0
-0.0329380028260805 0
-0.02786170984223339 0
-0.02302127349542697 0
-0.02301455617850899 0
-0.02300720417715607 0
-0.02299702587601917 0
-0.0229800794828424 0
-0.02296181004209939 0
-0.02294252654741876 0
-0.02291925468850966 0
-0.02289307431375472 0
-0.02286374066310098 0
-0.02283192751842895 0
-0.0228003691023706 0
-0.02276225587233285 0
-0.02272183750520448 0
-0.02268252032162068 0
-0.02263821840444455 0
-0.02259216052543429 0
-0.02254437524952608 0
-0.02249320580632464 0
-0.02244054630620377 0
-0.02238448384444961 0
-0.02232538335112464 0
-0.02226197186335841 0
-0.02219655459531604 0
-0.02212782174053652 0
-0.02206038792171962 0
-0.02198919570969832 0
-0.02191447622148184 0
-0.0218429145715253 0
-0.02176431943317087 0
-0.02168426095682203 0
-0.02159905639427514 0
-0.02150964062603405 0
-0.02141880139455386 0
-0.02132777737078902 0
-0.02123607118531131 0
-0.02114164489547346 0
-0.02104891916621683 0
-0.02095249747488839 0
-0.02085455130279361 0
-0.02076087207616756 0
-0.02066100810647755 0
-0.02056679852821738 0
-0.0204647007194416 0
-0.02036693282895446 0
-0.02026195265033893 0
-0.02015990301280379 0
-0.02005334446736354 0
-0.01994757384691551 0
-0.01983076391500913 0
-0.0197180095934892 0
-0.01959285773304232 0
-0.01947427995022727 0
-0.01935540644218057 0
-0.01923010876779487 0
-0.01911005610252466 0
-0.0189826735888558 0
-0.01886276008472852 0
-0.01873217542503237 0
-0.01860840370952561 0
-0.0184725849043408 0
-0.0183439709779586 0
-0.01821260302136742 0
-0.01807770556877889 0
-0.01794565424178003 0
-0.01781108567304111 0
-0.01767099416153205 0
-0.01753368860924621 0
-0.01738933960648621 0
-0.01724831539089841 0
-0.0170986678605704 0
-0.01694454237481391 0
-0.01679143641526231 0
-0.01664022210808669 0
-0.01647686316487173 0
-0.0163213961169105 0
-0.01615550370897531 0
-0.01599711635507876 0
-0.01582669314953596 0
-0.01565971572294244 0
-0.01550131752200073 0
-0.01532892240233263 0
-0.01516486602938979 0
-0.01499805095835247 0
-0.0148198019997452 0
-0.01465178489634928 0
-0.01447226571543721 0
-0.01430491439428097 0
-0.01412752215465626 0
-0.01395786108266731 0
-0.01378457778668508 0
-0.01360880629700852 0
-0.01342953376766418 0
-0.0132391959673366 0
-0.01304977681745846 0
-0.0128662561339726 0
-0.01268059691147914 0
-0.01249130469720754 0
-0.0123114428054331 0
-0.01211861522027906 0
-0.01193545597837817 0
-0.0117384039948068 0
-0.01155375174417455 0
-0.01135705645058391 0
-0.01117157829979699 0
-0.01097419296323105 0
-0.01077703326609819 0
-0.01058771982387503 0
-0.01038253513794184 0
-0.0101834771536241 0
-0.009984234410585583 0
-0.0097757166821814 0
-0.009565936062732419 0
-0.009365830262798372 0
-0.009150561230886126 0
-0.008947231839999951 0
-0.008729428162315762 0
-0.008523779918318229 0
-0.008305834212411628 0
-0.008092821717710464 0
-0.007878389224811908 0
-0.00766134496849355 0
-0.007447160305553626 0
-0.007227963648194937 0
-0.007014270110011051 0
-0.006796362909924498 0
-0.006582519076616519 0
-0.00636710966386728 0
-0.006146069421088089 0
-0.005935628521906858 0
-0.005713185898572904 0
-0.005498588176777821 0
-0.005280541231583037 0
-0.005055087573165903 0
-0.004841390053509725 0
-0.004624145262752706 0
-0.004411445683051871 0
-0.004195892270884597 0
-0.003984295333674387 0
-0.0037694121013889 0
-0.003556445763102804 0
-0.003343226143875032 0
-0.003130302698021982 0
-0.002918386085174739 0
-0.002703312791223619 0
-0.00249279625877135 0
-0.002284637680532328 0
-0.002074312440577431 0
-0.001861989574380386 0
-0.00165372480945198 0
-0.001445708189431744 0
-0.001236586533103666 0
-0.001031254005162195 0
-0.0008220727619925425 0
-0.0006151733017516822 0
-0.0004116984899503448 0
-0.0002034818548375111 0
-0.01832336982161678 0
-0.01367351084463208 0
-0.009070095489262683 0
-0.004511618032208071 0
-2.050599036892342 0
-2.15170416102973 0
-2.152257092129969 0
-2.149747992279754 0
-2.144450337261977 0
-2.136460740668392 0
-2.125814907040797 0
-2.112542451274057 0
-2.096655674366558 0
-2.078145237368512 0
-2.056992008442442 0
-2.033174035835338 0
-2.006675141724503 0
-1.977410014692962 0
-1.9453419011134 0
-1.910397804178411 0
-1.872460287456557 0
-1.831398594815088 0
-1.787083114575549 0
-1.739155149245991 0
-1.613124711457688 0
-1.578326420481014 0
-1.619434202953421 0
-1.658060065890321 0
-1.694298327816357 0
-1.727798797523112 0
-1.758599484598548 0
-1.787315102337187 0
-1.813545184611873 0
-1.837296570028364 0
-1.858851661146219 0
-1.878091696162979 0
-1.894979035280055 0
-1.909633010425591 0
-1.921979457776933 0
-1.932074812535244 0
-1.939863855786549 0
-1.945403519269315 0
-1.948573162580709 0
-1.949350292186917 0
-2.30370921858097 0
-2.394140431296366 0
-2.395073648686019 0
-2.3927029794269 0
-2.387237933402703 0
-2.378728481860593 0
-2.367205907782767 0
-2.352676681189627 0
-2.33515098613356 0
-2.314621828532843 0
-2.291041579593328 0
-2.264403309101127 0
-2.234637998764564 0
-2.20168552267701 0
-2.165462682942915 0
-2.125880727965791 0
-2.08281389983797 0
-2.036104341158047 0
-1.985597530980717 0
-1.931006855129912 0
-1.806155467449293 0
-1.78927653577292 0
-1.839233675297945 0
-1.885262507760663 0
-1.927855407176823 0
-1.96716695030593 0
-2.003345260894289 0
-2.036512848894479 0
-2.066742991314572 0
-2.094101842140064 0
-2.118644357490591 0
-2.140431846635413 0
-2.159454062618507 0
-2.175757064143439 0
-2.189340851304222 0
-2.200186510515969 0
-2.208277838059369 0
-2.213567386395733 0
-2.215966710720371 0
-2.215207534956988 0
-2.526890502557511 0
-2.605884990230341 0
-2.606655855923724 0
-2.603971635674802 0
-2.598000469086214 0
-2.588757122080252 0
-2.576244449302013 0
-2.560457765965108 0
-2.541384070802825 0
-2.518998788952801 0
-2.493265821373822 0
-2.464147389955226 0
-2.431574943986453 0
-2.395491883988335 0
-2.355813477014858 0
-2.312422436964694 0
-2.265234509822906 0
-2.214112570158203 0
-2.158896068947997 0
-2.099389243354278 0
-1.977505622618993 0
-1.975154451020514 0
-2.031203283878887 0
-2.083022637072173 0
-2.13093691949911 0
-2.175127660536511 0
-2.215747763939243 0
-2.252895135078674 0
-2.286684157920221 0
-2.317198564483649 0
-2.344493980112503 0
-2.36863431472086 0
-2.389650521392876 0
-2.407573343592933 0
-2.422417773412219 0
-2.434183952776168 0
-2.442863320214372 0
-2.448433890604467 0
-2.450854671270546 0
-2.449945644758863 0
-2.719927923305998 0
-2.787639167557954 0
-2.788102047473898 0
-2.78497280458546 0
-2.778399520421449 0
-2.768382424191357 0
-2.754904754080596 0
-2.737948596577279 0
-2.717490489623706 0
-2.693499234537175 0
-2.665923782640658 0
-2.634730423837906 0
-2.599850609307888 0
-2.561217319355015 0
-2.518752223604153 0
-2.472366900641411 0
-2.421963414733078 0
-2.367436378611731 0
-2.308662825946234 0
-2.245462703116654 0
-2.127585059421264 0
-2.137893749867648 0
-2.198501826528513 0
-2.254703581479971 0
-2.306767413677808 0
-2.354840996947479 0
-2.399046710123027 0
-2.439488207512656 0
-2.476263950156147 0
-2.509457225904345 0
-2.539131858701972 0
-2.565361102046305 0
-2.588170314203032 0
-2.607608106473668 0
-2.62369935892944 0
-2.636459619354568 0
-2.645896850140133 0
-2.652016790254108 0
-2.654805122660407 0
-2.654115730220682 0
-2.883591163507929 0
-2.940251698119291 0
-2.940388964899542 0
-2.936822618425318 0
-2.929685978532522 0
-2.918969240716394 0
-2.904647108051542 0
-2.88669385002109 0
-2.865078647240886 0
-2.839764056843082 0
-2.810706415413952 0
-2.777855050355512 0
-2.741149559640339 0
-2.700525176170941 0
-2.655909246593421 0
-2.607221281144075 0
-2.554374154294501 0
-2.497274119866003 0
-2.435821947828118 0
-2.369832806018305 0
-2.25691334242859 0
-2.27851288374357 0
-2.342551526509071 0
-2.402063802556853 0
-2.457307867304216 0
-2.508390051433796 0
-2.555413529328655 0
-2.598473150363874 0
-2.637655063951019 0
-2.673036236042055 0
-2.70468510495896 0
-2.732661733084477 0
-2.757013704342134 0
-2.777784175399558 0
-2.795007706582692 0
-2.808710326933278 0
-2.818912208396435 0
-2.82563339968299 0
-2.828873892794169 0
-2.828507104168581 0
-3.018572035252443 0
-3.064467746012145 0
-3.064341728348707 0
-3.060420558392728 0
-3.052829469140219 0
-3.041553662830219 0
-3.026562915151926 0
-3.007830867267512 0
-2.98532397996686 0
-2.959001580889923 0
-2.928817301578067 0
-2.894728074739365 0
-2.856662934713341 0
-2.814568226372216 0
-2.768374209454014 0
-2.718005976545997 0
-2.663384131688415 0
-2.604425477145797 0
-2.541033745523149 0
-2.473053948183144 0
-2.365666637975615 0
-2.397561857565234 0
-2.464159170480002 0
-2.526167454462054 0
-2.58379454078497 0
-2.637145354194793 0
-2.68630942524475 0
-2.731371677746238 0
-2.772411347853311 0
-2.809501195119421 0
-2.842698467978489 0
-2.872072530050204 0
-2.897669153102952 0
-2.919533013632265 0
-2.937702465393601 0
-2.952209388748793 0
-2.963080535115967 0
-2.970343116680781 0
-2.974006088217599 0
-2.973955586947578 0
-3.125465719430136 0
-3.160948895946564 0
-3.160645501209442 0
-3.156477753105331 0
-3.14856839801882 0
-3.136902261531227 0
-3.121443839377021 0
-3.10217501077894 0
-3.079056824308864 0
-3.052047526064832 0
-3.02110235438645 0
-2.986171315552193 0
-2.947198725834821 0
-2.904123870236101 0
-2.85688114210968 0
-2.805400168547483 0
-2.749606179632502 0
-2.6894213612565 0
-2.624754714046373 0
-2.555449342487493 0
-2.45426022787244 0
-2.495563845352714 0
-2.563966475952801 0
-2.627736686701919 0
-2.687059190185607 0
-2.742028755032885 0
-2.792726914116316 0
-2.839231682669424 0
-2.881616337172531 0
-2.919948102398975 0
-2.954288073661084 0
-2.984695273973067 0
-3.011219372369597 0
-3.033904585213856 0
-3.052793895294315 0
-3.067924349025917 0
-3.079311211790076 0
-3.086995106763716 0
-3.090986110365712 0
-3.091172718552326 0
-3.205006183467631 0
-3.230226685884414 0
-3.229807806500607 0
-3.225498138884911 0
-3.217411917429318 0
-3.205525593086714 0
-3.189818916696906 0
-3.170260167473555 0
-3.146812555440926 0
-3.119436415872014 0
-3.088087721872317 0
-3.052715978237198 0
-3.013265611838039 0
-2.969677912525443 0
-2.921888920525954 0
-2.86982989896958 0
-2.813428425961157 0
-2.752608078647555 0
-2.687283711034097 0
-2.617288271820017 0
-2.522830334610359 0
-2.572803576711113 0
-2.642368561226619 0
-2.707252731700269 0
-2.76765178782041 0
-2.823649664964984 0
-2.87532453452034 0
-2.922750257866102 0
-2.965996608646916 0
-3.005128700699577 0
-3.040206833734492 0
-3.071286357069574 0
-3.098417428455208 0
-3.121644882189374 0
-3.141009042285741 0
-3.156547929677636 0
-3.168289795600058 0
-3.176255386927425 0
-3.180465896070409 0
-3.180815305261771 0
-3.257455949340261 0
-3.272507330609771 0
-3.272061587230241 0
-3.267733142758449 0
-3.259615830656455 0
-3.247699028733146 0
-3.231955639252739 0
-3.212354629802749 0
-3.188862592434032 0
-3.161439443211193 0
-3.130040675849026 0
-3.094619265922381 0
-3.055114463998616 0
-3.011471741539946 0
-2.963625828142914 0
-2.911507692808183 0
-2.855044677649256 0
-2.794161298075694 0
-2.728770098564127 0
-2.658713283442773 0
-2.571646261829788 0
-2.629551253631585 0
-2.699625059213278 0
-2.765022394855639 0
-2.825911032982044 0
-2.882378793649921 0
-2.934500876966858 0
-2.982349634920774 0
-3.025993891428912 0
-3.06549842188034 0
-3.100918292772787 0
-3.132311700433464 0
-3.159730208013009 0
-3.183215659123585 0
-3.20280851107595 0
-3.21854469155755 0
-3.230454614445984 0
-3.238564682782142 0
-3.242887467774167 0
-3.243337563597469 0
-3.282838096267497 0
-3.287819156077852 0
-3.28745415869715 0
-3.283215643547934 0
-3.275217720228526 0
-3.263446234001112 0
-3.247878212844064 0
-3.228480327204942 0
-3.205226226472861 0
-3.178076029831144 0
-3.146978710340623 0
-3.111889885794002 0
-3.072758605592299 0
-3.029519404054487 0
-2.982106533294281 0
-2.930449281457413 0
-2.874471646306549 0
-2.814093703850013 0
-2.749221937559048 0
-2.67968515603141 0
-2.600589214940852 0
-2.665870731749394 0
-2.735856159076147 0
-2.801173066360925 0
-2.861984105528257 0
-2.918377628628181 0
-2.970429824525098 0
-3.018213981707499 0
-3.061799022527226 0
-3.101248766135904 0
-3.136623924696513 0
-3.167983285224581 0
-3.195364960549847 0
-3.218823762977074 0
-3.238398672522832 0
-3.254116346166999 0
-3.266013142261406 0
-3.274113689157978 0
-3.278431995578971 0
-3.278868934518175 0
-3.281156888839249 0
-3.27605457571949 0
-3.275819584062253 0
-3.271777401942949 0
-3.264026611744466 0
-3.252563531927895 0
-3.237366966736346 0
-3.218411214413714 0
-3.195666135424957 0
-3.1690960784187 0
-3.13865626150602 0
-3.104295680094445 0
-3.065966386632723 0
-3.023600350290607 0
-2.977128705300803 0
-2.9264760268451 0
-2.871560297558548 0
-2.812294453150684 0
-2.748577008564066 0
-2.680223938658633 0
-2.609727383343612 0
-2.681744914888966 0
-2.751043592743625 0
-2.815688319512154 0
-2.875846903290816 0
-2.93161460442298 0
-2.983072878138747 0
-3.030298979293949 0
-3.073364595132639 0
-3.112336349151762 0
-3.147279689727017 0
-3.178245878003949 0
-3.205280300227991 0
-3.228432525783919 0
-3.24774021797318 0
-3.263234352949806 0
-3.274943249200998 0
-3.282891192734406 0
-3.287085480980663 0
-3.287432953644148 0
-3.252225963610188 0
-3.23682679405816 0
-3.236779792775952 0
-3.233007210112856 0
-3.225610128318264 0
-3.214596020597657 0
-3.199946766228241 0
-3.18164490454849 0
-3.159665747897464 0
-3.133977160696888 0
-3.104540310974412 0
-3.071309044636802 0
-3.034225601190489 0
-2.993225272500852 0
-2.948235360536132 0
-2.89917446933651 0
-2.8459495843708 0
-2.788461812280155 0
-2.726596493047024 0
-2.66014199040511 0
-2.599083780427704 0
-2.677166021690095 0
-2.745094569680659 0
-2.808416751024394 0
-2.867303079459742 0
-2.921857408808763 0
-2.972169171212486 0
-3.018322353158664 0
-3.060394156169971 0
-3.098455204324913 0
-3.132569355322971 0
-3.162790977473734 0
-3.189168856284118 0
-3.211745704320155 0
-3.230556809756816 0
-3.245631058560948 0
-3.256993948484497 0
-3.264667363627533 0
-3.268648511667644 0
-3.268851341088277 0
-3.195400654121848 0
-3.169590422581183 0
-3.169762877502843 0
-3.166293802752223 0
-3.159310668684293 0
-3.148832528041221 0
-3.134854934998853 0
-3.117379470008215 0
-3.096388696079254 0
-3.071859511748485 0
-3.043758703806453 0
-3.01205002665473 0
-2.976672706726669 0
-2.937560730662724 0
-2.894638322926439 0
-2.847823822458712 0
-2.79700401259376 0
-2.742063366191705 0
-2.682876910697135 0
-2.619178519529193 0
-2.568396560489677 0
-2.651901043657333 0
-2.717724899060908 0
-2.778999875309635 0
-2.835930439729147 0
-2.888624658384504 0
-2.937186268937373 0
-2.981717500719525 0
-3.022296030086168 0
-3.058996879005019 0
-3.091881738529274 0
-3.121016600884055 0
-3.146440108857714 0
-3.168190738931384 0
-3.186299800938208 0
-3.200792512227492 0
-3.211677095798376 0
-3.218971593218896 0
-3.222669902631178 0
-3.222668357090926 0
-3.110312183459407 0
-3.073855476245599 0
-3.074138600775937 0
-3.070877097264729 0
-3.064238995714146 0
-3.054273050338188 0
-3.04100464372084 0
-3.024448082460701 0
-3.004605053437958 0
-2.981464841003815 0
-2.955005558068105 0
-2.925193907463055 0
-2.891980044197264 0
-2.855304229896893 0
-2.815087517574021 0
-2.771245576375903 0
-2.723660338400109 0
-2.67220056997734 0
-2.616697431435799 0
-2.556849440042529 0
-2.51777610617799 0
-2.60568707263063 0
-2.66847270999817 0
-2.72684220348072 0
-2.781002892857584 0
-2.831096321916067 0
-2.877240093571416 0
-2.919546827826389 0
-2.958099768433937 0
-2.992979266200788 0
-3.024249903116759 0
-3.051965762116246 0
-3.076166897776409 0
-3.09688314350752 0
-3.114134899096225 0
-3.12793272522609 0
-3.138276535715233 0
-3.145161329951385 0
-3.1485632635086 0
-3.148355161148768 0
-2.996672396508556 0
-2.949198005648776 0
-2.949180774519226 0
-2.945750238868162 0
-2.93916824284716 0
-2.92952111359144 0
-2.916859250352753 0
-2.901211296149897 0
-2.882592264902423 0
-2.861002458304178 0
-2.836425842102595 0
-2.808845993896612 0
-2.778219864923034 0
-2.744504156156322 0
-2.707637698243631 0
-2.667551662424236 0
-2.624146097376794 0
-2.577288909424185 0
-2.526782942535841 0
-2.472251307832591 0
-2.44659775734406 0
-2.537901634245479 0
-2.596507261142095 0
-2.650895097897999 0
-2.701317337573417 0
-2.747949134080943 0
-2.790925086712009 0
-2.830363387022629 0
-2.866347014179616 0
-2.898952464416647 0
-2.92823095036357 0
-2.954242046066177 0
-2.97700754014284 0
-2.996548475337701 0
-3.012873010867217 0
-3.025975568387053 0
-3.035836940131328 0
-3.042422461813705 0
-3.045678047888768 0
-3.045426126536247 0
-2.854833440718501 0
-2.795306246990097 0
-2.793613334849613 0
-2.789178374117407 0
-2.782138536856186 0
-2.772480238928537 0
-2.760296572361586 0
-2.745429933818605 0
-2.727976378594131 0
-2.708104145500983 0
-2.685620211358065 0
-2.660443489229362 0
-2.632756465324612 0
-2.602384175243266 0
-2.569416179122357 0
-2.533712313301517 0
-2.495216825667113 0
-2.454420220341377 0
-2.410536609474253 0
-2.363386225649783 0
-2.354298815175622 0
-2.447541302715758 0
-2.500326545340038 0
-2.549333330578887 0
-2.594838355389181 0
-2.637047952537775 0
-2.676088386903605 0
-2.712024898043965 0
-2.744929438224936 0
-2.774851882562356 0
-2.801840705466545 0
-2.825912317445539 0
-2.84709526408172 0
-2.865407361958885 0
-2.880842115029767 0
-2.893380803917684 0
-2.902997929956763 0
-2.90964830797708 0
-2.913238374667838 0
-2.913511881107059 0
-1.991072206414702 0
-1.925070055529486 0
-1.871215591356965 0
-2.035161271654362 0
-1.805199154882359 0
-1.683700007232467 0
-2.053943548432567 0
-2.048934247352579 0
-1.952941435503946 0
-2.024307122024484 0
-1.7259520579468 0
-1.900009329188964 0
-1.839552328536447 0
-2.042635509354097 0
-2.052956468005833 0
-1.972493134620201 0
-1.767668560739038 0
-2.008009421439188 0
-1.62676802482155 0
-2.079787622711185 0
-1.671486446020291 0
-2.017435086562853 0
-2.221752396831544 0
-2.13877309077222 0
-2.276841514800448 0
-2.310097803566974 0
-1.937926687509178 0
-2.297537407945783 0
-2.02861335185285 0
-2.193974017145631 0
-2.262001755351026 0
-2.067396490696983 0
-1.885566060839454 0
-2.307694505948527 0
-2.288086743298078 0
-1.986159790637659 0
-2.30467620127444 0
-2.168539007726038 0
-2.242014301806909 0
-2.105279352054374 0
-1.824010079461136 0
-2.333166134250885 0
-2.273604555515288 0
-1.866110349939016 0
-2.40850451111516 0
-2.458485889955763 0
-2.307765205022206 0
-2.532938388780601 0
-2.066042596999869 0
-2.176179002438909 0
-2.519780179713765 0
-2.495506009247584 0
-2.343728545119026 0
-2.223081322657237 0
-2.531059713999911 0
-2.435141337646448 0
-2.124636150502394 0
-2.527418063940735 0
-2.47859424907736 0
-2.509234110570737 0
-2.378374054131622 0
-2.268043847464477 0
-2.00568399585435 0
-2.552958782499736 0
-2.50097308602088 0
-2.038237987177897 0
-2.620637254918884 0
-2.666537941797519 0
-2.522839434927987 0
-2.699613507400709 0
-2.723717602678537 0
-2.222117021586724 0
-2.34119407511222 0
-2.439816852280436 0
-2.589405904830718 0
-2.720643130989933 0
-2.723828031778643 0
-2.645015847479969 0
-2.684784883263067 0
-2.285142086919813 0
-2.392508758581745 0
-2.483227869198677 0
-2.558469979075252 0
-2.711297950516541 0
-2.161004723736221 0
-2.742584568935888 0
-2.697997308775758 0
-2.188194446337766 0
-2.711014497949573 0
-2.825309758506302 0
-2.631114574033222 0
-2.860523457884869 0
-2.535289195171982 0
-2.88662494827576 0
-2.420987137600915 0
-2.775589080930391 0
-2.882763254069058 0
-2.354104211955807 0
-2.887344237040371 0
-2.74518490972476 0
-2.673014678726202 0
-2.585235136470121 0
-2.844712693946385 0
-2.480884702017778 0
-2.80228179909264 0
-2.872979753979152 0
-2.291079616067134 0
-2.90287827475797 0
-2.865511633020969 0
-2.315907914898751 0
-2.872072555385639 0
-2.79726773590984 0
-2.705917192391455 0
-2.993150523668366 0
-2.597833624304544 0
-3.020934719359793 0
-2.467899608606759 0
-2.956207628104717 0
-2.905411388383776 0
-3.016366703044026 0
-3.022209121331005 0
-2.836801484443324 0
-2.75364387489319 0
-2.65400891732019 0
-2.536612700640676 0
-2.976538954583947 0
-2.932311949797106 0
-3.006240738102487 0
-2.407219180944091 0
-3.034584377267357 0
-3.004265788026662 0
-2.424239886105832 0
-2.973907806732749 0
-3.035324181834074 0
-2.896526922270708 0
-2.802689822028327 0
-3.098889606762905 0
-2.691823939067514 0
-3.127401492942444 0
-2.558705439888797 0
-3.081952727223781 0
-3.122250598710766 0
-3.129120309185167 0
-3.006583914845534 0
-2.937241823921 0
-2.851699274080475 0
-2.749424446860779 0
-2.629090696080016 0
-3.112018057287856 0
-3.06029771055101 0
-2.499002060509894 0
-3.138350023173448 0
-3.114906942606323 0
-2.511150420204686 0
-3.137849549656821 0
-2.925851931803904 0
-3.190887090899636 0
-3.207187473655036 0
-2.69932535043636 0
-2.822025633791549 0
-3.012766607370978 0
-3.083285563372326 0
-3.177352030592322 0
-2.626469037082199 0
-3.208762535072814 0
-3.050046240520268 0
-3.200635472798639 0
-2.876087937193918 0
-2.763369623178178 0
-2.971389198946047 0
-3.112537374194898 0
-3.15934743454016 0
-2.567230417247896 0
-3.214802379423053 0
-3.198113119388409 0
-2.576415657647567 0
-3.101460326036553 0
-3.18960047148667 0
-3.022192662259103 0
-2.926413301886577 0
-3.228837118947142 0
-3.252693689404857 0
-2.677741969609567 0
-3.26139748251188 0
-2.813386113377928 0
-3.135298269599447 0
-3.063828064610719 0
-2.976423317253201 0
-3.211156716841222 0
-3.242673795843436 0
-3.25895993915565 0
-2.872092501852787 0
-2.749470965566794 0
-3.164224136196904 0
-3.263885271221864 0
-2.621313449283563 0
-3.254540651183796 0
-2.624026288130123 0
-3.160417195355341 0
-3.049041988246208 0
-3.236800425695494 0
-2.841285624093597 0
-3.284566146781505 0
-2.70620787086246 0
-3.268297124624698 0
-2.953756641374152 0
-3.127227232567662 0
-3.215458425554506 0
-3.286873583426752 0
-2.777659880615545 0
-2.899707464729343 0
-3.254527186763276 0
-3.278278692261596 0
-3.003510554427913 0
-3.090332346998638 0
-3.190115614344193 0
-2.652071074925308 0
-3.286603793061253 0
-3.283309373538553 0
-2.650139372850293 0
-3.161350063561033 0
-3.051797244112025 0
-2.958006379209384 0
-3.25383711134136 0
-3.277033440479164 0
-2.713969216747778 0
-3.285431639246083 0
-2.847215344489066 0
-3.215533684695953 0
-3.12894301075355 0
-3.006987505855677 0
-3.267311395219542 0
-3.190562087616241 0
-3.283080230308344 0
-2.904776658664074 0
-2.784486510018271 0
-3.236587615992268 0
-3.092460445643262 0
-2.662572468154338 0
-3.282287469222832 0
-3.285387618867561 0
-2.656067224407234 0
-3.030067437656621 0
-3.209609232646718 0
-3.248287424344609 0
-2.830925823398573 0
-2.70090416590205 0
-3.256696539760267 0
-2.938824869337355 0
-3.165010417735559 0
-3.105292072527319 0
-3.238822601115412 0
-3.069647066368783 0
-2.769758793277429 0
-3.25443192416969 0
-2.887002396294727 0
-3.18918012594376 0
-2.986485258697517 0
-3.137062533263604 0
-3.226234063852602 0
-2.652781219495143 0
-3.250643789397929 0
-3.260074543700091 0
-2.641708128720237 0
-3.112594761900691 0
-3.022421829030027 0
-2.897086197689145 0
-3.170648503567408 0
-2.733805912174835 0
-3.200176162371946 0
-3.192754982052473 0
-3.055160771003004 0
-3.154494290171288 0
-2.942399072676254 0
-2.792783638737495 0
-2.664518492477405 0
-3.183729013781391 0
-3.198189935367904 0
-3.085752910867072 0
-2.846222126204859 0
-3.135629807224198 0
-2.983545457701383 0
-3.191114637045202 0
-2.620741422634943 0
-2.605092549381974 0
-3.206996311695941 0
-2.945761142996476 0
-3.054282085125247 0
-2.828531313415078 0
-3.088095782461218 0
-3.108382380357853 0
-3.1153220326936 0
-2.610965552528568 0
-2.729431405439349 0
-3.006908054539517 0
-2.871694351924977 0
-2.97807694630518 0
-3.07287768044965 0
-3.099934963457856 0
-3.113500095289552 0
-2.78052367931263 0
-2.673810455298865 0
-3.032299136687774 0
-2.910111858327824 0
-3.103244365607814 0
-2.571368307861192 0
-3.125681861306228 0
-2.551171263519519 0
-2.922572861354618 0
-2.84364685086563 0
-2.733681033476926 0
-2.986467630584126 0
-2.642039029284573 0
-2.532765502118093 0
-3.002182571880638 0
-2.960735506634477 0
-2.871327984059881 0
-2.77365386492013 0
-2.998540332075804 0
-2.689170396165819 0
-2.590774308240345 0
-2.943204045928455 0
-2.975162834572749 0
-2.898720121620231 0
-2.994448280195649 0
-2.809203104736047 0
-2.498853448012559 0
-2.986653716348224 0
-3.015842713719556 0
-2.474019839123522 0
-2.757810920022852 0
-2.800487404647243 0
-2.676991461603167 0
-2.830741819386284 0
-2.571199838030223 0
-2.430359400653909 0
-2.858345222919082 0
-2.849952898431555 0
-2.735636499841247 0
-2.609870485705805 0
-2.483254418514846 0
-2.781023776672932 0
-2.816989430314511 0
-2.84173511133839 0
-2.855457174112009 0
-2.707383750796708 0
-2.527808932021571 0
-2.64424067408994 0
-2.403861799464044 0
-2.841209210474324 0
-2.876984934904892 0
-2.374130413357312 0
-0.9893113600819315 0
-1.552379866929938 0
-1.823515604713727 0
-1.58206779579277 0
-1.092220378123639 0
-1.953526804036968 0
-0.8833546159590537 0
-1.584737436968171 0
-2.120970787063455 0
-2.29058505732712 0
-1.929136862769449 0
-1.344064009907078 0
-2.131928770176389 0
-2.148965749486933 0
-0.7495383558139092 0
-2.265141461587105 0
-2.110608246925961 0
-1.429125211437711 0
-1.934797219820771 0
-2.032425312307605 0
-1.657343012709889 0
-2.532072489514335 0
-2.327222960448426 0
-2.335790296886642 0
-2.158634868363579 0
-2.270310902259032 0
-2.360523696747225 0
-2.12405042539725 0
-1.872700931460039 0
-1.563187783085802 0
-1.477650504256902 0
-1.3662949960473 0
-1.208342389364465 0
-1.024776303901816 0
-2.318345091732902 0
-2.313414308230834 0
-2.253612786178817 0
-2.059909457917132 0
-2.408676815401329 0
-0.461487341294722 0
-0.5217426741031825 0
-2.420793741903446 0
-2.54615729505262 0
-2.444680839151069 0
-1.104791009827132 0
-2.071302193588133 0
-1.298643834267348 0
-1.298871968072425 0
-1.773524496568874 0
-2.379695998614484 0
-2.324329203341439 0
-2.431559119016311 0
-2.468531033205572 0
-1.84431963347881 0
-0.752542396002286 0
-1.649889177361906 0
-1.661611970831291 0
-2.288560569945035 0
-1.811224207671636 0
-2.494714267513154 0
-1.48545098074037 0
-2.696269821242322 0
-0.5234915479684908 0
-1.434827775689185 0
-1.567750470338134 0
-1.321223915445909 0
-2.131766555845581 0
-2.422404189548511 0
-1.454636081747875 0
-2.512656338049244 0
-2.483517477487915 0
-1.726996964999619 0
-1.718663665909491 0
-1.962112461160936 0
-1.682678097808298 0
-0.9518876905278337 0
-2.061614179690278 0
-1.63590865575425 0
-2.217604091643049 0
-2.391875563455105 0
-1.670100164441101 0
-2.196298133064221 0
-1.494040332388449 0
-1.580585825552113 0
-2.446296298175935 0
-2.541877968472814 0
-2.166558872931479 0
-1.761823569127852 0
-1.318483792566817 0
-2.654718606971658 0
-2.293700197665437 0
-2.03395896027072 0
-2.397286366066683 0
-1.306244976916106 0
-1.311461655678736 0
-1.012866919990016 0
-1.712900145245158 0
-1.748676734929346 0
-2.482071262177073 0
-1.913375507714713 0
-2.083606752289497 0
-1.323410220225741 0
-1.281975480291558 0
-1.775302628432908 0
-2.398744929547239 0
-2.154853475927057 0
-0.9331548967508146 0
-2.037249072445215 0
-1.692651127593887 0
-0.2355938793865945 0
-2.268185916254915 0
-0.6408144233789018 0
-2.353096754313811 0
-2.378567160417075 0
-1.883649901455827 0
-0.6576067210874472 0
-2.161892758179935 0
-1.940173689993721 0
-1.74946605670236 0
-2.504641330162707 0
-2.513769337911816 0
-2.121420063637949 0
-2.265333343715018 0
-2.338066886683443 0
-1.958072844896029 0
-2.230905842803981 0
-2.15014873915234 0
-1.479649195589094 0
-2.056978144795491 0
-1.427457042800138 0
-2.357226776198767 0
-2.44641203310353 0
-2.497365738398757 0
-2.643680537486818 0
-2.521454167430651 0
-2.424327918409836 0
-1.9369949210922 0
-0.2886528933274053 0
-0.5483117660343921 0
-2.496535505766692 0
-1.778528893951401 0
-2.341042561957646 0
-1.821998352318745 0
-1.691836238475437 0
-1.556098109305069 0
-0.4337506253840029 0
-2.063824360806813 0
-1.055860136719881 0
-1.985426480660085 0
-1.839289648196407 0
-2.329524435587014 0
-1.760633113837827 0
-2.484403461525837 0
-2.532008087402698 0
-1.492047329587049 0
-2.1554334737428 0
-0.8432230609232141 0
-1.788538381535188 0
-2.692466240452123 0
-2.561981749872067 0
-0.8349784983772687 0
-1.46305756575357 0
-1.512891473939162 0
-1.674098233088485 0
-2.173431127665484 0
-1.474982134863212 0
-1.014310612977463 0
-2.309731503843677 0
-2.23732847394657 0
-1.727012389858043 0
-1.602410645085752 0
-1.924770604544007 0
-2.353324925537287 0
-1.67822210190041 0
-2.445746225379835 0
-1.876285971322454 0
-1.840318794039417 0
-2.501786077647876 0
-2.467756785737556 0
-1.327655002973521 0
-2.649644687605999 0
-1.605137565114126 0
-2.015575396055332 0
-2.418574531066461 0
-2.357984095795581 0
-1.095891986301595 0
-1.751365264790511 0
-2.405349963497356 0
-1.866833162048001 0
-0.3557467530399919 0
-2.129845107955836 0
-2.620918958698941 0
-1.638559970321267 0
-1.300480288612142 0
-2.491075479946428 0
-2.397552780052524 0
-1.10107292325425 0
-2.253351560326344 0
-1.709907033146188 0
-1.253586645272215 0
-1.136681297040101 0
-1.805696761278435 0
-2.207387861678687 0
-2.547107385861777 0
-2.552983714141047 0
-3.16593225795467 0
-1.783422131588393 0
-2.225015139991815 0
-3.282542287186205 0
-2.03719760202088 0
-0.7119813735194621 0
-2.560379826281086 0
-2.549153122819811 0
-1.207833700982688 0
-1.961003308086203 0
-2.289741073883142 0
-1.642328098521239 0
-2.43323989067271 0
-2.430569602363817 0
-2.258085992316851 0
-2.80353019851261 0
-2.331700959370067 0
-1.419759884826174 0
-0.478086901871626 0
-2.388638437782617 0
-2.282435848938744 0
-3.154168549390983 0
-1.445481659129899 0
-0.8382419349289267 0
-2.519163881908329 0
-2.544997150174892 0
-2.412459822370223 0
-2.013807245733393 0
-2.729249582631017 0
-1.938297107073295 0
-2.182378470121159 0
-2.18089764712015 0
-2.097541060193905 0
-1.534294649523469 0
-2.3461162679816 0
-2.10715806808429 0
-1.959619143724777 0
-2.268665976624915 0
-2.580762416434992 0
-2.530893029861861 0
-2.443870139778961 0
-2.210118279017623 0
-1.975522527426896 0
-3.124731236643596 0
-1.904194798279869 0
-1.675296334390433 0
-0.8192609437541983 0
-3.052448753516064 0
-3.087582491059901 0
-0.6975534326846028 0
-2.620936203966657 0
-2.681524020544516 0
-1.846765111817118 0
-2.748294202730742 0
-1.776693163905541 0
-0.357273538134475 0
-3.266764995460059 0
-3.274706279252816 0
-3.070813085911026 0
-3.103278243427857 0
-0.8116198883331637 0
-1.116541485993543 0
-1.513618863150465 0
-3.232459633264286 0
-3.215159634812129 0
-1.156318969314872 0
-3.270394140371993 0
-3.276951163654722 0
-0.1988426568033423 0
-1.848439869303564 0
-2.950573641240918 0
-2.909645388612201 0
-1.529841782799033 0
-1.450901346358069 0
-1.476465276837275 0
-3.224192984336363 0
-3.206885745387324 0
-0.6503909691529629 0
-3.28060042203873 0
-2.481124075909337 0
-1.621439903014753 0
-1.684850051472328 0
-2.415425666287539 0
-2.351395402644862 0
-2.926345513534046 0
-2.888053018129534 0
-2.459569040685837 0
-1.191493201329863 0
-2.634773043792084 0
-2.667186637306079 0
-3.138534977922452 0
-2.231451632373336 0
-1.844320489016638 0
-1.489429474514189 0
-2.96495227295398 0
-2.502902051537419 0
-2.333562470574563 0
-2.282138858576017 0
-3.118494125312081 0
-2.304284358322662 0
-2.924445388094375 0
-3.129621158753347 0
-2.07572806097712 0
-2.669593886869901 0
-3.07680510369066 0
-3.150778168180354 0
-2.95670055752554 0
-3.112853952771151 0
-2.529189392768734 0
-2.098553362484251 0
-2.699192463805325 0
-2.841310367571438 0
-3.110188532737647 0
-3.149021832245328 0
-2.275731007567402 0
-2.888238862256057 0
-3.082277856805509 0
-3.092587358917672 0
-2.895618357564136 0
-3.179180511900375 0
-2.352014412695042 0
-2.553478569001247 0
-2.854150576183459 0
-3.139572719939854 0
-3.178412570354912 0
-3.203747977610734 0
-2.574405064361163 0
-2.371262883077255 0
-2.747559241485673 0
-2.892243665999302 0
-3.165004647512769 0
-3.163985375058759 0
-3.096704551842845 0
-2.435704746410908 0
-2.935017365645988 0
-2.021835249156643 0
-2.736364440352713 0
-2.997821762678293 0
-3.224520173806757 0
-2.592002420167562 0
-3.030273065731905 0
-2.891080005872824 0
-2.150863818440633 0
-2.766411308160035 0
-3.225383176138849 0
-3.238132820951526 0
-3.184020552661579 0
-2.997805144990635 0
-2.822920055301378 0
-2.990935343978863 0
-2.965091100673465 0
-2.397460069659728 0
-2.803725258152996 0
-2.693528881438843 0
-3.138975768217907 0
-2.781751302946984 0
-3.243042421668929 0
-3.255574754442039 0
-3.200408774997898 0
-2.949407828041784 0
-2.781301828685709 0
-2.170554708846125 0
-2.755283963787306 0
-2.940985243526093 0
-2.956810824328354 0
-2.918305189298624 0
-2.672081425027301 0
-2.51373067625201 0
-2.646646326794265 0
-2.902149622528078 0
-2.128689801959855 0
-2.702619513363229 0
-2.896799203168036 0
-2.886728526153469 0
-2.867419787955237 0
-2.814231762456526 0
-2.630896016931988 0
-2.786576950241346 0
-3.254803787679451 0
-3.045081138642677 0
-2.617278515165294 0
-3.060404673196609 0
-2.172343856626428 0
-2.793601119985632 0
-3.217984204129892 0
-3.256861086954502 0
-3.26921038909511 0
-3.143588114416709 0
-2.417809530912112 0
-3.069889086521686 0
-3.264366331449862 0
-3.053343873730976 0
-2.801979483271585 0
-2.949983062188649 0
-3.266868951208573 0
-3.279066951427967 0
-2.179010888499209 0
-2.839893645298341 0
-2.083219449391832 0
-2.728483015102422 0
-2.540402567351886 0
-2.812335427922431 0
-2.761728118780939 0
-3.270228215325093 0
-3.075685875967714 0
-2.806895536134129 0
-2.955390197055809 0
-3.234189523985456 0
-3.273085103681408 0
-3.285161618990037 0
-3.157445318428762 0
-2.929454424008076 0
-2.634075090113304 0
-2.77859569560495 0
-2.584290596330918 0
-2.480855673159047 0
-2.355178633405975 0
-2.764990155519223 0
-2.70506379759193 0
-3.272343503134416 0
-2.422503599002948 0
-2.630365424758789 0
-3.170718899622047 0
-3.236564880939163 0
-3.275467461984289 0
-3.159067931185348 0
-2.931282258985725 0
-2.148670222174689 0
-2.689091106542592 0
-1.788687118723187 0
-2.293797484828959 0
-2.644053803213811 0
-2.486725524606067 0
-2.420187366904951 0
-2.628181316278305 0
-3.076282972329951 0
-3.169393500212066 0
-3.270934656760538 0
-3.057981026378114 0
-2.806349799498096 0
-3.157324001374987 0
-2.92990826438732 0
-2.642501026566884 0
-2.625139578643606 0
-2.620845154809194 0
-2.515751298293581 0
-2.08659057649735 0
-1.923470302759621 0
-2.448098511702549 0
-2.527273260494403 0
-1.737927926945997 0
-2.228135709629003 0
-2.348454670113932 0
-2.586262009656652 0
-2.643860312001928 0
-2.578761170862715 0
-2.431192583633103 0
-2.181748814881669 0
-2.955488297702656 0
-3.235330090560829 0
-3.274242542091172 0
-3.286144203301338 0
-3.228170764247928 0
-2.712765384648185 0
-2.576988941716265 0
-1.98074053025251 0
-2.518404503752953 0
-2.598844048617786 0
-2.69730256820796 0
-2.715423900305597 0
-2.416843945472916 0
-2.658437073924744 0
-3.059774562861719 0
-3.077742075819645 0
-3.287447937349953 0
-3.229736211639054 0
-2.183783874709082 0
-2.957150584545907 0
-2.808280552998533 0
-2.03398194827246 0
-2.206553511778675 0
-2.665949342057357 0
-2.782511888416209 0
-2.752945769924429 0
-2.538432931969733 0
-1.835744473112414 0
-2.726134810937538 0
-3.058279051935879 0
-2.629362351128115 0
-2.421766297496982 0
-3.168461134328151 0
-3.227857124684769 0
-2.182884795381455 0
-2.687018335962015 0
-2.26020451878477 0
-2.645651371430392 0
-2.828090786903423 0
-2.845025143239753 0
-2.58640167319204 0
-1.879244199302408 0
-2.412192865801484 0
-2.78924248311151 0
-2.624971436288816 0
-3.16239783341291 0
-3.22798233838559 0
-3.222316506862096 0
-3.152260584275784 0
-2.924391179912293 0
-2.309816339353229 0
-2.73604309660729 0
-1.919470112279441 0
-2.465007058528132 0
-2.903095608869438 0
-2.59563383260459 0
-2.847887037890676 0
-2.410753422063461 0
-3.152577096206937 0
-2.94098628577842 0
-3.213168939235445 0
-2.916267022578262 0
-3.2415295917455 0
-3.033531568328323 0
-2.400634028957939 0
-2.606290137416571 0
-3.047208705575596 0
-3.131438771840596 0
-2.90515082072291 0
-3.20417442810428 0
-2.162950752382347 0
-2.928382050727585 0
-2.355530905262523 0
-2.840313877535623 0
-1.95656297912302 0
-2.862699640218151 0
-2.208947776159471 0
-2.889769951183057 0
-1.990652506398795 0
-2.558464055662931 0
-2.952104336234757 0
-3.006249448695363 0
-2.907246493746734 0
-2.71006378483687 0
-3.018718553096612 0
-2.38746842649439 0
-3.121568193657771 0
-3.115813111902701 0
-2.912144109274628 0
-3.186525813592501 0
-3.042070811562988 0
-2.860998668824091 0
-2.243975703610129 0
-2.848019795231882 0
-3.007866101124253 0
-2.947970008412423 0
-2.744919589337054 0
-2.599299035744457 0
-3.036649802443321 0
-3.051485396018342 0
-3.000652287844796 0
-3.009569701204459 0
-3.100323536433098 0
-3.203851486440925 0
-3.216854844922426 0
-2.874076546773225 0
-2.136102313100646 0
-2.470360877500552 0
-2.976123837683379 0
-3.078195379646031 0
-3.046706888729613 0
-2.984950442004023 0
-2.776711794901724 0
-2.050173502753633 0
-2.636318083284725 0
-2.775229288242152 0
-3.039368475846123 0
-2.979329870162691 0
-2.985060051799865 0
-3.075202033974621 0
-3.191707108633984 0
-3.140274904584026 0
-3.074095216930094 0
-2.725166290396879 0
-2.868646096809286 0
-2.118671705247255 0
-2.926845720077834 0
-2.50150057398385 0
-3.013152301093179 0
-2.810190282216849 0
-3.081681993286369 0
-3.115633158150954 0
-3.018259474944673 0
-2.805491106007015 0
-2.954735848875408 0
-2.329697925739894 0
-3.04616076781384 0
-3.162645076975682 0
-3.04795847019698 0
-2.831295330829705 0
-2.477040233380003 0
-1.829166830705586 0
-2.475320002902937 0
-2.380425320216793 0
-2.064602701497471 0
-1.955032911705732 0
-1.745176950831705 0
-2.419247399711653 0
-0.9279258879534612 0
-2.630770136679669 0
-1.263157188344458 0
-3.191904485099855 0
-2.209438049106241 0
-3.236953638522694 0
-2.982506294047977 0
-3.281472917835353 0
-1.807859235079478 0
-1.595910719541387 0
-1.713258664531492 0
-2.617739908407137 0
-1.881831660588555 0
-3.26231272856924 0
-1.798589542937533 0
-3.245978865521604 0
-2.85886770859735 0
-2.198743167882972 0
-3.182331866335068 0
-2.443348220417621 0
-2.738699357662968 0
-3.040958012497061 0
-3.25814050899666 0
-0.4320727505901197 0
-0.475390779393878 0
-2.268920449371751 0
-2.548707319193304 0
-3.009294555827219 0
-2.145628936753797 0
-2.43951400392391 0
-2.344935637844464 0
-2.010819664028996 0
-2.326443236258176 0
-2.326967376788805 0
-2.256159071051799 0
-1.857043050862429 0
-0.2861314364870274 0
-1.928675950903143 0
-1.181419582378708 0
-2.240200039670406 0
-2.444958915821378 0
-1.661965054723121 0
-1.392041494899005 0
-1.867626898062864 0
-0.2338478277244579 0
-2.418832934168436 0
-0.7732208255489533 0
-1.434963067160042 0
-1.298466105434267 0
-1.662972771418136 0
-1.816690548960376 0
-2.011912145285463 0
-2.624066872638182 0
-2.413282756012777 0
-2.239583368123116 0
-2.066145198475962 0
-2.045699886549672 0
-1.64437670205397 0
-2.485281696385224 0
-2.751828796945694 0
-1.355373882693097 0
-1.19111972689409 0
-2.480801916121956 0
-2.021242320141797 0
-2.212649269926922 0
-2.303043049707536 0
-0.4859360461120785 0
-1.807176762456089 0
-1.713651232651548 0
-2.745146510822941 0
-0.7501490013433978 0
-2.833965099321763 0
-0.895669550766853 0
-1.716127030817874 0
-1.616326897501372 0
-1.569941140343426 0
-2.735686429054066 0
-2.38541224589317 0
-2.031872642378287 0
-1.77118530415126 0
-1.87239226328642 0
-2.06079620068863 0
-2.274709307637941 0
-2.404251340733704 0
-2.709338486135513 0
-2.347319850570485 0
-2.172939473965951 0
-2.539028515629183 0
-2.01175699121944 0
-0.1223429875730628 0
-2.565442512078059 0
-1.612915152368131 0
-1.227769722452968 0
-1.845026168780728 0
-1.549247367090081 0
-2.393054318934927 0
-1.866972772319433 0
-1.344610056726466 0
-2.782665104162411 0
-1.171379441082384 0
-2.031703581993329 0
-2.56159440742626 0
-1.977180813491469 0
-2.242143244393838 0
-2.717751861786277 0
-1.547189490845566 0
-1.866014098265444 0
-1.428883051867856 0
-2.559079182246888 0
-2.276084080413657 0
-1.003324292555622 0
-2.464307068874005 0
-1.72939163040508 0
-1.586322077905276 0
-2.567158876304209 0
-1.442823533038158 0
-2.370279066801493 0
-0.4204931984166952 0
-2.511093668073499 0
-2.239866754288927 0
-1.669392490591336 0
-2.14412991126272 0
-2.289204262732251 0
-2.258182088928217 0
-1.813270321431358 0
-1.76051254043805 0
-0.7356455706099713 0
-1.091537710904213 0
-2.557211721989042 0
-2.421739915745767 0
-0.1069610018714084 0
-2.161829814615084 0
-1.422350190037824 0
-2.162122708927216 0
-1.702967124657283 0
-2.704631129055219 0
-1.661930070655305 0
-2.468016435774377 0
-2.346714844972275 0
-1.799212630035744 0
-1.687008048407783 0
-2.393710437592953 0
-0.9881308625778895 0
-2.108707663958935 0
-1.212749870243446 0
-3.254074251587747 0
-2.054875243937435 0
-1.359998608283983 0
-0.3637768748090254 0
-1.312874465100246 0
-2.211061566610011 0
-2.123879920862725 0
-2.092042708766153 0
-0.2333976761786986 0
-1.828908543954122 0
-2.298337520886374 0
-2.334926884464087 0
-0.2247259198466146 0
-2.340710458778369 0
-2.069666559825944 0
-2.011416066527823 0
-1.442205464906972 0
-1.347358114221456 0
-1.791583550381303 0
-0.6459216180652627 0
-1.614079303805734 0
-3.015015244441444 0
-2.569164460061017 0
-2.229425027864303 0
-1.561003145417711 0
-2.117984567181614 0
-1.448790279938607 0
-3.249019077576388 0
-2.228671959761972 0
-1.624237882338748 0
-2.539224546967931 0
-2.331468497101604 0
-2.54646842959255 0
-0.8412592452146181 0
-0.6011224226519866 0
-0.3125574861305851 0
-1.110204813920031 0
-1.329838913003349 0
-1.455142777462538 0
-0.206390182298972 0
-1.621022995006991 0
-0.7772498899698638 0
-0.4859794932722383 0
-1.041567953218449 0
-1.310743164265924 0
-1.519876946538604 0
-0.145622952573933 0
-1.472562485228605 0
-0.3567260543411995 0
-0.6505528554080001 0
-0.9338171404640861 0
-1.451860660385432 0
-1.63355857724147 0
-1.195890319657309 0
-1.263693929449768 0
-1.114818223258439 0
-0.4400153361480627 0
-0.6406658273422817 0
-0.9450395101941558 0
-0.1281291244322223 0
-1.312172438442994 0
-0.1236580493198673 0
-1.751325534373308 0
-0.09817144280087493 0
-1.632782682451085 0
-0.2283695844158657 0
-1.735877081357103 0
-1.212692188526306 0
-1.299927371706669 0
-0.5101786535513502 0
-0.8052844573751535 0
-1.086963270714774 0
-0.7139877399231955 0
-0.9853634439007212 0
-0.2870981036913302 0
-1.443151923159409 0
-0.4516273441546528 0
-0.1131487042404146 0
-0.02048293314781124 0
-0.07381866712961764 0
-0.007372077765838737 0
-0.2712076235292752 0
-0.05361323653778177 0
-0.003157900544258521 0
-0.486016697962126 0
-0.01200569131490801 0
-0.02034200925917619 0
-0.05081239533047742 0
-0.06252584659186293 0
-0.0644400610144059 0
-0.0958549871630536 0
-0.335268721137582 0
-0.03903506568903173 0
-0.001216850075032375 0
-0.005003220245926774 0
-0.04657671424823123 0
-0.01144124760046342 0
-0.03103081315164232 0
-0.1219763265203616 0
-0.1917097614188456 0
-0.2479034164232171 0
-0.006784390334710798 0
-0.0447735520920564 0
-0.08022623276595607 0
-0.06957328995373044 0
-0.07644886612721824 0
-0.02513796547224761 0
-0.05855050874016329 0
-0.002216073170827601 0
-0.03735479288700942 0
-0.002893096868291159 0
-0.07339816282550292 0
-0.01294058090279921 0
-0.04918222815870239 0
-0.02697236313784867 0
-0.03612296115348393 0
-0.05107521809980749 0
-0.05463796091075192 0
-0.004137553890828915 0
-0.09894396978447516 0
-0.00853243453119004 0
-0.04429846168461332 0
-0.1222950517957421 0
-0.01350042794970743 0
-0.01540517151333431 0
-0.04372956150323951 0
-0.04239936360228246 0
-0.03634606955638794 0
-0.04758632000072954 0
-0.04424547037067763 0
-0.7638544309417316 0
-0.001283613819302286 0
-0.05275409673652921 0
-0.4774354231925834 0
-0.4840551603806157 0
-0.04133237246092369 0
-0.03756251622330652 0
-0.03798092914643422 0
-0.01550518003285768 0
-0.01743066608037299 0
-0.03224275065887063 0
-0.03009674352430978 0
-0.01186596650913868 0
-0.1582188557180693 0
-0.007998089301953634 0
-0.008737631785877773 0
-0.03605512874072044 0
-0.03436011677084961 0
-0.004662561827982879 0
-0.003097197474275831 0
-0.03608339836319607 0
-0.0381098961938419 0
-0.2619812796787017 0
-0.02505965318071246 0
-0.03615306458669017 0
-0.02149106946566647 0
-0.0344161136761482 0
-0.0328209485675932 0
-0.0223602966561075 0
-0.02392484456586747 0
-0.6554767365841594 0
-0.03203851871605057 0
-0.0005565959190363429 0
-0.3425486024886286 0
-0.03088593979238847 0
-0.6218411892217771 0
-0.06830574756289172 0
-0.001265421228104925 0
-0.03142686204477373 0
-0.003205210264468249 0
-0.004633143762526943 0
-0.03287989998822061 0
-0.004006229157334612 0
-0.005240350715652171 0
-0.1149944715324198 0
-0.1358620611665412 0
-0.005188545014520949 0
-0.03197591277091359 0
-0.03252697646914549 0
-0.03332557159492248 0
-0.01633641160963547 0
-0.01799037072655414 0
-0.005869089565576738 0
-0.03227002155484935 0
-0.006479985430669992 0
-0.03236212737968236 0
-0.02348795675672237 0
-0.02930441190400369 0
-0.03182815823374462 0
-0.03156366145576758 0
-0.03874205165815845 0
-0.01087013809224619 0
-0.009646588214137712 0
-0.03272534362318356 0
-0.03442323062836312 0
-0.04187258500269225 0
-0.000673342198169817 0
-0.001574867801745753 0
-0.0652822630732787 0
-0.1171704518667752 0
-0.002060677065440789 0
-0.03098474102566637 0
-0.02739156718230349 0
-0.03100690676233193 0
-0.01051419421202074 0
-0.01344427543792072 0
-0.1862517733321226 0
-0.2176828872339181 0
-0.2540299455494308 0
-0.2996473250032442 0
-0.4216329932257644 0
-0.001949423743852001 0
-0.07993279647468245 0
-0.01080488415011384 0
-0.01178324868310627 0
-0.0114680394991648 0
-0.0121762940059409 0
-0.01258694660002269 0
-0.01307135980986673 0
-0.009456065962325686 0
-0.03033838347195733 0
-0.03091907176640004 0
-0.02840674447768562 0
-0.02846890050181935 0
-0.0278436890304388 0
-0.02751362880015487 0
-0.1929502637839111 0
-0.378855288026019 0
-0.02790011986399039 0
-0.02829465973064912 0
-0.02471838893457895 0
-0.001681689091864277 0
-0.031762151422694 0
-0.02764793885079925 0
-0.02601751687879128 0
-0.02611669270035799 0
-0.02549666338211986 0
-0.02526654391868925 0
-0.01568942333086046 0
-0.01544901138541437 0
-0.01614352525986542 0
-0.01669084429379796 0
-0.0171842325665225 0
-0.02163857044368171 0
-0.02077444950163154 0
-0.01966439088914168 0
-0.0193798522752245 0
-0.01929857480164475 0
-0.0229763945722673 0
-0.0244819807539928 0
-0.02504503093191395 0
-0.4422397298661254 0
-0.2590800213287927 0
-0.5157893828418159 0
-0.0008672542993675147 0
-0.02971336051959234 0
-0.06431886585629658 0
-0.002536160924178353 0
-0.004335817523362758 0
-0.0605717602422423 0
-0.06671770566939059 0
-0.002473055517544742 0
-0.02876447382869746 0
-0.006874328816341311 0
-0.0295331675558317 0
-0.003117976291270575 0
-0.04505162219199697 0
-0.02850033721831588 0
-0.0002998905972188158 0
-0.0007720060617447554 0
-0.04789688939137529 0
-0.003583573319307577 0
-0.02904607816107614 0
-0.007694291013552564 0
-0.02899940613789295 0
-0.002098315151107138 0
-0.0968606834281294 0
-0.7760707060074672 0
-0.002074467605844505 0
-0.04457412921045573 0
-0.0007865346162037428 0
-0.05927480105492267 0
-0.9219294518512179 0
-0.8281234570491596 0
-0.7110670575816915 0
-0.570651762388623 0
-0.001029955335292832 0
-0.07307315971964549 0
-0.007479220057843728 0
-0.01236680231328969 0
-0.0587977516361876 0
-0.08091267762260644 0
-0.0003324561353006328 0
-0.03579524582383235 0
-0.01800469443466376 0
-0.02497790232009424 0
-0.005451953369606138 0
-0.08373699311633212 0
-0.1024106448357056 0
-0.01753489592347636 0
-0.07605830791175039 0
-0.002230230848877616 0
-0.12567737690539 0
-0.0558355226872598 0
-0.004779017802873734 0
-0.3879100878926073 0
-0.004215760229917338 0
-0.02766031861710965 0
-0.005819256020808175 0
-0.1597061351794139 0
-0.02197596263477047 0
-0.02240736367962607 0
-0.4674648963233212 0
-0.6026480677021689 0
-0.001357609332778754 0
-0.04641673563644297 0
-0.03513738587861 0
-0.005307562656497163 0
-0.004737896841537011 0
-0.02752538098103304 0
-0.0276542513679896 0
-0.5858459943378712 0
-0.002647462054950594 0
-0.002090238612021191 0
-0.02744211979026014 0
-0.02735620556281402 0
-0.005845788744589187 0
-0.02760284859893868 0
-0.02629125228883341 0
-0.01360487791225186 0
-0.05387948224076543 0
-0.001378834814014659 0
-0.08748298704452118 0
-0.02331509005361381 0
-0.007983129872232462 0
-0.02784091133789114 0
-0.6648565494574868 0
-0.002006449939526023 0
-0.1064205111582768 0
-0.02683028412893206 0
-0.003089839819256308 0
-0.003608594238820657 0
-0.02744968268678123 0
-0.02687993472721033 0
-0.008595538181301425 0
-0.01055216528142132 0
-0.09731422214350047 0
-0.02628060582541771 0
-0.006047226997887734 0
-0.04724097187489618 0
-0.01565615837249117 0
-0.02702103235259209 0
-0.0005970761311605313 0
-0.001738391381242486 0
-0.1154242397331091 0
-0.002744249671377434 0
-0.009131350704882135 0
-0.02660616415557759 0
-0.006525449320805245 0
-0.02677540567618891 0
-0.003805178706747549 0
-0.02665925661848823 0
-0.02543513443152379 0
-0.002688781279484971 0
-0.03709642298837477 0
-0.02456208285284567 0
-0.001039318989706654 0
-0.02665230510056218 0
-0.009585791114102906 0
-0.02614394501747794 0
-0.006806395521650045 0
-0.2022151446727131 0
-0.3431996889786393 0
-0.00271607632724417 0
-0.1455820522935674 0
-0.001675697044751731 0
-0.03748995286842143 0
-0.2744347211978979 0
-0.02513847570943437 0
-0.01043205267676535 0
-0.02573653956118767 0
-0.01004434168390071 0
-0.379372624074397 0
-0.01720718564510175 0
-0.01174735543142747 0
-0.05356356256436995 0
-0.2385236033355715 0
-0.4269243704509023 0
-0.1560989768037572 0
-0.1567750928207829 0
-0.004191444826427146 0
-0.1752333746257988 0
-0.005852282023672256 0
-0.02628945999198887 0
-0.007197118126525107 0
-0.04245778974055934 0
-0.9224098811503942 0
-0.006611843776762024 0
-0.02595804359940158 0
-0.0172648547580145 0
-0.01100247697376374 0
-0.01141026399289177 0
-0.02505520586699545 0
-0.02460882345465603 0
-0.007208075901311934 0
-0.007670588763701375 0
-0.02611674020973647 0
-0.02565796583072972 0
-0.3043266414284843 0
-0.1359607325962491 0
-0.02377717054049156 0
-0.01285652165583046 0
-0.02174453542140583 0
-0.02546158769813972 0
-0.007869206651288926 0
-0.004303445802265446 0
-0.187806123974748 0
-0.05247560110578508 0
-0.0004791633916217693 0
-0.01403920307686889 0
-0.02284808313329096 0
-0.02312545564551214 0
-0.01452642722182807 0
-0.01498254526019584 0
-0.0225235834897007 0
-0.02318358975953945 0
-0.01340330367595776 0
-0.0178880295920566 0
-0.0171527961590655 0
-0.01734550546915567 0
-0.01792763955951773 0
-0.008358509894592133 0
-0.008564530976237349 0
-0.02580653935452376 0
-0.01882086668058035 0
-0.02138016576495759 0
-0.319093343824899 0
-0.2562058514851887 0
-0.001582118844049401 0
-0.02689269352837669 0
-0.002081729912384879 0
-0.05259454756096204 0
-0.008924680466516708 0
-0.02512771151754965 0
-0.01257056750839158 0
-0.01062171881749162 0
-0.03587862082065964 0
-0.111028742726198 0
-0.0006779094564234568 0
-0.06594079811297635 0
-0.001308953399135589 0
-0.026925671467317 0
-0.01908339686492203 0
-0.01963970309717624 0
-0.01677447585881316 0
-0.05574854665359686 0
-0.0009276634086382494 0
-0.03398615002176351 0
-0.02066089021001888 0
-0.3669501627330992 0
-0.01957275382632766 0
-0.004293251466146894 0
-0.02645717687798965 0
-0.01602226030113855 0
-0.00737336768213775 0
-0.1090176934037266 0
-0.02446962821305004 0
-0.01215631749713218 0
-0.2037739196441088 0
-0.04132403258436733 0
-0.0002610251052958271 0
-0.003194643173885895 0
-0.0859458695131733 0
-0.7118242627522867 0
-0.004818262057282604 0
-0.02647263245263784 0
-0.001768348928566197 0
-0.02622912548840402 0
-0.02190181127568156 0
-0.08744537628640166 0
-0.005333670549649814 0
-0.02646036557017274 0
-0.2294986814608801 0
-0.0008722788171861903 0
-0.08036319508002616 0
-1.054755441841695 0
-0.001632664647819612 0
-0.05847279590617707 0
-0.5687639136671573 0
-0.01626799192755562 0
-0.02300063183224427 0
-0.002044033864649976 0
-0.1360274243604339 0
-0.1488555458672315 0
-0.09600602549693547 0
-0.03247291603431664 0
-0.03714203854887293 0
-0.003053340599952257 0
-0.003794643651023143 0
-0.4569753952824621 0
-0.00553181854720977 0
-0.0407510943706994 0
-0.8896621942417833 0
-0.000805153518384696 0
-0.02582663005071012 0
-0.3555641375783969 0
-0.00251780925814922 0
-0.03239963173111603 0
-0.03252571333546737 0
-0.0007376820963686361 0
-0.03655029109603952 0
-0.042961492145881 0
-0.003740299130760925 0
-0.003671809858139519 0
-0.5762807060261771 0
-0.0002233333683726138 0
-0.03188502006424912 0
-0.009252964764224681 0
-0.0566028274557926 0
-0.0002942266699293789 0
-0.04681728150196329 0
-0.1125662700339806 0
-0.0001129804098651391 0
-0.02542937046912951 0
-0.009474018986870673 0
-0.02499197551753327 0
-0.00220251887204302 0
-0.01036412398753562 0
-0.006449801620496084 0
-0.008184599123422138 0
-0.004498214008963781 0
-0.009449706859561266 0
-0.0002830132224233527 0
-0.01193099193684365 0
-0.004535885790180437 0
-0.01032360467596488 0
-0.007206427965211078 0
-0.008604441310830701 0
-0.002695764274778994 0
-0.0110733921132138 0
-0.002056050935334869 0
-0.0112593437705832 0
-0.007170780049419338 0
-0.009680986536285128 0
-0.005524371308935674 0
-0.01075512464854864 0
-0.000594327985774744 0
-0.01211033860335093 0
-0.004440679602402139 0
-0.01102218854203129 0
-0.007858712621575377 0
-0.008816905662285168 0
-0.00318194270436279 0
-0.0115404675796489 0
-0.00182507907880898 0
-0.0119279276810221 0
-0.006743455577774625 0
-0.009710148309122557 0
-0.00573429311295527 0
-0.01037266972936522 0
-0.0008834611451054562 0
-0.01155715330749537 0
-0.003925374210786246 0
-0.01069011411608757 0
-0.007772157953098007 0
-0.008194387312990931 0
-0.003369132982756852 0
-0.01091342333941043 0
-0.001423528943517236 0
-0.0114664458332552 0
-0.005868355343207807 0
-0.009035014421445489 0
-0.005508477250894491 0
-0.009272287903381271 0
-0.001119705177677302 0
-0.0111652143116187 0
-0.003535653926907173 0
-0.0104779364781432 0
-0.007737507982282633 0
-0.006779895123516916 0
-0.01090943142225094 0
-0.003726089917445657 0
-0.006488881337456016 0
-0.004159587315353684 0
-0.006202235135362904 0
-0.001038354173122017 0
-0.007556486776723763 0
-0.002125711541966316 0
-0.007244847720272941 0
-0.005052703519117629 0
-0.005481582857068531 0
-0.002687756811827861 0
-0.007008483771066099 0
-0.0004871479525737038 0
-0.007631271999043485 0
-0.003594902256957834 0
-0.006750428837013835 0
-0.004446169754060245 0
-0.00619304392886556 0
-0.001288568115812255 0
-0.007666390485976606 0
-0.001938357837989534 0
-0.007479621629826028 0
-0.004977195774727276 0
-0.005764472767532728 0
-0.002973337977738977 0
-0.007055822664616699 0
-0.0002562619047483037 0
-0.007608377820580885 0
-0.003382645414302008 0
-0.006841972100697215 0
-0.004617611611956617 0
-0.006039963648269416 0
-0.001505141009462624 0
-0.007619484711188239 0
-0.001721293354757124 0
-0.007555571554252866 0
-0.004808206130894142 0
-0.005918799106549 0
-0.003187642146130058 0
-0.006965674282621649 0
-0.007412946715374054 0
-0.0129555423142944 0
-0.00831978703264262 0
-0.01236337424676693 0
-0.002062289955648097 0
-0.01490577315191876 0
-0.004180338850119411 0
-0.01430534803690394 0
-0.009964584753838173 0
-0.01083462530551636 0
-0.005324148220950691 0
-0.01383606820828652 0
-0.0009471242171486713 0
-0.01508209604130653 0
-0.006958083682584962 0
-0.01304988471169256 0
-0.008593101820683857 0
-0.01198116833190405 0
-0.002486591661708032 0
-0.01483298980323887 0
-0.003756060221589265 0
-0.01447145697630713 0
-0.009637034629106169 0
-0.01115380730113987 0
-0.005751398019562493 0
-0.01366081546865945 0
-0.0005431744377373271 0
-0.01515448306592663 0
-0.002909689081614794 0
-0.01473013698233228 0
-0.008958414389864999 0
-0.01171809400635529 0
-0.006563163257878034 0
-0.01327055118285495 0
-0.003325966523779856 0
-0.01461057197627714 0
-0.009297122709906791 0
-0.01144873239840064 0
-0.006166855491713784 0
-0.01346958647337291 0
-0.003580481687260472 0
-0.005861828716821484 0
-0.002284828387539978 0
-0.006501342826725199 0
-0.007259675668883721 0
-0.0006389433323375387 0
-0.005136919704622843 0
-0.01459868110579138 0
-0.001387401285665081 0
-0.01566913819899194 0
-0.004757701587110045 0
-0.004877547623980899 0
-0.01068922638319006 0
-0.01101932299868465 0
-0.001742359071484418 0
-0.01558852771645711 0
-0.0007823616242030756 0
-0.006918209904919373 0
-0.004762547425583847 0
-0.01472948103263052 0
-0.00212105192148271 0
-0.006587076336575837 0
-0.003683699009208622 0
-0.005823497321426866 0
-8.97646862977209e-05 0
-0.007084401248395683 0
-0.000207336083332878 0
-0.0162537166710562 0
-0.00874092290504839 0
-0.01369354621065011 0
-0.008411980267101148 0
-0.01390848683715196 0
-0.0026058614297691 0
-0.004739774193043123 0
-0.003085639438849484 0
-0.004421653151965466 0
-0.0008431125592963944 0
-0.005434579203936052 0
-0.001438747501584987 0
-0.005261356003393631 0
-0.003570318273780622 0
-0.00402234376475875 0
-0.002031131272173538 0
-0.005012293071678244 0
-0.0002609832637972256 0
-0.00550941157438332 0
-0.0004161839033171693 0
-0.005703664359032679 0
-0.001956972344689407 0
-0.005264941625305514 0
-0.003818502085302876 0
-0.004058095450413725 0
-0.001641652818586142 0
-0.005392570063084348 0
-0.0007232018067171986 0
-0.005653370414508762 0
-0.003059212501335645 0
-0.004661938324279035 0
-0.002835744069059945 0
-0.004824829804075902 0
-0.002438621460537355 0
-0.004759901565647218 0
-0.003175070149511335 0
-0.004278023695850184 0
-0.0009791725772603816 0
-0.005336638332177353 0
-0.001273715314702404 0
-0.005249850791720052 0
-0.003412115274560253 0
-0.004079993420883103 0
-0.002152570050927329 0
-0.00488989708723722 0
-0.003800199286248849 0
-0.01789301197880424 0
-0.01113352602963557 0
-0.01412848307391735 0
-0.007763406536831477 0
-0.01630690395686692 0
-0.002050105682929925 0
-0.004307822780160047 0
-0.002939450473061487 0
-0.003729729621447391 0
-0.001003961265964308 0
-0.004722775025114864 0
-0.007461984717383715 0
-0.01698762726609706 0
-0.01185587110661785 0
-0.01415518740429585 0
-0.00443645565319177 0
-0.01821089529219947 0
-0.003376383628817531 0
-0.01851483651623596 0
-0.01018032711863191 0
-0.01375181498672183 0
-0.007850124369552196 0
-0.0152702787285625 0
-0.0008593901335212606 0
-0.01739536008217676 0
-0.006372139203298468 0
-0.01583299838289589 0
-0.01129165836548915 0
-0.01265879938927443 0
-0.00457565459608114 0
-0.01657052852469411 0
-0.002613676017206723 0
-0.01712917193307493 0
-0.00967577145215821 0
-0.01394501054817074 0
-0.008238802545269078 0
-0.01488828844490654 0
-0.001417719147568367 0
-0.01848548478814147 0
-0.006272733087888057 0
-0.01710001317972963 0
-0.0124386100586381 0
-0.01310609105770942 0
-0.005527557012807209 0
-0.01789064365664563 0
-0.00232756809057262 0
-0.01879934428376733 0
-0.001728041479529437 0
-0.005087812375761813 0
-0.0003640561533779473 0
-0.003643784683247544 0
-0.003985042261035012 0
-0.0001466768745528652 0
-0.00577374363235373 0
-0.0004109833786192073 0
-0.01723980877060866 0
-0.01208259411140952 0
-0.001690602101680387 0
-0.01680681270779173 0
-0.005314675676016652 0
-0.01577373513314848 0
-0.01399936600879057 0
-0.009207080358841407 0
-0.01447193653215905 0
-0.008485186527578455 0
-9.250032640735802e-05 0
-0.01159343139174045 0
-0.01016108275013697 0
-0.01635027763203243 0
-0.001856680024556965 0
-0.003305573010767295 0
-0.002135891210349166 0
-0.003120645774080656 0
-0.0005592387104314412 0
-0.003818993189077885 0
-0.001042116285569358 0
-0.003679758870441766 0
-0.002530921628958035 0
-0.002799025943414973 0
-0.001393461234218561 0
-0.003532047799074027 0
-0.0002142989240538034 0
-0.003864504774156594 0
-0.006283254817281507 0
-0.009889180175985814 0
-0.006085920671750057 0
-0.01001196651132963 0
-0.001755764502673784 0
-0.003353354245477279 0
-0.002220909521555028 0
-0.003048454422347598 0
-0.000662046306287089 0
-0.003786158243965845 0
-0.0009336395317507638 0
-0.003707084678719597 0
-0.002441360148039693 0
-0.002867375003743572 0
-0.0014937826530803 0
-0.00347712451468187 0
-0.001731428371240207 0
-0.003549125423977624 0
-0.002404049557365492 0
-0.003111034424654898 0
-0.0007977885195699694 0
-0.00393027910839276 0
-0.0008683944192818499 0
-0.003906983874230711 0
-0.00306770493509548 0
-0.002464927399876633 0
-0.002621143990807059 0
-0.01124706161420456 0
-0.007212476254246833 0
-0.008788070118519394 0
-0.004699521758445102 0
-0.01040904179278031 0
-0.002188212135924368 0
-0.01137160758591129 0
-0.00687291260775808 0
-0.009075513853871352 0
-0.005112163199976076 0
-0.01021975925553425 0
-0.00166462280134574 0
-0.003586687578825019 0
-0.0004612104784209776 0
-0.01164761836592855 0
-0.004393137412280357 0
-0.01060313618851876 0
-0.007507877016818034 0
-0.008590523098175764 0
-0.002942205660767209 0
-0.01113469871386634 0
-0.001869414308677896 0
-0.01144127519361155 0
-0.009263275927454583 0
-0.006582657646984611 0
-0.005406095626679993 0
-0.0100336877446019 0
-0.0007827591781477505 0
-0.01161234482857463 0
-0.004046923644978812 0
-0.01068266169850787 0
-0.007718455946093114 0
-0.00830543329126264 0
-0.003274852227344962 0
-0.01099831047920885 0
-0.001535006561608337 0
-0.01149171106682723 0
-0.006643966183421102 0
-0.01003185781325496 0
-0.006061084727371441 0
-0.01041417115114527 0
-0.004269749260405954 0
-0.01835696948676376 0
-0.003575734299216472 0
-0.01855705662879769 0
-0.0117650762104391 0
-0.01434858608884815 0
-0.01105092893171629 0
-0.01461819737776005 0
-0.007677232694861663 0
-0.01698548441375203 0
-0.008244443142133266 0
-0.01643950218127052 0
-0.0007600079061998248 0
-0.01881674022663467 0
-0.007050637596969122 0
-0.01701037409280418 0
-0.01204676675627586 0
-0.01378774467718567 0
-0.004762166410447687 0
-0.01794412656391997 0
-0.002993886028664316 0
-0.01844824092161679 0
-0.01059267206642787 0
-0.01494300469004155 0
-0.008732692071802547 0
-0.01616319895600174 0
-0.001269445719648637 0
-0.01891376936131388 0
-0.006595808913718146 0
-0.01739559166320172 0
-0.01256809245274873 0
-0.01353202518292202 0
-0.005351255574247987 0
-0.01799017090445434 0
-0.002513885011757257 0
-0.01879468256085523 0
-0.001886034471712805 0
-0.003142284383274061 0
-0.003476961984528786 0
-0.001253276545055202 0
-0.003787033715928899 0
-0.0003096008599317955 0
-0.002536925599309914 0
-0.002642982809976598 0
-0.002564269394419981 0
-0.004125344520792064 0
-0.001254687043907492 0
-0.01097977359107785 0
-0.003330177049263205 0
-0.01039453715166827 0
-0.0004430147358157303 0
-0.003721856490375399 0
-0.003084801305629922 0
-0.001983807202574663 0
-0.001594432120113647 0
-0.003538430838520961 0
-0.001133699115161575 0
-0.003595211662049007 0
-0.007837667376025727 0
-0.008096397675530576 0
-0.002453583632407193 0
-0.002985382797712036 0
-0.003802359688766289 0
-0.01072013195945783 0
-0.0009961632383712726 0
-0.01156222101304227 0
-0.0008937259777393153 0
-0.0038240138881604 0
-0.0007426419896620386 0
-0.003869451254527785 0
-0.002329913989121177 0
-0.003083932335570245 0
-0.001739845470381782 0
-0.003468995553482923 0
-0.005524816004667728 0
-0.009753809789734991 0
-0.006286503594174042 0
-0.009255076945585732 0
-0.001621036659074843 0
-0.01133688807642705 0
-0.003130252422893189 0
-0.01090694145207289 0
-0.007542918439760603 0
-0.008282905763385822 0
-0.004102204187702286 0
-0.01050558576053881 0
-0.0006712200913384808 0
-0.01147881878206074 0
-0.005255295946456949 0
-0.009977917387609244 0
-0.006596982763123137 0
-0.009100346454187679 0
-0.00192156203059805 0
-0.01112485320596979 0
-0.002765246139800036 0
-0.01088457454350722 0
-0.007193221298871081 0
-0.008413932670754487 0
-0.004372423935102771 0
-0.01023416320961779 0
-0.000365593236630197 0
-0.01164995173097231 0
-0.004851837157836215 0
-0.009925871844386588 0
-0.006722526764539878 0
-0.008711954864117027 0
-0.002217670769728107 0
-0.01097839278467632 0
-0.002435557866908477 0
-0.01091451383544257 0
-0.00689964238224727 0
-0.008571865327558322 0
-0.004645740661038314 0
-0.01003010391804485 0
-0.000154791740982749 0
-0.003878455382718106 0
-0.001491599922864903 0
-0.003591544219427359 0
-0.002543072187103737 0
-0.002914965952622369 0
-0.001003403160490176 0
-0.003794015645883674 0
-0.0006367747783734082 0
-0.003900377259963629 0
-0.002244612549524483 0
-0.003159512286332569 0
-0.001844620993315842 0
-0.003422962268156914 0
-0.009045001829317501 0
-0.0159792039405748 0
-0.0103014085486742 0
-0.0151555391397553 0
-0.002649369384051536 0
-0.01850971770923288 0
-0.005106841850481749 0
-0.01781227614017332 0
-0.01230966814326965 0
-0.01352364483517012 0
-0.006700233688084024 0
-0.01714651393402623 0
-0.001091044440278942 0
-0.01874148494642568 0
-0.008555987386377332 0
-0.01624170222156869 0
-0.01073798404853244 0
-0.01481412163093534 0
-0.003192318936503712 0
-0.01854462567666669 0
-0.004617844164976555 0
-0.01813736919375701 0
-0.01199368399046238 0
-0.01401621033770257 0
-0.007277378156523828 0
-0.01705706367971545 0
-0.0005963630361354075 0
-0.01881814904832982 0
-0.008099952044746521 0
-0.01656915800808323 0
-0.01122621066548696 0
-0.01454505577661802 0
-0.00371293703340427 0
-0.0183639491190754 0
-0.007776575945406528 0
-0.01677320433651952 0
-0.004066848905886483 0
-0.0182614893725281 0
-0.01153734002574588 0
-0.01434492132537574 0
-0.000215134865230872 0
-0.003260989675769876 0
-0.001141928029093012 0
-0.002999000185736033 0
-0.002165430278583053 0
-0.002338183324236408 0
-0.0009157413353355306 0
-0.003094694385509 0
-0.000437298244960355 0
-0.003232181468932878 0
-0.001772893151061491 0
-0.002656286385834073 0
-0.001600757338288969 0
-0.00277352667467271 0
-0.004798952987290233 0
-0.007718357091355683 0
-0.000322766425170621 0
-0.003538705793703306 0
-0.00106109083229493 0
-0.003038850834175535 0
-0.009490685488794963 0
-0.01644865356403825 0
-0.01052883011193963 0
-0.01576886984601686 0
-0.002266886237884436 0
-0.002312551248330689 0
-0.001253646227658066 0
-0.00383481006533862 0
-0.003942521766436407 0
-7.497106218570834e-05 0
-0.0003596360506378025 0
-0.003286311072385691 0
-0.01761331155690965 0
-0.006265602119370905 0
-0.01894047916502507 0
-0.001618325528680944 0
-0.003984492463762519 0
-0.006653931716558631 0
-0.01288421087049371 0
-0.01331627065275024 0
-0.007479852764659813 0
-0.002716227322313919 0
-0.008052742818390106 0
-0.0006423910023774871 0
-0.005447554917870034 0
-0.005704725249529414 0
-0.00217206910723468 0
-0.01891356679868667 0
-0.005720967044232438 0
-0.0179031631783104 0
-0.0004320744196418382 0
-0.008150640136133001 0
-0.002957829702943566 0
-0.007437279356409492 0
-0.005319042330014042 0
-0.005914709655121884 0
-0.002358330928603024 0
-0.0075536694135696 0
-0.0009618018654912731 0
-0.007930340805132408 0
-0.002176244017795733 0
-0.007762522835515346 0
-0.003700416755573965 0
-0.007127411963831457 0
-0.006490188289932066 0
-0.00418202646300915 0
-0.004734445968614967 0
-0.006451048746846791 0
-0.001197818672372853 0
-0.008043350779569497 0
-0.00140252641023073 0
-0.007864517140559026 0
-0.001914039278657175 0
-0.007715963623826374 0
-0.004514438082803716 0
-0.006559447980325482 0
-0.005054482786991606 0
-0.005980738346679201 0
-0.003132606142218736 0
-0.007217755162387497 0
-0.003891490811028995 0
-0.006969934544232981 0
-2.215283746283026e-05 0
-0.003557934886145595 0
-0.0001415792975046281 0
-0.01908789805967203 0
-0.003302680376704522 0
-0.006814684737873026 0
-0.004626539534698907 0
-0.005955233824660514 0
-0.00154552659619201 0
-0.007522829275615022 0
-0.001646213564493574 0
-0.007492671443676625 0
-0.005894448092877649 0
-0.004712255811584531 0
-0.0001093158122071363 0
-0.003452445360801111 0
-0.00320917049434182 0
-0.006867837495125494 0
-0.01343244624035058 0
-0.006004192915612824 0
-0.01826857242013747 0
-0.002080228122001518 0
-0.01938761191167085 0
-0.007261071160358255 0
-0.003242110827716403 0
-0.009459857495021146 0
-0.003274879119153456 0
-0.01020648142787543 0
-0.0009489472080113361 0
-0.005048442145011957 0
-0.006100414252835461 0
-0.001809309393517308 0
-0.01928762389872673 0
-0.006224670442606234 0
-0.01802686968535002 0
-0.001857451582151863 0
-0.00782840104648248 0
-0.001926674540645597 0
-0.01496414660387702 0
-0.007936178285276416 0
-0.001495812480042918 0
-0.00433134272652086 0
-0.01428136974682778 0
-0.01004110034958235 0
-0.01069252078178855 0
-0.01327017357880866 0
-0.005165854159796684 0
-0.01385508942216757 0
-0.001081755257593702 0
-0.01501934558415024 0
-0.008410910955116755 0
-0.0001728512317400109 0
-0.006409506003634383 0
-0.00480840098613895 0
-0.007189602812796321 0
-0.01278987219588544 0
-0.006876359005281462 0
-0.006982956763688553 0
-0.008265989280896837 0
-0.01208435529706709 0
-0.002155510776229588 0
-0.01476141855169245 0
-0.004033685298820213 0
-0.01422733844299205 0
-0.009792373464387129 0
-0.01082413954003095 0
-0.005389058867262033 0
-0.01366792509066597 0
-0.00363134367637685 0
-0.007178377176096409 0
-0.0008314096455148948 0
-0.01496151215015703 0
-0.007040310339884929 0
-0.01294306929735947 0
-0.008463357966218091 0
-0.01201085983660111 0
-0.002362678087694443 0
-0.01480692663755015 0
-0.003859968972840721 0
-0.01438049597570537 0
-0.009669607769393171 0
-0.01100114543555003 0
-0.005600701634715024 0
-0.01362684287893688 0
-0.0006484986535106159 0
-0.01507483717671527 0
-0.002644743994171708 0
-0.008029983979363598 0
-0.0003360742551095009 0
-0.01915361374175945 0
-0.0008371855278581119 0
-0.007938071659099899 0
-0.006729417905684105 0
-0.01288799915205686 0
-0.008546868031439524 0
-0.01170127992928346 0
-0.002639840231693597 0
-0.01485644940522712 0
-0.003624169643645534 0
-0.01457469365182771 0
-0.009557465604229636 0
-0.01129770637858676 0
-0.005914580891082731 0
-0.01364655465735943 0
-0.006687078727532159 0
-0.01323606436842919 0
-0.008874927221828326 0
-0.01181455304269556 0
-0.002790898786777076 0
-0.01488346292256879 0
-0.003496373551037061 0
-0.01468053878109013 0
-0.001346382748005262 0
-0.01253060383990757 0
-0.00948385010044921 0
-0.01144155526501046 0
-0.006076304931285861 0
-0.01363878277140359 0
-0.003882105100300885 0
-0.01181129130917422 0
-0.006302321271327845 0
-0.01306265011290179 0
-0.00888314577597296 0
-0.01139165423538652 0
-0.006194066226179491 0
-0.01318203776238821 0
-0.002982927014483564 0
-0.01439367696764306 0
-0.009032674235567757 0
-0.01134675418622908 0
-0.003134195503865973 0
-0.01440755992992099 0
-0.01586586763492408 0
-0.01025591660187147 0
-0.01623421587834373 0
-0.009692069327233151 0
-0.01252420199508053 0
-0.0001997992108956856 0
-0.001728941794195749 0
-0.01452167897892275 0
-0.004335860078052494 0
-0.01377981689226986 0
-0.005095629024876737 0
-0.01409615487847287 0
-0.01027676470936064 0
-0.0107382812004771 0
-0.001229955611067291 0
-0.01520606134824678 0
-0.009861377638378977 0
-0.001333019723287883 0
-0.01403079511065782 0
-0.004510569945445232 0
-0.01311870795259444 0
-0.009762517127595384 0
-0.000353309064423991 0
-0.008272634618451546 0
-0.007504892292283709 0
-0.003087295405767488 0
-0.005326872490845995 0
-0.006064506880118141 0
-0.007908402096039276 0
-0.002119596819310698 0
-0.008145495212144362 0
-0.001303243176241834 0
-8.970255916968029e-05 0
-0.01578565216218984 0
-4.105983003020876e-05 0
-0.007246889081651203 0
-0.006609808689553682 0
-0.004662111457874322 0
-0.01033967437280305 0
-0.01629306514663074 0
-0.01003452394488977 0
-0.0164918881553429 0
-0.003874022044376584 0
-0.007130257643857414 0
-0.002687869130924082 0
-0.001645510894251678 0
-0.002658351725388738 0
-0.001677018284671508 0
-0.0006421814657619172 0
-0.008915049652523708 0
-0.003068360863632918 0
-0.008228075458936729 0
-0.007834030438870791 0
-0.01208632528094764 0
-0.007374418795521974 0
-0.0123864895052972 0
-0.005963682391314484 0
-0.006351662554624353 0
-0.002554189954363652 0
-0.008423732533025178 0
-0.001137372221648786 0
-0.008822587088926635 0
-0.004792290826612403 0
-0.007293047970413365 0
-0.004423310268402161 0
-0.007537496728027533 0
-0.01495753645925929 0
-0.0004375501738504964 0
-0.008416625565165124 0
-0.01340882375054808 0
-0.008312916802129599 0
-0.01351345653201667 0
-0.001178285849363715 0
-0.002002666116506333 0
-0.001269650351082106 0
-0.001937254869006281 0
-0.0002985548534415167 0
-0.00234375505329732 0
-0.0006805628338131235 0
-0.002230485712790436 0
-0.00157743484588414 0
-0.001674348783104574 0
-0.002601835857755707 0
-3.395726156065527e-05 0
-0.0008048976455636887 0
-0.002169577032451098 0
-0.0001725950029256896 0
-0.002345094041813924 0
-0.0002451365763615964 0
-0.009075602894202716 0
-0.001083614712114147 0
-0.001971891804215619 0
-0.001283597982462389 0
-0.001838616323296246 0
-0.0003509360864096309 0
-0.00225943804066376 0
-0.000597652938856751 0
-0.002187071168022635 0
-0.001483360580678184 0
-0.001671760824386962 0
-0.0008441950436041681 0
-0.002082204159050817 0
-0.0001080531166934232 0
-0.002288123086908721 0
-0.001009285528630949 0
-0.001970448997205916 0
-0.001314207938947013 0
-0.001770439649251755 0
-0.0004053692881156905 0
-0.002208212813558597 0
-0.000702278910954812 0
-0.007293778367561236 0
-0.0005267897958667489 0
-0.002172001354441858 0
-0.001411259313896569 0
-0.001687743220518913 0
-0.0008903798313303748 0
-0.002022219392061957 0
$EndSolution
