/*********************************************************************
 *
 * CERN Test 0 Magnet
 *	Magnet design in Gmsh
 *
 * 	Author: Jorge Miaja Hernandez
 *
 *********************************************************************/

Include "cernMagnets_common.pro";
Include "m1_rectangle_macro.geo";




