$ResFormat /* GetDP 3.0.5-git-997fd378, ascii */
1.1 0
$EndResFormat
$Solution  /* DofData #0 */
0 0 0 0
-2.383644964250123e-12 0
-3.911479514631237e-12 0
-3.382658516191058e-12 0
-3.035511879127376e-12 0
-2.385887405436033e-12 0
-2.610904626832511e-12 0
-2.562011983541831e-12 0
-2.357949164819087e-12 0
-2.682258521010713e-12 0
-2.88580242426619e-12 0
-2.809846460973517e-12 0
-2.626807290961695e-12 0
-2.949995855483962e-12 0
-3.1310786216981e-12 0
-3.030629403700645e-12 0
-2.867751051375531e-12 0
-3.187866586897537e-12 0
-3.34676070281676e-12 0
-3.224890172412244e-12 0
-3.081812601731701e-12 0
-3.395813444916031e-12 0
-3.532324069274465e-12 0
-3.39304318101899e-12 0
-3.269478229487254e-12 0
-3.574309834106134e-12 0
-3.689229313103291e-12 0
-3.535394853751426e-12 0
-3.431128180145659e-12 0
-3.723797210128103e-12 0
-3.816900185364431e-12 0
-3.652152047128708e-12 0
-3.567042441776801e-12 0
-3.844237480935527e-12 0
-3.916059534684124e-12 0
-3.743413245266864e-12 0
-3.677400320497723e-12 0
-3.936616962612689e-12 0
-3.987341215044749e-12 0
-3.809166956490866e-12 0
-3.762271290193347e-12 0
-4.000639719669512e-12 0
-4.030475742440347e-12 0
-3.849308360575202e-12 0
-3.82161753760861e-12 0
-4.036807907860972e-12 0
-4.045803186578688e-12 0
-3.863670334746059e-12 0
-3.855315898735635e-12 0
-4.045543682288167e-12 0
-4.034119519835868e-12 0
-3.852065313386818e-12 0
-3.863188906146234e-12 0
-4.026793399074102e-12 0
-3.995471931293847e-12 0
-3.814416978373613e-12 0
-3.845054330947654e-12 0
-3.981727848544821e-12 0
-3.931675168585805e-12 0
-3.751259087112709e-12 0
-3.800906610538843e-12 0
-1.145464293450458e-12 0
-1.388889073232008e-12 0
-1.111870577070886e-12 0
-9.190509220267578e-13 0
-1.468286170376535e-12 0
-1.701246042608681e-12 0
-1.354476014322161e-12 0
-1.174368316266297e-12 0
-1.777145429633193e-12 0
-2.000125980188612e-12 0
-1.58114505491199e-12 0
-1.412852803004488e-12 0
-2.072570313876241e-12 0
-2.285308959524527e-12 0
-1.791743800834494e-12 0
-1.6355303160771e-12 0
-2.353795079283913e-12 0
-2.552194141738861e-12 0
-1.986586126724143e-12 0
-1.842139451855078e-12 0
-2.614929064747044e-12 0
-2.794636629091814e-12 0
-2.165791574818149e-12 0
-2.033004919117631e-12 0
-2.851040092923844e-12 0
-3.011427528410297e-12 0
-2.329302972180552e-12 0
-2.208295111050067e-12 0
-3.061460355049254e-12 0
-3.20261739341245e-12 0
-2.47697883679174e-12 0
-2.367840813125327e-12 0
-3.246315363919811e-12 0
-3.368403937040505e-12 0
-2.608927835399905e-12 0
-2.51156442181177e-12 0
-3.405811510530987e-12 0
-3.50897263477608e-12 0
-2.724993816013147e-12 0
-2.639502675989319e-12 0
-3.540124007859646e-12 0
-3.624448700850311e-12 0
-2.824958470608171e-12 0
-2.75155687100725e-12 0
-3.649359990948241e-12 0
-3.714873650181928e-12 0
-2.908910159231509e-12 0
-2.847453481220297e-12 0
-3.733538541945036e-12 0
-3.780194866318767e-12 0
-2.976636237695537e-12 0
-2.927353420604247e-12 0
-3.792583806344971e-12 0
-3.820270773391764e-12 0
-3.028025668568868e-12 0
-2.990936206209339e-12 0
-3.826334184077849e-12 0
-3.834891321421325e-12 0
-3.063087019871346e-12 0
-3.038248838570222e-12 0
-3.834566954448485e-12 0
-3.823822693977901e-12 0
-3.081727050592877e-12 0
-3.069069290310313e-12 0
-3.817054877256217e-12 0
-3.786946222082765e-12 0
-3.083652478536844e-12 0
-3.083527655135863e-12 0
-3.773751125550836e-12 0
-3.724790511742399e-12 0
-3.068328157404113e-12 0
-3.081288848745776e-12 0
-4.514208564343248e-13 0
-8.600689755379827e-13 0
-1.229868241804051e-12 0
-1.564429237085971e-12 0
-1.866911581190182e-12 0
-2.139779944445319e-12 0
-2.604002661200858e-12 0
-2.809067617102502e-12 0
-2.998804033777453e-12 0
-3.172823927965365e-12 0
-3.330386590536217e-12 0
-3.47067915042705e-12 0
-3.596516648443377e-12 0
-3.706114954307099e-12 0
-3.800031559035515e-12 0
-3.877997178806639e-12 0
-3.941516405072336e-12 0
-3.989441226185826e-12 0
-4.021617444036219e-12 0
-4.039049375904521e-12 0
-4.042212733463334e-12 0
-4.030180308100284e-12 0
-4.00314870163156e-12 0
-3.962875532295038e-12 0
-3.855926948986e-12 0
-3.795165301994729e-12 0
-3.73044628210192e-12 0
-3.662824045829193e-12 0
-3.593428923393974e-12 0
-3.522901604919379e-12 0
-3.451822155889714e-12 0
-3.379352577501745e-12 0
-3.368758174928063e-12 0
-3.351053776533244e-12 0
-3.326229113086648e-12 0
-3.293121940041388e-12 0
-3.252434741417941e-12 0
-3.201730538434796e-12 0
-3.141021470177663e-12 0
-3.068786170616516e-12 0
-2.983799316736818e-12 0
-2.884151245859765e-12 0
-2.768373863989958e-12 0
-2.63912181456926e-12 0
-2.495734856070016e-12 0
-2.344865571119987e-12 0
-2.18542465093474e-12 0
-2.019943351976426e-12 0
-1.84846556303115e-12 0
-1.675158216118559e-12 0
-1.496860707448647e-12 0
-1.315506530674829e-12 0
-1.132119103271178e-12 0
-9.464688196155298e-13 0
-7.588906040463262e-13 0
-5.703509933172728e-13 0
-3.811517061486238e-13 0
-1.912272416353841e-13 0
-3.314108330419581e-12 0
-3.249636034422007e-12 0
-3.190810801834737e-12 0
-3.138530415017316e-12 0
-3.095862951600364e-12 0
-3.063050412635435e-12 0
-3.042134201271762e-12 0
-3.027461476409091e-12 0
-3.000451437536402e-12 0
-2.95898854134839e-12 0
-2.898952630804386e-12 0
-2.821253629030979e-12 0
-2.726381899871236e-12 0
-2.612996695935815e-12 0
-2.484525803320593e-12 0
-2.336613369153959e-12 0
-2.174530080628446e-12 0
-1.998368973962757e-12 0
-1.808245611496243e-12 0
-1.606624545170242e-12 0
-1.395945154708844e-12 0
-1.176138628849833e-12 0
-9.473754421046999e-13 0
-7.155329553468199e-13 0
-4.793547023561259e-13 0
-2.402539339651837e-13 0
-2.618173100108574e-12 0
-2.622521510430654e-12 0
-2.623832103661946e-12 0
-2.622437491996967e-12 0
-2.619417579754347e-12 0
-2.612896853611625e-12 0
-2.603792088261734e-12 0
-2.592768176200642e-12 0
-2.57889963806571e-12 0
-2.366899858883314e-12 0
-2.374812069712097e-12 0
-2.381880890782165e-12 0
-2.387995469641212e-12 0
-2.392140297129719e-12 0
-2.394290363467419e-12 0
-2.395135927875289e-12 0
-2.394025294541411e-12 0
-2.390930660801464e-12 0
-2.893928568714083e-12 0
-2.898838400992385e-12 0
-2.900010562466651e-12 0
-2.897711941684278e-12 0
-2.893000514678323e-12 0
-2.883503843420503e-12 0
-2.870762383521562e-12 0
-2.854620518973841e-12 0
-2.834330561281252e-12 0
-2.645556053677219e-12 0
-2.661173192150856e-12 0
-2.67359251632044e-12 0
-2.683478283362208e-12 0
-2.690920389689817e-12 0
-2.69430494008604e-12 0
-2.695890512657849e-12 0
-2.69456177915428e-12 0
-2.689972489872734e-12 0
-3.139291416492398e-12 0
-3.144024851258021e-12 0
-3.144610945369218e-12 0
-3.14114395282128e-12 0
-3.134506262970682e-12 0
-3.122923714898004e-12 0
-3.106304832495527e-12 0
-3.086037460911269e-12 0
-3.060734283162709e-12 0
-2.893582846204102e-12 0
-2.915233180840798e-12 0
-2.932456691792005e-12 0
-2.946317294148647e-12 0
-2.956258215196954e-12 0
-2.961483262904924e-12 0
-2.964063102020005e-12 0
-2.963009053217912e-12 0
-2.958104988876965e-12 0
-3.354570745620509e-12 0
-3.358860435191734e-12 0
-3.358674356376603e-12 0
-3.354012137384773e-12 0
-3.345709691137269e-12 0
-3.331583344017396e-12 0
-3.312361745960592e-12 0
-3.288598830069775e-12 0
-3.259326827101759e-12 0
-3.112950747407665e-12 0
-3.139328151450699e-12 0
-3.160525150281564e-12 0
-3.177909914281004e-12 0
-3.190093315682882e-12 0
-3.197175618695169e-12 0
-3.200946923534299e-12 0
-3.200547915787952e-12 0
-3.195921186460811e-12 0
-3.540138798390449e-12 0
-3.543954523770734e-12 0
-3.542973861594232e-12 0
-3.53717650599318e-12 0
-3.527402808351592e-12 0
-3.511115645982881e-12 0
-3.489761593175167e-12 0
-3.463193279733134e-12 0
-3.430822160529293e-12 0
-3.304716855435286e-12 0
-3.334840185379361e-12 0
-3.359406329904283e-12 0
-3.379040202698885e-12 0
-3.393907044420701e-12 0
-3.402556441141517e-12 0
-3.407506990528048e-12 0
-3.407892830642476e-12 0
-3.403712486369551e-12 0
-3.696551830892274e-12 0
-3.699849154532531e-12 0
-3.698122723156339e-12 0
-3.691293819572014e-12 0
-3.68012685952835e-12 0
-3.66274926211498e-12 0
-3.639020906800277e-12 0
-3.610410157316033e-12 0
-3.575695923477738e-12 0
-3.469518589163829e-12 0
-3.502534299566582e-12 0
-3.529636184127961e-12 0
-3.551725741676763e-12 0
-3.568219076561503e-12 0
-3.578394328509682e-12 0
-3.584466473939705e-12 0
-3.585642712803843e-12 0
-3.581963504908479e-12 0
-3.824081278214938e-12 0
-3.826975986298422e-12 0
-3.824624174077583e-12 0
-3.81695556175962e-12 0
-3.804746636462033e-12 0
-3.78612675926013e-12 0
-3.760954539616332e-12 0
-3.730734762330628e-12 0
-3.694281663781095e-12 0
-3.607796169789508e-12 0
-3.642996912565447e-12 0
-3.672062245803328e-12 0
-3.696196765336457e-12 0
-3.713909810763807e-12 0
-3.725355377204417e-12 0
-3.732412419490808e-12 0
-3.734307943777299e-12 0
-3.731122160099166e-12 0
-3.923164349844529e-12 0
-3.925715916968156e-12 0
-3.922858875129666e-12 0
-3.91454416091155e-12 0
-3.901553389609557e-12 0
-3.881707191210855e-12 0
-3.855792207510301e-12 0
-3.824422942865079e-12 0
-3.786761969346672e-12 0
-3.719845276400368e-12 0
-3.756645346464126e-12 0
-3.787181215595093e-12 0
-3.812639855783046e-12 0
-3.831529539741895e-12 0
-3.843969226542676e-12 0
-3.851817607583944e-12 0
-3.854305070531071e-12 0
-3.851491873222745e-12 0
-3.994126705999145e-12 0
-3.996350530152027e-12 0
-3.993078250331317e-12 0
-3.984274560396818e-12 0
-3.970784601952804e-12 0
-3.949788390834043e-12 0
-3.923705142524893e-12 0
-3.891553960761298e-12 0
-3.853177665885886e-12 0
-3.805811866731378e-12 0
-3.843698951216901e-12 0
-3.875327140140575e-12 0
-3.901211197698168e-12 0
-3.921475576792415e-12 0
-3.93458516078072e-12 0
-3.943031661891642e-12 0
-3.946000060843938e-12 0
-3.94354163108786e-12 0
-4.037100259559975e-12 0
-4.039059355068542e-12 0
-4.035427268227257e-12 0
-4.026209024318006e-12 0
-4.012269973913072e-12 0
-3.991162965160135e-12 0
-3.964458271655355e-12 0
-3.932055649755563e-12 0
-3.89346274684169e-12 0
-3.86570390807421e-12 0
-3.904179415302045e-12 0
-3.936440200487841e-12 0
-3.962639588587545e-12 0
-3.983754623629405e-12 0
-3.997361115028441e-12 0
-4.006272817415277e-12 0
-4.00963721444081e-12 0
-4.007478109590201e-12 0
-4.052364383633637e-12 0
-4.054000217645665e-12 0
-4.049991706380757e-12 0
-4.040404502190427e-12 0
-4.026107672849014e-12 0
-4.00534717231584e-12 0
-3.978096030080863e-12 0
-3.945867806455092e-12 0
-3.907500788463409e-12 0
-3.899439653837694e-12 0
-3.938012993681345e-12 0
-3.970381735097773e-12 0
-3.997355870214493e-12 0
-4.018291264352352e-12 0
-4.032355854627853e-12 0
-4.0416711601125e-12 0
-4.04539119122455e-12 0
-4.043496185756655e-12 0
-4.040154964562051e-12 0
-4.041250338486523e-12 0
-4.036737632660661e-12 0
-4.026790128234874e-12 0
-4.012365082618176e-12 0
-3.99138012463691e-12 0
-3.964659056387468e-12 0
-3.932856361238965e-12 0
-3.895128326857098e-12 0
-3.906893139021243e-12 0
-3.945143348596363e-12 0
-3.977292234130975e-12 0
-4.004506907590114e-12 0
-4.025274702924511e-12 0
-4.039621233608294e-12 0
-4.04929392414923e-12 0
-4.053409360697988e-12 0
-4.051887927722508e-12 0
-4.000657298250199e-12 0
-4.000725005187789e-12 0
-3.995399681188849e-12 0
-3.984955218197758e-12 0
-3.970416856886709e-12 0
-3.949426067373987e-12 0
-3.923537727482482e-12 0
-3.892637937141405e-12 0
-3.85614413230649e-12 0
-3.887886154622155e-12 0
-3.925379717258114e-12 0
-3.957048923552857e-12 0
-3.983429713622708e-12 0
-4.004599341654562e-12 0
-4.019008421070056e-12 0
-4.02905775082216e-12 0
-4.03373358119464e-12 0
-4.032815959385307e-12 0
-3.933945760779155e-12 0
-3.931884778878054e-12 0
-3.925409854323416e-12 0
-3.91432568198188e-12 0
-3.899330962106816e-12 0
-3.879213650708611e-12 0
-3.853948532722198e-12 0
-3.824610000855401e-12 0
-3.790238877239344e-12 0
-3.842219127889479e-12 0
-3.878273930940927e-12 0
-3.908791675948101e-12 0
-3.934689958017795e-12 0
-3.955377156869594e-12 0
-3.970020020594602e-12 0
-3.980626718805521e-12 0
-3.986224910628089e-12 0
-3.986557902754517e-12 0
-1.398241458575065e-12 0
-1.397941007194065e-12 0
-1.388850237090418e-12 0
-1.371816811879315e-12 0
-1.34796272047489e-12 0
-1.316089979582167e-12 0
-1.276818540544388e-12 0
-1.230223173736353e-12 0
-1.175452978476024e-12 0
-9.700549731874998e-13 0
-1.014300224989669e-12 0
-1.052862096920096e-12 0
-1.084835798042584e-12 0
-1.111340064024562e-12 0
-1.130556590846988e-12 0
-1.144490336027749e-12 0
-1.151709503307958e-12 0
-1.152060459574898e-12 0
-1.709418438107369e-12 0
-1.706821911413722e-12 0
-1.694079279162933e-12 0
-1.67216330633381e-12 0
-1.641494777284422e-12 0
-1.603106654873569e-12 0
-1.554401761832642e-12 0
-1.497622096030067e-12 0
-1.431089035205543e-12 0
-1.241190091598913e-12 0
-1.299094108834017e-12 0
-1.348324525862019e-12 0
-1.390142050547778e-12 0
-1.42345286414298e-12 0
-1.44910839266915e-12 0
-1.467253843165039e-12 0
-1.477099014693793e-12 0
-1.477705350768786e-12 0
-2.003331298806798e-12 0
-1.995761063498862e-12 0
-1.977730525432479e-12 0
-1.949961566362535e-12 0
-1.913104844582814e-12 0
-1.86688296791029e-12 0
-1.810320098084486e-12 0
-1.74444126105464e-12 0
-1.668049025235256e-12 0
-1.492015784595102e-12 0
-1.561163140995554e-12 0
-1.620317371627499e-12 0
-1.671131545652714e-12 0
-1.711369481724422e-12 0
-1.743644027885136e-12 0
-1.766941133842372e-12 0
-1.780862905621728e-12 0
-1.78447123779081e-12 0
-2.279983688812606e-12 0
-2.265359294029843e-12 0
-2.240841355177813e-12 0
-2.206625575801047e-12 0
-2.163439278431551e-12 0
-2.109779735197273e-12 0
-2.046025902245197e-12 0
-1.972136803158333e-12 0
-1.887350137218097e-12 0
-1.724505331233227e-12 0
-1.803114533516577e-12 0
-1.87112718984699e-12 0
-1.929345956144392e-12 0
-1.977798257877746e-12 0
-2.016031999489205e-12 0
-2.045415103302487e-12 0
-2.064993666939087e-12 0
-2.074176396111774e-12 0
-2.537154304342168e-12 0
-2.514755657330807e-12 0
-2.483381493292808e-12 0
-2.442746668542119e-12 0
-2.392544351858691e-12 0
-2.333353690384863e-12 0
-2.262267847805659e-12 0
-2.181477862750576e-12 0
-2.089515008141522e-12 0
-1.939482249518283e-12 0
-2.02616176717194e-12 0
-2.101836917417393e-12 0
-2.167624145503674e-12 0
-2.222520694710304e-12 0
-2.267624186890883e-12 0
-2.303435017465042e-12 0
-2.329675870294414e-12 0
-2.346260692900491e-12 0
-2.771915741267338e-12 0
-2.742510409403958e-12 0
-2.70470985295822e-12 0
-2.657986856360429e-12 0
-2.601862420757487e-12 0
-2.536793572775921e-12 0
-2.459759922596782e-12 0
-2.372928121259427e-12 0
-2.274852854635633e-12 0
-2.137421554188751e-12 0
-2.231006323683839e-12 0
-2.313400576239785e-12 0
-2.386051449008037e-12 0
-2.446767334106282e-12 0
-2.498511646902017e-12 0
-2.540734963943058e-12 0
-2.573787799467831e-12 0
-2.598045728625917e-12 0
-2.982779978327561e-12 0
-2.947588118358012e-12 0
-2.904236869427992e-12 0
-2.852165932837653e-12 0
-2.791170056279604e-12 0
-2.720415307410691e-12 0
-2.638601998473837e-12 0
-2.546647497681077e-12 0
-2.443450010046282e-12 0
-2.31857573930811e-12 0
-2.418017133615347e-12 0
-2.506203134584162e-12 0
-2.584592219689824e-12 0
-2.651034654054979e-12 0
-2.708532042261584e-12 0
-2.756659194907195e-12 0
-2.795937802679952e-12 0
-2.826899317133302e-12 0
-3.169343934608384e-12 0
-3.129517040115497e-12 0
-3.081612979260207e-12 0
-3.025058429686388e-12 0
-2.960003707108415e-12 0
-2.884540768817647e-12 0
-2.798798074927672e-12 0
-2.702625295194459e-12 0
-2.59527490556839e-12 0
-2.482982767879998e-12 0
-2.587311372116294e-12 0
-2.680443822186293e-12 0
-2.763116047268825e-12 0
-2.835466637024416e-12 0
-2.897351935339924e-12 0
-2.950665485090119e-12 0
-2.995252174179802e-12 0
-3.031701486103257e-12 0
-3.331556021258044e-12 0
-3.28811746351074e-12 0
-3.236649037080393e-12 0
-3.176653973938211e-12 0
-3.107566190071468e-12 0
-3.029741568394503e-12 0
-2.940115578133151e-12 0
-2.84079477463105e-12 0
-2.730297993744591e-12 0
-2.630610924449393e-12 0
-2.738836339237583e-12 0
-2.835857411975017e-12 0
-2.9227875166691e-12 0
-2.998728668874034e-12 0
-3.06500611365823e-12 0
-3.122478450156849e-12 0
-3.171359549871712e-12 0
-3.212176447653064e-12 0
-3.469444264784415e-12 0
-3.423299573432163e-12 0
-3.369159129828007e-12 0
-3.306546906463865e-12 0
-3.234928449561491e-12 0
-3.154677659825302e-12 0
-3.062701435052443e-12 0
-2.961111971654056e-12 0
-2.848436924573155e-12 0
-2.76142292603705e-12 0
-2.872554445032309e-12 0
-2.972539676586717e-12 0
-3.06284265591585e-12 0
-3.141348083009233e-12 0
-3.211154175284803e-12 0
-3.271893701904103e-12 0
-3.324111655443164e-12 0
-3.368305038419093e-12 0
-3.583025396820334e-12 0
-3.534992963109893e-12 0
-3.479018947706036e-12 0
-3.414667773038532e-12 0
-3.341736667174889e-12 0
-3.259376085536605e-12 0
-3.166320475859261e-12 0
-3.063440568154278e-12 0
-2.949557608617618e-12 0
-2.875320176326827e-12 0
-2.98838727989973e-12 0
-3.090381341482638e-12 0
-3.182795901727413e-12 0
-3.263529745320473e-12 0
-3.33563850744841e-12 0
-3.398755317322081e-12 0
-3.453429059140458e-12 0
-3.500117476894091e-12 0
-3.672262935765198e-12 0
-3.623096678657736e-12 0
-3.566080699976593e-12 0
-3.500783397629021e-12 0
-3.427699307680617e-12 0
-3.3437050798687e-12 0
-3.250814342837701e-12 0
-3.147601133541108e-12 0
-3.03354233604357e-12 0
-2.972167088207592e-12 0
-3.086196897066236e-12 0
-3.189280258824973e-12 0
-3.282256539023587e-12 0
-3.365318007885796e-12 0
-3.438239459051277e-12 0
-3.502928185532396e-12 0
-3.55923698324809e-12 0
-3.607620089266187e-12 0
-3.737041697006675e-12 0
-3.687440201976409e-12 0
-3.630142298798783e-12 0
-3.564758792671306e-12 0
-3.491789626110435e-12 0
-3.408114968244845e-12 0
-3.315783576932533e-12 0
-3.213340725933726e-12 0
-3.100208303937145e-12 0
-3.051843553964012e-12 0
-3.16577535900362e-12 0
-3.268889248692819e-12 0
-3.361733747933346e-12 0
-3.445748284614074e-12 0
-3.518882896381612e-12 0
-3.584267660382577e-12 0
-3.641421568228768e-12 0
-3.690758604226835e-12 0
-3.777155493268155e-12 0
-3.727750239256922e-12 0
-3.670865743715136e-12 0
-3.606145979521114e-12 0
-3.533811063011047e-12 0
-3.451996266734277e-12 0
-3.360929167757856e-12 0
-3.260362429889648e-12 0
-3.149343744308457e-12 0
-3.114143659104065e-12 0
-3.226869614846207e-12 0
-3.328962782634724e-12 0
-3.420997489876308e-12 0
-3.50442518607928e-12 0
-3.577234103255928e-12 0
-3.64253036104502e-12 0
-3.699787709141214e-12 0
-3.749395380811049e-12 0
-3.792311566713654e-12 0
-3.743638402140171e-12 0
-3.687772473766818e-12 0
-3.624463943989042e-12 0
-3.553285130262305e-12 0
-3.474684343601959e-12 0
-3.385674119726897e-12 0
-3.288256027888506e-12 0
-3.180697333806e-12 0
-3.158864995554265e-12 0
-3.269152037656199e-12 0
-3.369029839819039e-12 0
-3.459815445872987e-12 0
-3.540702815476427e-12 0
-3.61295094716082e-12 0
-3.677356623188418e-12 0
-3.734034950229155e-12 0
-3.783301369309825e-12 0
-3.782156313336755e-12 0
-3.73459965879127e-12 0
-3.680191392887174e-12 0
-3.618786807323496e-12 0
-3.55040610410695e-12 0
-3.474353515570591e-12 0
-3.389423539467438e-12 0
-3.296405985094825e-12 0
-3.19385632360005e-12 0
-3.185715558335862e-12 0
-3.292187489290626e-12 0
-3.388631616036228e-12 0
-3.476806162986604e-12 0
-3.554713961815941e-12 0
-3.625335853580392e-12 0
-3.688209675366304e-12 0
-3.743743817764961e-12 0
-3.792164700360375e-12 0
-3.746322859178069e-12 0
-3.700002318901159e-12 0
-3.647321910563853e-12 0
-3.588224660338941e-12 0
-3.523516225630584e-12 0
-3.450351268443777e-12 0
-3.370870708114207e-12 0
-3.283666660438333e-12 0
-3.188028720909186e-12 0
-3.194232235602635e-12 0
-3.295259315498771e-12 0
-3.386983880912132e-12 0
-3.470519411206239e-12 0
-3.546126810644839e-12 0
-3.613505980650028e-12 0
-3.674389594091879e-12 0
-3.728383601157932e-12 0
-3.775623790862572e-12 0
-3.684336951871729e-12 0
-3.638851574846081e-12 0
-3.588099806912833e-12 0
-3.531752485973122e-12 0
-3.470170228074765e-12 0
-3.401897046451999e-12 0
-3.328073489289985e-12 0
-3.247966645531976e-12 0
-3.161474028378459e-12 0
-3.183464954791336e-12 0
-3.277036636511848e-12 0
-3.362542387701677e-12 0
-3.44065035942226e-12 0
-3.512734478691529e-12 0
-3.576602141685739e-12 0
-3.635052322310793e-12 0
-3.68727563562301e-12 0
-3.733315209087774e-12 0
-2.499586568689181e-12 0
-2.504419191406832e-12 0
-2.469385404440571e-12 0
-2.481879227450593e-12 0
-2.509946933205906e-12 0
-2.491847597974783e-12 0
-2.512413000862932e-12 0
-2.51245826348615e-12 0
-2.505468744524405e-12 0
-2.510016676202298e-12 0
-2.790671000903137e-12 0
-2.797859601418737e-12 0
-2.752454373255895e-12 0
-2.790935744078169e-12 0
-2.73208033483614e-12 0
-2.768571444476641e-12 0
-2.800859605553362e-12 0
-2.800513780959402e-12 0
-2.781368548391839e-12 0
-2.796929689649552e-12 0
-3.02994587644797e-12 0
-3.057461279701668e-12 0
-3.013542333245388e-12 0
-3.054641869196625e-12 0
-2.966119639223746e-12 0
-3.047562963750586e-12 0
-2.99243123451508e-12 0
-3.056359607514482e-12 0
-3.042357566293755e-12 0
-3.051293166588166e-12 0
-3.274692933835701e-12 0
-3.281236550732436e-12 0
-3.283291699457708e-12 0
-3.228737761175646e-12 0
-3.281009362500436e-12 0
-3.27422504856125e-12 0
-3.172690330276302e-12 0
-3.203585430742747e-12 0
-3.248540281746498e-12 0
-3.26368026076982e-12 0
-3.455811668477912e-12 0
-3.468205943087755e-12 0
-3.476087741549055e-12 0
-3.479116343368967e-12 0
-3.477458951528503e-12 0
-3.386927412004412e-12 0
-3.470942442850028e-12 0
-3.352460349730414e-12 0
-3.415334638783035e-12 0
-3.438365234675808e-12 0
-3.632453764154209e-12 0
-3.573934678687761e-12 0
-3.638458863864997e-12 0
-3.505879629747368e-12 0
-3.543074034116286e-12 0
-3.644536092519612e-12 0
-3.645554557843554e-12 0
-3.6416036280295e-12 0
-3.598728266791651e-12 0
-3.618061429460588e-12 0
-3.77837117486865e-12 0
-3.731780320617512e-12 0
-3.776920451564165e-12 0
-3.633263323731731e-12 0
-3.672486668851843e-12 0
-3.782656133832777e-12 0
-3.705221406814307e-12 0
-3.783114422646363e-12 0
-3.752601187445795e-12 0
-3.768187089661325e-12 0
-3.875844322313352e-12 0
-3.88683175927701e-12 0
-3.837275360638054e-12 0
-3.892208659288485e-12 0
-3.809544719843968e-12 0
-3.88668355278429e-12 0
-3.73480044599061e-12 0
-3.775453175504346e-12 0
-3.892203594376881e-12 0
-3.859213688576526e-12 0
-3.938760184932535e-12 0
-3.967276700085564e-12 0
-3.852094902884069e-12 0
-3.810552187938072e-12 0
-3.968351871798845e-12 0
-3.97353902375607e-12 0
-3.887105590396076e-12 0
-3.973149417540049e-12 0
-3.916042259534746e-12 0
-3.955725218094127e-12 0
-3.990402030935431e-12 0
-4.007843927334752e-12 0
-3.902384721728603e-12 0
-4.021868700927667e-12 0
-3.860468381387676e-12 0
-4.026853026400179e-12 0
-3.937817676035391e-12 0
-4.026133455523307e-12 0
-4.019851847982491e-12 0
-3.967209548208001e-12 0
-4.032235066617727e-12 0
-4.04464009756317e-12 0
-4.051297860576158e-12 0
-3.884426912058415e-12 0
-4.047563159070222e-12 0
-3.926239602344623e-12 0
-4.052347286300415e-12 0
-3.961623933063988e-12 0
-3.990740445039679e-12 0
-4.014131689423118e-12 0
-4.050209939602545e-12 0
-3.88226416446555e-12 0
-4.045871766714881e-12 0
-3.923539585663671e-12 0
-3.958522041823694e-12 0
-4.048707105733878e-12 0
-4.041645021398549e-12 0
-3.987404823798973e-12 0
-4.010737898932619e-12 0
-4.028958029959257e-12 0
-3.979913237996519e-12 0
-3.928185368093957e-12 0
-4.020517252739758e-12 0
-3.894046277067315e-12 0
-4.016879890113674e-12 0
-3.853820642175182e-12 0
-4.018263296333609e-12 0
-4.010639559554949e-12 0
-3.956894899743161e-12 0
-3.997690202564843e-12 0
-3.937708698501928e-12 0
-3.951129860661757e-12 0
-3.961421913278932e-12 0
-3.7991011688078e-12 0
-3.83736977596658e-12 0
-3.963187629995219e-12 0
-3.869940326851976e-12 0
-3.959570857394071e-12 0
-3.897106197462131e-12 0
-3.919509126415902e-12 0
-1.21800238364668e-12 0
-1.186185895508305e-12 0
-1.262462785696544e-12 0
-1.147085300783181e-12 0
-1.274282062640433e-12 0
-1.101042129332776e-12 0
-1.047052605803468e-12 0
-1.274109064320842e-12 0
-1.2785223988983e-12 0
-1.24336428992208e-12 0
-1.550089126843773e-12 0
-1.476938991393617e-12 0
-1.42839491487511e-12 0
-1.589847803844301e-12 0
-1.596295470481223e-12 0
-1.592109243578074e-12 0
-1.303226107460869e-12 0
-1.370783124652409e-12 0
-1.574185497068184e-12 0
-1.51749432982838e-12 0
-1.833054271874871e-12 0
-1.687594759675559e-12 0
-1.883858198834535e-12 0
-1.619951594705347e-12 0
-1.894213729717165e-12 0
-1.541460910049338e-12 0
-1.894640918164826e-12 0
-1.863103605116111e-12 0
-1.745108238929227e-12 0
-1.793567453083604e-12 0
-2.048036050027376e-12 0
-2.093919021010484e-12 0
-2.130762800177275e-12 0
-1.926635398926547e-12 0
-2.15768664659754e-12 0
-1.762727639453762e-12 0
-2.180955082693627e-12 0
-2.174662553208536e-12 0
-1.850310993016798e-12 0
-1.992603987593923e-12 0
-2.219215893391762e-12 0
-2.377831133283577e-12 0
-2.1464703905217e-12 0
-2.435495922952435e-12 0
-1.967375952172748e-12 0
-2.450296297679105e-12 0
-2.0626935136309e-12 0
-2.411346301331166e-12 0
-2.334893267236356e-12 0
-2.281955963730178e-12 0
-2.554816356267087e-12 0
-2.426946623268776e-12 0
-2.604020121776424e-12 0
-2.347808027680234e-12 0
-2.675099211426722e-12 0
-2.155712968802993e-12 0
-2.697827034045786e-12 0
-2.257586505177222e-12 0
-2.643970048178605e-12 0
-2.495813937277593e-12 0
-2.754259963094467e-12 0
-2.615398408153062e-12 0
-2.530901732823851e-12 0
-2.891835595860113e-12 0
-2.327851201259167e-12 0
-2.920981972311213e-12 0
-2.435206886898002e-12 0
-2.85463978807886e-12 0
-2.808932801594046e-12 0
-2.689748302474297e-12 0
-2.863727033168343e-12 0
-3.042796211397011e-12 0
-2.595582876924853e-12 0
-2.48371457395424e-12 0
-3.119226035406103e-12 0
-3.084987950487076e-12 0
-2.695828932841097e-12 0
-2.992206499079835e-12 0
-2.785258970035421e-12 0
-2.932415420404707e-12 0
-2.935070761905979e-12 0
-2.842435317729393e-12 0
-2.623295536964257e-12 0
-3.29255818558063e-12 0
-3.25433666230883e-12 0
-2.738669299750933e-12 0
-3.208185416890473e-12 0
-3.153731185444075e-12 0
-3.090523028371216e-12 0
-3.017651229117498e-12 0
-3.227028695315429e-12 0
-3.29322277010567e-12 0
-2.970761173816252e-12 0
-3.399824424755107e-12 0
-3.441078605240225e-12 0
-2.746534328765749e-12 0
-2.864415858559325e-12 0
-3.35065030688719e-12 0
-3.0661355999561e-12 0
-3.15139445519301e-12 0
-3.34242746498142e-12 0
-3.47008336355516e-12 0
-2.972710699984662e-12 0
-3.564874138718714e-12 0
-2.853293524752546e-12 0
-3.521425515726503e-12 0
-3.080666708083942e-12 0
-3.410554428114181e-12 0
-3.177663694262619e-12 0
-3.2648048430547e-12 0
-3.35768997672723e-12 0
-3.435955286174468e-12 0
-3.505542227282576e-12 0
-3.17200744980252e-12 0
-3.566369928588956e-12 0
-3.063411155449859e-12 0
-3.619088463469593e-12 0
-2.943463509288483e-12 0
-3.66397440965317e-12 0
-3.270048346873928e-12 0
-3.429791899838015e-12 0
-3.578047203794082e-12 0
-3.244481519375702e-12 0
-3.639352224081947e-12 0
-3.136326277444836e-12 0
-3.692699809594958e-12 0
-3.738328670487022e-12 0
-3.016955622162819e-12 0
-3.342164677186045e-12 0
-3.508240143058534e-12 0
-3.480752744537366e-12 0
-3.394255718485895e-12 0
-3.627728338619806e-12 0
-3.297815290517285e-12 0
-3.6887678050249e-12 0
-3.742056497354629e-12 0
-3.07355756266036e-12 0
-3.787796606566712e-12 0
-3.191214153772348e-12 0
-3.558349326080828e-12 0
-3.586385000957751e-12 0
-3.331562298007689e-12 0
-3.812154853493443e-12 0
-3.113169790063048e-12 0
-3.766855863833563e-12 0
-3.227776890461457e-12 0
-3.714234904066549e-12 0
-3.654170288761636e-12 0
-3.425246180366936e-12 0
-3.510067176917384e-12 0
-3.435248951627102e-12 0
-3.345196449207361e-12 0
-3.245575630815574e-12 0
-3.1355372988224e-12 0
-3.811122908643678e-12 0
-3.766700414298688e-12 0
-3.715220427937805e-12 0
-3.656665224024771e-12 0
-3.590844973442151e-12 0
-3.517015179233709e-12 0
-3.500573672092887e-12 0
-3.570788662430029e-12 0
-3.423215608904097e-12 0
-3.691058647914099e-12 0
-3.741117434260256e-12 0
-3.14030551565873e-12 0
-3.784432180457743e-12 0
-3.243831024847391e-12 0
-3.337729432976097e-12 0
-3.634394828146674e-12 0
-3.459308271271457e-12 0
-3.525760076720453e-12 0
-3.386825112451396e-12 0
-3.307439081494073e-12 0
-3.640854126658503e-12 0
-3.126584240442497e-12 0
-3.731993692675964e-12 0
-3.68947913459245e-12 0
-3.221019858038653e-12 0
-3.586410980956151e-12 0
-1.04021119080822e-12 0
-1.816732456597794e-12 0
-2.320998934145715e-12 0
-1.399749784556557e-12 0
-1.574645259958139e-12 0
-1.091987335109456e-12 0
-2.625492020090405e-12 0
-2.260424976290616e-12 0
-3.611496739167783e-12 0
-3.501549951621203e-12 0
-2.010395136121415e-12 0
-1.495088496702829e-12 0
-2.78438661994138e-12 0
-2.649647279578852e-12 0
-2.545956208855273e-12 0
-1.880666284004814e-12 0
-1.019715492363679e-12 0
-3.41626965980051e-12 0
-1.874612925516924e-12 0
-2.806436000789986e-12 0
-2.317339138307064e-12 0
-1.40761955170196e-12 0
-1.572006690631444e-12 0
-1.319219050512621e-12 0
-5.78995143728056e-13 0
-5.431815697098114e-13 0
-3.597229896879916e-12 0
-3.665014254114422e-12 0
-3.738304106672372e-12 0
-1.38053216177522e-12 0
-3.308939613497332e-12 0
-1.782870624632969e-12 0
-2.093782816620334e-12 0
-2.708649390212341e-12 0
-2.544713699913514e-12 0
-1.899707698160394e-12 0
-1.431332989296766e-12 0
-2.271615330568912e-12 0
-2.835046057699773e-12 0
-2.910318080476106e-12 0
-6.912497352129518e-13 0
-1.223102420206137e-12 0
-2.069729955046411e-12 0
-9.300750245688428e-13 0
-2.946130072175136e-12 0
-7.423696426848933e-13 0
-7.220871275896493e-13 0
-5.727542188512616e-13 0
-3.761307410693775e-12 0
-1.607898569101433e-12 0
-1.764286933373985e-12 0
-3.111828372068967e-12 0
-1.924887783570002e-12 0
-2.033807719604501e-12 0
-3.618894987171703e-12 0
-1.649976252744689e-12 0
-3.459570610353916e-12 0
-2.685940361228549e-12 0
-2.323647465149275e-12 0
-2.491055185819377e-12 0
-2.000956714319133e-12 0
-1.923278811266736e-12 0
-1.923234986901308e-12 0
-1.630447732007286e-12 0
-3.55804394614825e-12 0
-3.455558484822814e-12 0
-1.412699708113069e-12 0
-1.183447554713111e-12 0
-9.156044745290782e-13 0
-1.727744844390479e-12 0
-2.029183391421695e-12 0
-3.494621979399747e-12 0
-2.336675365848847e-12 0
-5.8552218369181e-13 0
-5.95330346743037e-13 0
-5.097318234011305e-13 0
-2.940171644828677e-12 0
-1.803548316582508e-12 0
-2.952043594147047e-12 0
-6.376521676633276e-13 0
-9.23512878928056e-13 0
-3.365290181444533e-12 0
-2.478103190157347e-12 0
-2.405846317406488e-12 0
-2.855715534649388e-12 0
-7.168643377829494e-13 0
-2.932921383318559e-12 0
-1.279072520497844e-12 0
-2.532691171782026e-12 0
-3.813333951798189e-12 0
-1.166733292957864e-12 0
-3.659803677547067e-12 0
-3.351198500700863e-13 0
-3.701493299713445e-12 0
-9.436541407668528e-13 0
-1.415502346123137e-12 0
-1.067538654095969e-12 0
-6.566396482422614e-13 0
-3.49757402424748e-13 0
-6.706847310518122e-13 0
-2.115636540701733e-12 0
-1.407050943708064e-12 0
-3.563614546340926e-12 0
-3.398854903034106e-12 0
-2.399620967651663e-12 0
-3.268448687882314e-12 0
-2.795060987996782e-12 0
-2.696213247737458e-12 0
-2.149088015722922e-12 0
-1.092138876690813e-12 0
-2.738783201628645e-12 0
-2.569745463396187e-12 0
-3.773435990674647e-12 0
-2.179428766720377e-12 0
-1.443245616126998e-12 0
-1.405419365957403e-12 0
-3.295197714770203e-12 0
-3.674593455011428e-12 0
-1.457854368045989e-12 0
-3.841589126835296e-12 0
-2.41409379254546e-12 0
-2.249442927603104e-12 0
-1.876110427314537e-12 0
-2.148694632684407e-12 0
-2.580886697816643e-12 0
-1.743124952418219e-12 0
-8.863691084278568e-13 0
-1.504491591602189e-12 0
-3.482580268565437e-12 0
-1.972103676114826e-12 0
-2.005794744139035e-12 0
-1.576602496575301e-12 0
-1.842386134635609e-12 0
-2.744434120620301e-12 0
-5.246173337551634e-13 0
-2.078114663786499e-12 0
-2.757327306642685e-13 0
-1.681454399001733e-12 0
-3.068560339865446e-12 0
-1.576895854216907e-12 0
-1.877712466151888e-12 0
-2.114955674729274e-12 0
-2.922041302765605e-12 0
-2.642789896983994e-12 0
-1.613857478952168e-12 0
-1.091743194835421e-12 0
-2.364831528280097e-12 0
-2.974934299185934e-12 0
-3.511295773656267e-12 0
-3.69032010628518e-12 0
-2.467791081297081e-12 0
-1.170670159293321e-12 0
-8.83429955129036e-13 0
-3.628715295215179e-12 0
-2.10726270393738e-12 0
-3.388338485732967e-12 0
-2.127829147682614e-12 0
-2.834289062017638e-12 0
-2.982065886068082e-12 0
-1.67434964202817e-12 0
-2.08302802637542e-12 0
-3.023476511328525e-12 0
-3.018185510993297e-12 0
-4.816626571027327e-13 0
-2.832677034605293e-13 0
-2.67248991480196e-12 0
-1.195682133729958e-12 0
-3.770467048987336e-12 0
-3.012133954575194e-12 0
-8.63006160105616e-13 0
-2.826688808889064e-12 0
-1.220129787202028e-12 0
-1.339908339460991e-12 0
-1.52024289164643e-12 0
-3.157016316671349e-12 0
-1.852196902258254e-12 0
-1.869182332154295e-12 0
-2.003855898387982e-12 0
-2.218384547158716e-12 0
-2.953468112878627e-12 0
-2.883770763942133e-12 0
-1.581638583609642e-12 0
-1.602333915280926e-12 0
-3.18944489486825e-12 0
-1.627570433962991e-12 0
-2.498670953388112e-12 0
-3.697034560622308e-12 0
-2.929472583529852e-13 0
-2.724226528094134e-12 0
-1.134842628161958e-12 0
-7.448477690951682e-13 0
-6.54025120592288e-13 0
-1.895716008182206e-12 0
-2.112927958140515e-12 0
-1.95588283377384e-12 0
-3.142582883907289e-12 0
-2.940098381993067e-12 0
-3.319199113293692e-12 0
-3.4702165943674e-12 0
-3.595832067956086e-12 0
-3.696152094838215e-12 0
-3.771182803873675e-12 0
-3.820834274720442e-12 0
-2.456430708790838e-12 0
-2.711440166433418e-12 0
-3.844941160780186e-12 0
-3.843298394475201e-12 0
-3.815756119989352e-12 0
-2.459821579856184e-12 0
-2.847012850427917e-12 0
-3.549418066857653e-12 0
-1.372015349292989e-12 0
-9.148218229912119e-13 0
-1.400882872448816e-12 0
-1.229976786156908e-12 0
-1.096556404559097e-12 0
-7.964558020298954e-13 0
-5.050220382776676e-13 0
-1.452003305964972e-12 0
-2.056894419447728e-12 0
-2.15668962039413e-12 0
-1.749650411424855e-12 0
-3.009287003308412e-12 0
-8.722488781104673e-13 0
-8.579944771369138e-13 0
-3.825922267333031e-12 0
-3.514777090107602e-12 0
-2.183015036127429e-12 0
-2.148960414307471e-12 0
-1.504333050312014e-12 0
-2.290811759371322e-12 0
-3.664956092785239e-12 0
-3.723091403397216e-12 0
-3.757498909250283e-12 0
-1.216889932005686e-12 0
-8.315837036479748e-13 0
-8.522453712889228e-13 0
-2.208941138924524e-12 0
-1.037047868069214e-12 0
-3.002626947067276e-12 0
-3.863402073770379e-12 0
-1.128243357313111e-12 0
-2.570820403939814e-12 0
-1.414744083407635e-12 0
-3.377950030653055e-12 0
-1.851189520057737e-12 0
-3.4299942847667e-12 0
-2.761027374219497e-12 0
-1.6251826506911e-12 0
-2.293915831915316e-12 0
-3.762623700735685e-12 0
-2.315359086409709e-12 0
-3.478394448668587e-12 0
-3.567160282890466e-12 0
-2.656144834920502e-12 0
-2.49992124102157e-12 0
-6.553657651772086e-13 0
-1.556993137612145e-12 0
-3.799781002798804e-12 0
-8.764821980486204e-13 0
-1.748847482871206e-12 0
-2.463554591037896e-12 0
-1.25017712390651e-12 0
-3.440607859233095e-12 0
-2.687021834481054e-12 0
-4.909900094842184e-13 0
-1.950288911296936e-12 0
-2.554885242633272e-12 0
-1.739826249706312e-12 0
-1.701098860085253e-12 0
-2.913310396035408e-12 0
-7.475802659711721e-13 0
-1.736818886965245e-12 0
-1.128365769384363e-12 0
-2.43482215549689e-12 0
-2.875744316827464e-12 0
-2.682303818354741e-12 0
-2.129335045812978e-12 0
-1.579904755831504e-12 0
-7.71845557401085e-13 0
-2.89951074176636e-12 0
-4.038031413222988e-12 0
-3.534322087000258e-12 0
-3.777146911904382e-12 0
-2.022175786537893e-12 0
-1.696574103491643e-12 0
-3.549414316493203e-12 0
-1.240101390516017e-12 0
-2.095104096448206e-12 0
-3.274068937290477e-12 0
-3.209473581354033e-12 0
-7.274892979115753e-13 0
-3.343590317058058e-12 0
-2.20696282113327e-12 0
-3.613943468803596e-12 0
-3.684506404670676e-12 0
-2.175459027030317e-12 0
-2.191374801663808e-12 0
-5.177042180673002e-13 0
-2.331705594538747e-12 0
-2.192212683088122e-12 0
-3.603993607310146e-12 0
-1.471850033671727e-12 0
-3.59690226118345e-12 0
-3.963815929480555e-12 0
-1.849091565552484e-12 0
-1.772456269550166e-12 0
-3.51300140755732e-12 0
-2.42597101913316e-12 0
-2.975823319734255e-12 0
-3.761836868239178e-12 0
-1.264363141372944e-12 0
-3.638639260304972e-12 0
-1.72342969360141e-12 0
-1.879054652680163e-12 0
-1.199764667273414e-12 0
-1.371548860102036e-12 0
-1.078129043325413e-12 0
-2.49610772670831e-12 0
-1.891398231256548e-12 0
-3.658499323957079e-13 0
-1.181748979534683e-12 0
-3.878746132699608e-12 0
-1.984365122620027e-12 0
-4.867856737003985e-13 0
-3.632928166994511e-12 0
-2.324146940685234e-12 0
-5.100646634530837e-13 0
-8.789225515828937e-13 0
-9.191473375011907e-13 0
-1.284789776055655e-12 0
-2.923338020670177e-13 0
-2.656469768474039e-12 0
-3.436380742168808e-12 0
-2.071238370943406e-13 0
-9.260641254737806e-13 0
-3.660308250640632e-12 0
-7.507156521281186e-13 0
-1.226757956851949e-12 0
-5.458962076254851e-13 0
-5.160089672632484e-13 0
-3.386184078285662e-12 0
-1.671674918884673e-12 0
-1.043358350670385e-12 0
-1.737674616115077e-12 0
-3.480666141080961e-12 0
-2.397958860291676e-12 0
-5.224519595188304e-13 0
-3.61471078620567e-12 0
-1.618497918441153e-12 0
-1.807731991577736e-12 0
-3.809349517549705e-12 0
-1.967886100164042e-12 0
-1.789611506434394e-12 0
-2.721276547641218e-12 0
-1.507727789288731e-12 0
-3.704839606435194e-12 0
-2.341398824758759e-12 0
-3.02231070560447e-12 0
-3.694791619076068e-13 0
-2.167633808056639e-12 0
-2.430745046453689e-12 0
-9.897356535272933e-13 0
-2.887650762857889e-12 0
-2.814877235695106e-12 0
-1.86034093531987e-12 0
-1.421661139800372e-12 0
-3.311686105117155e-13 0
-3.824842388212436e-12 0
-1.337410665922298e-12 0
-2.489005867009678e-12 0
-2.203078528702037e-12 0
-2.566727784698123e-12 0
-9.715412291882216e-13 0
-3.286175361995997e-12 0
-3.331275499484007e-12 0
-3.298929161739178e-13 0
-3.564144740967067e-12 0
-2.207905467086233e-12 0
-1.759733441322234e-13 0
-1.272292180241463e-12 0
-2.91965831691072e-12 0
-3.762043467622316e-12 0
-2.766617344542326e-13 0
-2.185814440650791e-12 0
-1.034817420023919e-12 0
-3.535497264459611e-13 0
-2.620372850941421e-12 0
-3.320305301936306e-13 0
-3.533434714678359e-12 0
-1.693150148264766e-13 0
-1.796835192581713e-12 0
-1.703751840787596e-12 0
-3.484779958312424e-12 0
-1.503251287251471e-12 0
-1.977433408965582e-12 0
-6.207876058447572e-13 0
-2.098695040519705e-12 0
-1.678223352532218e-12 0
-2.447660096364457e-12 0
-7.588972194565789e-13 0
-2.181218092463698e-12 0
-2.215717488925794e-12 0
-2.769807878741293e-12 0
-8.736139834852167e-13 0
-8.570716906600827e-13 0
-2.821938316931501e-12 0
-2.452023450351361e-12 0
-2.750249686015821e-12 0
-2.750117663969342e-12 0
-3.391302196315674e-12 0
-8.597236610385231e-13 0
-3.264281944996889e-12 0
-3.179885128126204e-12 0
-3.078001700534134e-12 0
-1.766704239098612e-13 0
-2.399645256208264e-12 0
-1.665930461677144e-12 0
-1.29808796570211e-12 0
-3.461771156987692e-12 0
-8.967158498557121e-13 0
-2.348368794098456e-12 0
-2.593784016945864e-12 0
-3.681350130816011e-12 0
-1.940299907696954e-12 0
-2.071009968797818e-12 0
-9.101336949406279e-13 0
-3.636244427108033e-12 0
-1.386051160665177e-12 0
-1.49341479541249e-12 0
-1.568234687561703e-12 0
-1.255020088143237e-12 0
-1.200129378766202e-12 0
-8.184212420222614e-13 0
-2.469712424190901e-12 0
-1.321075511634657e-12 0
-3.335214971001245e-12 0
-3.732361753473587e-12 0
-3.418931048821305e-12 0
-6.776717229234518e-13 0
-2.026863997890888e-12 0
-3.174808763229453e-12 0
-3.702444775370868e-12 0
-3.259648601462335e-12 0
-3.631855945175179e-12 0
-3.452180465337573e-12 0
-3.176635029997936e-13 0
-2.225679528408756e-12 0
-3.95400056098713e-13 0
-9.391953653148316e-13 0
-3.416380629076679e-12 0
-1.726655968759376e-12 0
-8.023383859859575e-13 0
-1.416926924085447e-12 0
-1.546669635681509e-12 0
-1.040318048230153e-12 0
-2.397368721400922e-12 0
-1.5378655269516e-12 0
-3.690225622640377e-13 0
-3.800273979880638e-12 0
-1.781127494860747e-12 0
-2.653415396702709e-12 0
-2.197489668822498e-12 0
-1.67287331067079e-12 0
-3.427598577982987e-12 0
-3.382645596383565e-12 0
-1.016928828575779e-12 0
-9.688515762880419e-13 0
-1.157321473858507e-12 0
-2.575557408992314e-12 0
-1.397271870775639e-12 0
-1.307856597719081e-12 0
-2.553748275397808e-12 0
-6.733691178342813e-13 0
-2.495860041194547e-12 0
-2.722099514881897e-12 0
-3.179385156023698e-13 0
-1.993998452409813e-12 0
-3.221627512815828e-12 0
-2.278135795091797e-12 0
-2.310284832084963e-12 0
-2.594583433656723e-12 0
-2.749072502740505e-12 0
-2.088106898060139e-13 0
-3.699739057483755e-12 0
-3.736444831920367e-12 0
-1.301528031022157e-12 0
-3.838515234434588e-12 0
-3.33481446439546e-12 0
-3.525704126439442e-12 0
-3.094966758899462e-12 0
-1.737922346527759e-12 0
-1.796979851197841e-12 0
-1.94556689574349e-12 0
-3.951634444624919e-13 0
-1.806101690069776e-12 0
-1.537960542095092e-12 0
-3.892681136984345e-12 0
-1.932174154532298e-12 0
-2.870955365107521e-12 0
-1.523892472075983e-12 0
-1.460100756869894e-12 0
-1.358466710807835e-12 0
-2.26788797627582e-12 0
-2.261713807121638e-12 0
-2.898251694699483e-12 0
-2.023388161603989e-12 0
-1.038510587858281e-12 0
-1.9372161386539e-12 0
-2.102371508229432e-12 0
-2.718160193912586e-12 0
-2.750571248374099e-12 0
-2.166862738487069e-12 0
-1.757157159533115e-12 0
-1.694212238213776e-12 0
-2.221601104252124e-12 0
-1.683112557601646e-12 0
-2.847532887725476e-12 0
-2.832175341170462e-12 0
-1.052107247561763e-12 0
-2.634513475731977e-12 0
-8.152919341502493e-13 0
-2.288177626275813e-12 0
-2.625160438418591e-12 0
-1.263695740805628e-12 0
-3.396913879951457e-12 0
-2.782261521565005e-12 0
-2.686589714928956e-12 0
-2.01529085263827e-12 0
-1.460940923703573e-12 0
-2.027401509974178e-12 0
-2.624840624600768e-12 0
-3.558578533427551e-12 0
-3.745073172400612e-12 0
-3.695533745946336e-12 0
-2.167948988181683e-12 0
-1.412259584845683e-12 0
-2.588688550680577e-12 0
-3.235535037383972e-12 0
-3.399309122869124e-12 0
-3.537597651989266e-12 0
-3.73823849174733e-12 0
-3.793721979796864e-12 0
-3.046038834618693e-12 0
-3.800603600373525e-12 0
-3.837517916757184e-12 0
-3.848787637922125e-12 0
-3.834206830559214e-12 0
-2.830521541863064e-12 0
-3.650555077593945e-12 0
-1.443573173278704e-12 0
-1.020937681654259e-12 0
-1.655514936546554e-12 0
-2.219564053951401e-12 0
-2.259395928216436e-12 0
-8.986568442454099e-13 0
-1.517345958149398e-12 0
-1.599862622452467e-12 0
-3.561437698011902e-12 0
-2.95978312413312e-12 0
-3.866646686523447e-12 0
-2.399067030833693e-12 0
-1.801027800631514e-12 0
-2.880500123385596e-12 0
-1.951181606881195e-12 0
-3.894181622875017e-12 0
-1.746968437974324e-12 0
-3.036537063970296e-12 0
-2.015985132994806e-12 0
-1.50672800551973e-12 0
-2.555982392302027e-12 0
-2.503551674114004e-12 0
-2.234680037983751e-12 0
-2.03587961992504e-12 0
-3.383856353385072e-12 0
-1.826180915476923e-12 0
-1.900250204773767e-12 0
-9.14995310492533e-13 0
-2.764818056241488e-12 0
-2.798454334475797e-12 0
-2.017197772109876e-12 0
-2.945005528723684e-12 0
-1.845799174939022e-12 0
-1.368760334738453e-12 0
-1.929698385309852e-12 0
-1.274044976348786e-12 0
-2.031601531127351e-12 0
-1.589369609416723e-12 0
-9.542386339890022e-13 0
-6.038383668483884e-13 0
-2.655837276070636e-12 0
-2.94946155623394e-12 0
-3.670557521531841e-12 0
-2.291466494980799e-12 0
-2.882404700200683e-12 0
-1.648308299700915e-12 0
-3.881624515283332e-12 0
-2.536444043735033e-13 0
-2.967055674462637e-12 0
-2.724899785305597e-12 0
-1.135357828048051e-12 0
-5.989244966821015e-13 0
-1.6744821495082e-12 0
-2.257355813936532e-12 0
-2.926384542483985e-12 0
-1.921982278117297e-12 0
-7.121947388674253e-13 0
-3.466109184638205e-12 0
-3.364729189286245e-12 0
-3.058843287771109e-13 0
-2.00720032828492e-12 0
-2.864368674712356e-12 0
-2.159833692886623e-12 0
-2.584809099914317e-13 0
-1.407973839665198e-12 0
-1.223066960689222e-12 0
-1.294766954904152e-12 0
-3.906658585406088e-12 0
-6.449389927332908e-13 0
-2.83262927198083e-12 0
-1.981586833611125e-12 0
-3.011508192821865e-12 0
-3.012281494489225e-12 0
-7.742305451943767e-13 0
-2.816611947524152e-12 0
-1.469401637375325e-12 0
-2.441729772568351e-12 0
-1.903214580367821e-12 0
-3.178316392204689e-12 0
-4.632616501574702e-13 0
-3.021077887403677e-12 0
-1.155631404717951e-12 0
-2.712292801286509e-12 0
-2.094478403846099e-12 0
-1.669734248008839e-12 0
-2.273661179098018e-12 0
-2.938463462813679e-12 0
-3.17525276808071e-12 0
-8.178251175830444e-13 0
-2.571190792342511e-12 0
-2.561854036042773e-12 0
-1.777029296464498e-12 0
-3.904294083841703e-13 0
-3.051657508630849e-12 0
-1.137532829646303e-12 0
-2.864223330307705e-12 0
-2.337428586642304e-12 0
-2.00268003345176e-12 0
-1.362554728569587e-12 0
-2.839478092917011e-13 0
-3.271123238450119e-12 0
-1.445363644521651e-12 0
-2.173542730565023e-12 0
-6.936327758151073e-13 0
-2.980112071880359e-12 0
-2.839138691740814e-13 0
-3.115807929534181e-12 0
-2.734110410147653e-12 0
-2.630230318060518e-12 0
-1.144121782451067e-12 0
-2.92094883505509e-12 0
-3.095814727863326e-12 0
-2.814971105728496e-12 0
-3.099856246360586e-12 0
-6.676726428213158e-13 0
-1.074740693292931e-12 0
-1.696606855580039e-12 0
-1.420797631375839e-12 0
-3.236343929437577e-12 0
-6.540423542743971e-13 0
-2.474457102318334e-12 0
-1.878248918493949e-12 0
-1.924363950282876e-12 0
-2.352242706570316e-12 0
-3.007653243197744e-12 0
-9.328530503901523e-13 0
-1.712255334460662e-12 0
-1.635547122802288e-12 0
-2.197758170460091e-12 0
-3.044056904413045e-12 0
-2.15550842654046e-13 0
-2.246889373386809e-12 0
-3.190090583583911e-12 0
-1.965845075841666e-13 0
-3.064734179670593e-12 0
-5.557522906417693e-13 0
-2.823543057395205e-12 0
-2.91780852595913e-12 0
-2.572758273607548e-12 0
-2.468213975323722e-12 0
-3.040366529402899e-12 0
-2.922432110646061e-12 0
-3.172654951492547e-12 0
-2.72123345238505e-12 0
-2.946157846660712e-12 0
-8.970895407156993e-13 0
-2.178755045795915e-12 0
-4.686041039546426e-13 0
-3.013794253165692e-12 0
-2.778437733160523e-12 0
-1.318368537346477e-12 0
-1.287884078914656e-12 0
-2.453414176621968e-12 0
-2.683839183789212e-12 0
-1.906903863571769e-12 0
-3.291828130302252e-12 0
-8.258660815927598e-13 0
-4.705189731174326e-13 0
-2.63742794036896e-12 0
-2.831371619518651e-12 0
-1.528054997392439e-12 0
-2.161255196562678e-13 0
-3.084136511290162e-12 0
-9.807209242023414e-13 0
-2.896470149696729e-12 0
-1.631515552786367e-12 0
-1.844700789281609e-12 0
-2.08021286991919e-12 0
-1.510547161497243e-12 0
-3.103026398990718e-12 0
-1.26502737252889e-12 0
-2.65019385719526e-12 0
-3.122758143009413e-12 0
-4.807797911545942e-13 0
-3.002560801627446e-12 0
-9.853816289418869e-13 0
-2.826688902337877e-12 0
-6.387832455763853e-13 0
-3.014680970511333e-12 0
-1.222556516714969e-12 0
-3.1646318054349e-12 0
-6.463288616771595e-13 0
-2.374382105282638e-12 0
-3.24789230179172e-12 0
-2.302084219479786e-12 0
-1.566746537346006e-13 0
-3.150414682735454e-12 0
-2.069128501941527e-12 0
-2.64006012677378e-12 0
-2.418292282775824e-12 0
-2.205959292839543e-12 0
-2.727193110941092e-12 0
-3.038100126511302e-12 0
-1.9332615758345e-12 0
-1.480664205948989e-12 0
-1.578931719636152e-12 0
-1.022252768731346e-12 0
-8.071545190241613e-13 0
-1.488128703954242e-13 0
-3.324288122588051e-12 0
-1.831807476005757e-12 0
-2.974850596194282e-12 0
-9.588370211303072e-13 0
-2.632078638145146e-12 0
-2.965679184331907e-12 0
-2.028144085013067e-12 0
-2.298212277922302e-12 0
-3.092118936957568e-12 0
-1.387955117847923e-12 0
-1.300004455998975e-13 0
-3.115769286846216e-12 0
-2.033918140555989e-12 0
-3.22798412473821e-12 0
-4.855362661525498e-13 0
-2.980694358302214e-12 0
-6.236644747862856e-13 0
-2.94194225551834e-12 0
-8.038457444654496e-13 0
-1.054789001055602e-12 0
-2.916571856738518e-12 0
-1.805690252049389e-12 0
-3.22487225546045e-13 0
-3.157157080201893e-12 0
-1.31869453053366e-12 0
-1.203314369942065e-12 0
-3.176961062985489e-12 0
-3.145850719406867e-13 0
-3.02396009076531e-12 0
-3.235434596449021e-12 0
-1.492425443711844e-13 0
-3.016299226441722e-13 0
-3.324457522432681e-12 0
-2.866050527162514e-12 0
-2.546573441962934e-12 0
-2.18361543545304e-12 0
-1.094911432679894e-12 0
-1.620743363611244e-12 0
-2.872950955315252e-12 0
-2.531154619842413e-12 0
-1.313631912179468e-12 0
-2.226594553317482e-12 0
-2.068433202354253e-12 0
-2.347855589626439e-12 0
-1.280290689861204e-12 0
-1.462864180493205e-12 0
-1.544731995014536e-13 0
-3.034966107924518e-12 0
-2.386117124147659e-12 0
-9.280285166287708e-13 0
-1.597423871551946e-13 0
-3.064532588370535e-12 0
-3.209872524761729e-12 0
-3.166695362102735e-13 0
-2.65714054296551e-12 0
-5.645527636816633e-13 0
-3.141380105992378e-12 0
-2.806806723317823e-12 0
-3.293152188667078e-12 0
-6.563103700650539e-13 0
-2.969939212077733e-12 0
-3.122290838265879e-12 0
-2.722920574521211e-12 0
-3.888216613924971e-13 0
-3.082170834914101e-12 0
-2.838334408020245e-12 0
-1.756898297522833e-12 0
-2.475254553480632e-12 0
-1.740064554055646e-12 0
-1.166367585780875e-12 0
-2.494949245381502e-12 0
-1.962627800031833e-12 0
-3.230013534948023e-12 0
-8.926564118669099e-14 0
-3.279690761389866e-12 0
-2.526491644132153e-12 0
-2.706306605710078e-12 0
-3.048919475508297e-12 0
-2.5628744885821e-12 0
-1.767497419270838e-12 0
-2.094998973958798e-12 0
-3.045100080336781e-12 0
-7.822903055156112e-13 0
-2.768918148775583e-12 0
-2.777504126367577e-12 0
$EndSolution
